<svg width="48" height="48" viewBox="0 0 48 48" fill="none" xmlns="http://www.w3.org/2000/svg" xmlns:xlink="http://www.w3.org/1999/xlink">
<path d="M20,26L8,26C7.47,26 6.961,26.211 6.586,26.586C6.211,26.961 6,27.47 6,28L6,40C6,40.53 6.211,41.039 6.586,41.414C6.961,41.789 7.47,42 8,42L20,42C20.53,42 21.039,41.789 21.414,41.414C21.789,41.039 22,40.53 22,40L22,28C22,27.47 21.789,26.961 21.414,26.586C21.039,26.211 20.53,26 20,26ZM18,38L10,38L10,30L18,30L18,38ZM40,6L28,6C27.47,6 26.961,6.211 26.586,6.586C26.211,6.961 26,7.47 26,8L26,20C26,20.53 26.211,21.039 26.586,21.414C26.961,21.789 27.47,22 28,22L40,22C40.53,22 41.039,21.789 41.414,21.414C41.789,21.039 42,20.53 42,20L42,8C42,7.47 41.789,6.961 41.414,6.586C41.039,6.211 40.53,6 40,6ZM38,18L30,18L30,10L38,10L38,18ZM40,32L36,32L36,28C36,27.47 35.789,26.961 35.414,26.586C35.039,26.211 34.53,26 34,26C33.47,26 32.961,26.211 32.586,26.586C32.211,26.961 32,27.47 32,28L32,32L28,32C27.47,32 26.961,32.211 26.586,32.586C26.211,32.961 26,33.47 26,34C26,34.53 26.211,35.039 26.586,35.414C26.961,35.789 27.47,36 28,36L32,36L32,40C32,40.53 32.211,41.039 32.586,41.414C32.961,41.789 33.47,42 34,42C34.53,42 35.039,41.789 35.414,41.414C35.789,41.039 36,40.53 36,40L36,36L40,36C40.53,36 41.039,35.789 41.414,35.414C41.789,35.039 42,34.53 42,34C42,33.47 41.789,32.961 41.414,32.586C41.039,32.211 40.53,32 40,32ZM20,6L8,6C7.47,6 6.961,6.211 6.586,6.586C6.211,6.961 6,7.47 6,8L6,20C6,20.53 6.211,21.039 6.586,21.414C6.961,21.789 7.47,22 8,22L20,22C20.53,22 21.039,21.789 21.414,21.414C21.789,21.039 22,20.53 22,20L22,8C22,7.47 21.789,6.961 21.414,6.586C21.039,6.211 20.53,6 20,6ZM18,18L10,18L10,10L18,10L18,18Z" fill="#000000"/>
<rect  x="26" y="26" width="12" height="12" fill="#FFFFFF" stroke="#000000" stroke-width="2" stroke-miterlimit="3.999327"/>
</svg>
