<svg width="2" height="2" viewBox="0 0 2 2" fill="none" xmlns="http://www.w3.org/2000/svg" xmlns:xlink="http://www.w3.org/1999/xlink">
<path d="M0.347,0.58L0.413,0.607L0.499,0.58L0.535,0.612L0.402,0.663L0.318,0.571L0.278,0.42L0.268,0.293L0.306,0.293L0.306,0.344L0.316,0.386L0.346,0.469L0.324,0.525L0.347,0.58ZM0.785,0.643L0.721,0.672L0.665,0.651L0.649,0.634L0.643,0.607L0.707,0.603L0.757,0.578L0.789,0.534L0.799,0.473L0.825,0.533L0.821,0.592L0.785,0.643Z" fill="#7699BB" stroke="#DCDCDC" stroke-width="0.5" stroke-miterlimit="3.999327"/>
</svg>
