<svg width="40" height="40" viewBox="0 0 40 40" fill="none" xmlns="http://www.w3.org/2000/svg" xmlns:xlink="http://www.w3.org/1999/xlink">
<path d="M36.124,30.923C35.052,29.967 34.114,28.872 33.335,27.667C32.484,26.003 31.974,24.186 31.835,22.323L31.835,16.834C31.842,13.907 30.781,11.078 28.849,8.878C26.918,6.679 24.25,5.26 21.346,4.889L21.346,3.456C21.346,3.063 21.19,2.685 20.912,2.407C20.634,2.129 20.256,1.973 19.863,1.973C19.469,1.973 19.092,2.129 18.814,2.407C18.536,2.685 18.38,3.063 18.38,3.456L18.38,4.912C15.502,5.309 12.866,6.736 10.96,8.928C9.054,11.12 8.007,13.929 8.013,16.834L8.013,22.323C7.874,24.186 7.364,26.003 6.513,27.667C5.747,28.87 4.824,29.965 3.768,30.923C3.65,31.027 3.555,31.155 3.49,31.299C3.425,31.442 3.391,31.598 3.391,31.756L3.391,33.267C3.391,33.562 3.508,33.844 3.716,34.053C3.924,34.261 4.207,34.378 4.502,34.378L35.391,34.378C35.685,34.378 35.968,34.261 36.176,34.053C36.385,33.844 36.502,33.562 36.502,33.267L36.502,31.756C36.502,31.598 36.468,31.442 36.403,31.299C36.337,31.155 36.242,31.027 36.124,30.923ZM5.702,32.156C6.736,31.157 7.646,30.038 8.413,28.823C9.485,26.813 10.11,24.596 10.246,22.323L10.246,16.834C10.202,15.532 10.421,14.234 10.888,13.018C11.356,11.802 12.064,10.692 12.97,9.756C13.875,8.819 14.96,8.074 16.16,7.565C17.359,7.056 18.649,6.794 19.952,6.794C21.255,6.794 22.544,7.056 23.744,7.565C24.943,8.074 26.028,8.819 26.934,9.756C27.839,10.692 28.547,11.802 29.015,13.018C29.483,14.234 29.701,15.532 29.657,16.834L29.657,22.323C29.793,24.596 30.419,26.813 31.491,28.823C32.258,30.038 33.168,31.157 34.202,32.156L5.702,32.156Z" fill="#000000"/>
<path d="M20.001,38.088C20.701,38.072 21.373,37.809 21.897,37.345C22.422,36.882 22.766,36.247 22.868,35.555L17.023,35.555C17.128,36.266 17.488,36.915 18.036,37.381C18.584,37.847 19.282,38.098 20.001,38.088L20.001,38.088Z" fill="#000000"/>
</svg>
