<svg width="374" height="290" viewBox="0 0 374 290" fill="none" xmlns="http://www.w3.org/2000/svg" xmlns:xlink="http://www.w3.org/1999/xlink">
<path d="M131.133,176.033L131.101,176.162L130.943,176.509L130.84,176.883L130.926,177.192L131.281,177.557L131.759,177.849L132.364,177.871L132.924,177.758L133.146,177.805L133.45,178.294L133.668,178.715L133.372,179.151L133.212,179.532L133.156,179.803L133.192,179.921L133.372,180.138L133.582,180.512L133.612,180.856L133.478,181.082L133.19,181.195L132.882,181.162L132.628,181.168L132.313,181.208L131.817,181.333L131.357,181.496L130.492,181.467L130.146,181.128L129.984,181.126L129.199,181.565L128.341,181.487L126.782,181.634L126.129,181.669L125.459,181.62L125.119,181.527L124.492,181.219L123.92,180.995L123.341,181.2L123.135,181.239L122.671,181.765L121.662,181.939L120.656,182.066L120.359,181.997L119.791,181.965L119.771,181.841L119.789,181.722L119.659,181.627L119.429,181.529L119.033,181.487L118.526,181.357L118.234,181.231L117.203,181.417L116.601,181.139L115.918,180.756L115.572,180.59L115.448,179.999L115.326,179.808L115.056,179.606L114.906,179.37L115.028,179.129L115.708,178.677L115.762,178.57L116.077,177.727L116.515,177.419L116.947,176.992L117.273,176.313L117.9,175.614L118.592,174.897L119.067,174.312L119.381,174.04L120.033,173.748L120.576,173.575L120.954,173.185L121.408,172.965L121.873,172.867L122.567,172.922L123.219,173.06L123.934,173.256L124.016,173.414L123.954,173.69L123.852,173.973L123.85,174.116L123.958,174.196L124.658,174.251L125.515,174.207L125.995,174.245L127.066,174.505L127.378,174.688L127.706,174.828L128.027,174.804L128.431,174.503L128.857,174.249L129.121,174.207L129.311,174.289L129.65,174.532L130.358,174.761L130.985,174.933L131.191,175.097L131.119,175.799L131.133,176.033Z" fill="#4B91EC" stroke="#DCDCDC" stroke-width="0.5" stroke-miterlimit="3.999327"/>
<path d="M239.149,219.12L239.429,219.36L239.611,219.708L239.759,220.346L239.849,220.934L239.285,221.308L238.777,221.46L237.759,222.892L237.547,223.344L237.375,223.532L237.321,223.728L237.341,223.924L237.077,224.612L236.845,225.456L236.699,225.8L236.407,226.066L236.037,226.2L235.797,226.22L235.579,226.292L235.041,226.752L234.435,227.096L234.537,227.254L234.543,227.406L234.277,227.572L233.983,227.54L233.131,227.676L232.819,227.934L232.499,228.41L232.377,228.474L231.861,228.586L231.469,228.626L230.799,228.292L230.469,228.194L229.585,228.056L228.724,227.83L228.12,227.57L226.883,226.934L226.739,225.786L226.527,225.164L226.513,224.944L226.595,223.028L226.681,222.818L226.839,222.634L227.385,222.206L228.01,221.866L228.908,221.154L229.559,220.83L230.105,220.36L229.785,220.38L229.549,220.32L229.781,219.92L230.031,219.706L230.321,219.59L230.899,219.672L231.435,219.59L231.831,219.234L232.207,219.158L233.639,219.274L234.629,219.11L235.125,218.782L235.359,218.768L236.091,218.862L236.363,219.202L236.339,218.974L236.371,218.75L236.505,218.774L237.461,219.198L237.463,218.68L237.517,218.544L237.815,218.328L237.965,218.332L238.337,218.748L238.699,218.992L239.149,219.12ZM236.325,213.164L236.533,213.352L237.087,213.22L237.189,213.46L237.185,213.572L236.987,213.848L236.529,213.636L236.071,213.686L235.739,213.666L235.649,213.536L235.903,213.268L236.325,213.164ZM248.993,210.19L248.445,210.304L248.327,210.282L248.519,210L249.015,209.806L248.993,210.19ZM249.815,210.398L249.707,210.506L249.543,210.308L249.497,210.026L249.379,209.872L249.649,209.68L249.769,209.468L250.089,209.51L250.221,209.572L249.939,209.794L249.873,209.888L249.815,210.398ZM254.107,203.818L254.153,204.072L253.715,203.686L253.589,203.664L253.381,203.518L253.259,203.274L253.599,203.266L253.911,203.554L254.107,203.818ZM280.065,194.459L279.877,194.795L279.545,194.739L279.535,194.501L279.467,194.432L279.559,194.21L279.619,194.149L279.995,194.337L280.065,194.459ZM289.253,189.089L288.835,189.348L288.575,189.225L288.571,188.876L288.703,188.562L288.551,188.335L288.699,188.067L289.009,187.987L289.121,188.156L289.295,188.245L289.349,188.337L289.351,188.513L289.185,188.804L289.315,188.962L289.253,189.089ZM297.275,174.161L296.785,174.299L296.601,174.299L296.617,173.882L297.017,173.484L297.179,173.617L297.271,173.824L297.275,174.161ZM302.441,164.94L302.421,165.049L301.945,164.67L301.715,164.608L301.825,164.392L302.145,164.338L302.401,164.813L302.441,164.94ZM303.741,163.695L303.687,163.965L303.537,163.927L303.337,163.446L303.445,163.328L303.729,163.357L303.741,163.695ZM303.135,163.279L303.053,163.393L302.359,163.058L301.609,162.987L301.349,162.691L301.303,162.226L302.093,162.246L303.069,162.665L303.279,162.88L303.135,163.279ZM300.703,154.26L300.243,154.43L298.785,153.92L297.753,153.359L297.137,152.678L297.049,152.397L297.767,152.444L298.469,152.689L298.625,153.063L298.909,153.181L299.101,153.399L300.399,153.906L300.599,154.058L300.703,154.26ZM309.829,-0.11L310.083,-0.084L310.223,-0.086L310.493,-0.257L311.237,0.046L312.663,0.947L313.557,1.346L313.925,1.248L314.325,1.497L314.763,2.092L315.305,2.443L316.281,2.604L317.247,3.254L317.637,3.291L317.773,2.926L318.135,2.717L318.719,2.663L319.565,2.984L320.669,3.679L321.363,3.984L321.645,3.901L321.941,4.03L322.179,4.355L322.201,4.756L322.119,4.97L322.385,5.308L322.691,5.308L323.189,5.469L323.581,6.065L323.933,6.341L324.179,6.579L324.223,6.777L324.245,6.976L324.173,7.131L324.039,7.387L323.997,7.661L324.167,7.969L324.789,8.193L324.999,8.423L325.047,8.717L325.241,9.042L325.665,9.418L325.823,9.732L325.727,9.985L325.853,10.195L326.059,10.36L326.103,10.958L326.121,11.301L326.463,11.686L326.533,12.474L326.771,13.343L327.573,14.532L327.839,15.175L327.771,15.938L327.887,16.295L328.253,16.468L328.427,16.789L328.407,17.259L328.549,17.552L328.665,17.862L328.587,18.345L328.703,18.779L328.889,19.033L329.021,19.502L329.095,20.086L329.633,21.009L330.631,22.268L331.243,23.245L331.465,23.939L331.467,24.509L331.249,24.956L331.237,25.28L331.433,25.484L331.491,25.758L331.413,26.105L331.737,26.515L332.831,27.227L332.393,28.316L332.277,29.08L332.335,29.883L332.607,30.447L333.089,30.774L333.389,31.116L333.507,31.471L334.087,31.858L335.125,32.278L336.459,32.352L338.083,32.078L339.077,32.032L339.443,32.214L339.569,32.49L339.451,32.859L339.727,33.1L340.395,33.216L340.851,33.447L341.103,33.795L341.411,33.893L341.777,33.743L342.133,33.764L342.479,33.957L342.703,33.89L342.899,33.679L343.213,33.679L343.535,33.683L343.733,34.193L344.057,34.48L344.505,34.543L345.187,35.162L346.559,36.922L347.449,37.544L348.343,37.739L349.455,37.779L349.813,38.458L349.523,39.175L349.449,39.772L349.701,39.986L350.047,40.687L350.539,41.094L350.633,41.415L350.861,41.775L350.765,42.437L350.343,43.405L350.459,44.229L351.111,44.91L351.487,45.565L351.585,46.194L351.747,46.575L351.977,46.709L352.643,46.662L353.753,46.435L354.565,46.473L355.085,46.78L356.365,46.791L358.411,46.508L359.701,46.421L360.241,46.529L360.721,46.125L361.143,45.204L361.537,44.772L361.905,44.827L362.489,44.531L363.291,43.882L363.987,43.568L364.867,43.601L365.807,43.634L366.395,43.361L366.947,42.793L367.903,42.29L369.945,41.631L370.433,41.528L370.667,41.564L371.347,41.667L371.951,41.925L372.521,42.443L372.609,42.775L372.545,43.211L372.419,43.463L372.185,43.746L371.965,44.206L372.107,44.563L372.437,45.328L372.709,45.88L373.009,46.529L372.875,46.762L372.693,47.212L372.135,47.973L371.831,48.263L371.503,48.547L370.937,48.616L370.695,48.681L370.423,48.801L370.251,49.069L370.055,49.258L369.731,49.636L369.705,49.961L369.851,50.444L369.923,50.938L369.557,51.379L369.273,52.056L369.187,52.259L369.047,52.771L369.005,52.949L368.915,54.024L368.549,54.756L368.039,55.605L368.153,56.112L368.243,56.58L368.117,56.807L368.085,57.005L368.011,57.455L367.851,57.628L367.389,57.909L367.111,58.249L367.169,58.763L367.027,59.207L366.815,59.599L366.593,59.855L366.273,60.019L366.061,60.157L365.901,60.654L365.853,61.039L365.703,61.422L365.795,61.813L365.633,62.15L365.177,62.386L364.919,62.526L364.681,62.582L364.227,62.949L363.819,64.204L363.727,64.932L363.821,65.578L363.249,65.983L362.825,66.304L362.559,66.188L362.277,66.079L361.629,65.939L361.307,65.845L360.655,65.634L359.611,65.367L358.591,65.057L357.953,64.894L357.449,64.763L357.067,64.549L356.745,64.166L356.425,64.32L356.129,64.774L355.635,65.042L355.413,65.538L355.215,65.918L354.703,66.424L354.475,66.633L353.473,66.976L353.247,67.09L352.431,67.163L352.153,67.314L351.865,67.633L351.787,67.951L351.991,68.285L352.309,68.953L352.457,69.409L352.673,70.311L353.397,73.131L353.163,73.615L352.945,75.716L352.997,76.094L352.975,76.682L352.989,77.112L353.139,77.219L353.335,77.37L353.435,77.62L353.409,78.005L353.309,78.287L353.155,78.844L352.951,79.648L352.725,79.957L352.579,80.202L352.453,80.371L352.437,80.939L352.353,81.313L351.999,81.446L351.647,81.664L351.229,81.584L350.861,81.627L350.407,81.773L349.593,81.941L349.123,82.167L348.897,82.33L348.741,82.526L348.713,82.715L348.821,82.815L349.279,82.891L349.593,83.243L349.635,83.628L349.313,83.848L349.153,83.606L348.883,83.53L348.381,83.191L348.013,82.817L347.739,82.403L347.751,81.518L347.705,81.386L347.205,81.204L347.057,80.939L346.819,80.814L346.483,80.894L346.229,80.81L346.027,80.665L345.787,80.649L345.579,80.878L345.467,81.37L345.117,82.185L345.085,82.677L344.935,83.377L344.785,84.265L344.659,84.45L344.269,84.478L344.135,84.536L343.929,84.837L343.685,84.888L343.467,84.712L343.125,84.536L342.799,84.512L342.507,84.688L342.163,85.071L341.967,85.38L341.897,85.671L341.843,86.028L341.495,86.37L341.179,86.549L340.527,87.052L340.319,87.261L339.851,87.263L339.341,87.243L338.653,87.379L337.535,87.448L336.865,87.344L336.037,87.441L335.391,87.604L335.299,87.849L335.323,88.212L335.451,88.448L335.609,88.606L335.877,89.093L336.159,89.563L336.585,89.866L336.763,90.193L336.771,90.496L336.569,90.877L336.263,91.375L335.977,91.682L335.763,91.671L335.435,91.493L335.213,91.268L334.685,91.184L333.389,91.328L332.741,91.228L332.431,91.045L331.889,91.032L331.053,90.787L330.541,90.709L330.299,90.553L330.253,90.193L330.013,89.946L329.877,89.65L329.573,89.278L329.281,89.091L328.993,89.013L328.681,89.238L328.345,89.441L328.095,89.396L327.973,89.452L327.837,89.621L327.297,89.966L327.171,90.282L326.957,90.952L326.807,91.64L326.679,91.883L326.461,91.925L326.239,92.132L325.775,92.777L325.353,93.37L324.741,93.771L324.451,94.138L324.303,94.472L323.867,94.939L323.227,95.022L322.719,95.159L322.407,95.195L322.183,95.384L322.019,95.671L321.941,95.785L321.651,95.785L321.363,96.028L320.657,96.582L320.081,96.685L319.363,97.054L318.729,97.334L318.465,97.491L318.395,97.666L318.303,97.887L317.997,97.931L317.701,97.92L317.041,98.426L316.709,98.857L315.411,99.772L314.881,100.286L314.745,100.95L314.677,100.901L314.215,101.48L313.309,102.03L311.369,102.154L310.757,101.763L310.535,102.032L310.363,102.393L309.853,102.513L309.059,102.546L308.613,102.784L308.375,103.049L307.287,103.134L306.887,103.488L306.207,103.613L303.375,105.157L302.757,105.805L302.171,106.562L301.763,106.941L301.395,107.206L301.061,107.315L300.733,107.577L300.401,107.609L300.063,107.49L299.685,107.531L299.435,107.847L299.645,108.259L299.529,108.434L298.787,108.657L297.679,108.804L297.211,109.073L297.047,109.225L296.803,109.302L296.567,108.771L296.483,108.071L296.941,107.902L297.363,107.813L299.699,106.843L299.407,106.113L299.615,105.796L300.139,105.278L300.479,105.022L300.295,104.928L298.763,105.099L297.885,105.086L297.433,105.033L297.569,104.59L297.493,104.147L297.387,103.982L298.169,103.477L298.523,103.354L298.793,103.361L298.773,103.056L298.549,102.597L298.791,102.003L300.381,101.304L300.763,100.669L301.401,100.075L302.567,98.597L302.637,98.345L302.977,97.649L303.037,97.372L302.497,96.965L302.283,96.395L300.705,95.364L300.571,94.476L300.423,94.514L300.183,95.135L299.977,95.335L299.245,95.353L298.901,95.119L296.865,94.966L296.367,95.367L295.905,95.986L295.451,96.429L294.995,96.656L294.599,97.059L292.965,99.445L292.347,99.627L289.439,101.063L287.981,101.625L286.861,102.617L286.475,103.216L286.133,103.88L285.925,104.884L284.889,106.103L284.533,106.364L284.173,106.469L283.691,106.431L283.275,106.507L282.567,106.4L281.699,106.785L280.725,107.117L279.883,106.28L279.281,106.073L278.301,106.306L277.845,106.678L276.901,108.517L276.547,109.568L276.571,109.999L277.121,111.302L277.743,112.03L279.135,112.86L282.097,113.43L282.793,113.227L283.539,113.225L284.323,113.766L284.815,114.659L284.859,115.267L284.875,115.478L285.055,115.658L285.161,115.965L284.849,116.219L284.609,116.346L284.407,117.288L284.395,118.328L284.649,118.673L285.287,119.158L286.273,119.557L287.185,119.643L288.925,119.45L289.637,118.824L289.595,118.553L289.613,118.203L291.145,117.283L292.019,116.466L291.883,116.25L291.715,116.106L291.869,116.023L292.347,115.965L294.477,115.111L296.153,115.808L297.111,116.611L298.059,116.745L298.715,117.156L299.471,117.504L300.459,117.528L301.293,117.6L301.547,117.277L301.809,117.065L302.103,117.106L302.437,117.529L303.385,117.855L304.259,117.838L304.871,117.72L305.233,117.871L304.709,118.412L304.787,119.283L304.385,119.559L303.999,120.002L304.227,120.295L304.429,120.418L304.409,120.772L304.057,120.974L303.405,121.5L303.029,121.491L302.851,121.389L302.725,121.201L302.631,120.897L302.403,120.698L301.773,120.621L301.117,120.694L299.641,121.475L298.201,122.096L296.691,122.588L296.185,122.898L295.827,122.983L295.201,122.749L294.823,122.764L294.743,122.925L295.225,123.357L295.351,123.695L295.301,123.955L295.027,124.069L294.629,123.88L294.265,124.151L294.101,124.606L294.093,125.69L293.853,125.932L293.187,126.064L292.481,126.409L292.229,126.25L292.129,126.055L292.203,125.558L292.115,125.314L291.791,125.327L291.303,125.476L290.931,125.803L290.803,126.001L291.293,126.638L291.759,126.703L291.873,126.847L291.503,127.157L290.581,127.618L290.427,128.005L290.155,128.375L289.779,128.67L289.523,128.98L289.211,129.142L288.701,129.323L288.075,130.064L287.617,130.756L287.075,131.112L286.645,132.277L285.875,132.909L285.591,133.918L285.791,134.537L286.637,134.532L287.059,134.75L287.933,135.563L288.981,136.093L290.069,136.391L291.401,137.141L291.769,137.459L292.083,138.103L292.661,139.955L293.077,140.87L293.105,141.347L293.727,142.246L294.393,143.789L295.161,145.122L295.307,146.17L295.059,146.647L295.061,147.266L295.827,147.834L297.529,148.493L297.801,148.688L298.135,149.007L298.151,150L298.415,150.316L298.637,150.509L299.667,150.928L300.099,151.277L300.557,151.832L300.689,152.33L300.745,153.003L300.169,153.027L299.705,152.951L297.861,152.075L297.381,152.052L296.703,152.173L295.739,152.012L294.719,151.041L293.983,150.747L293.193,150.598L291.311,151.433L290.831,151.373L290.693,151.467L290.481,151.611L291.355,151.79L292.231,151.516L293.069,151.111L294.295,151.327L294.501,151.692L294.703,152.308L295.543,152.724L296.201,152.907L297.041,153.452L297.861,154.301L299.597,155.285L300.301,156.215L300.573,156.814L300.817,157.669L300.209,157.945L299.679,157.983L298.851,158.118L298.241,158.421L297.629,158.951L295.877,159.784L295.545,160.305L295.317,160.759L294.889,160.982L293.815,160.77L292.805,160.788L291.659,161.4L291.373,161.649L291.563,161.6L291.743,161.522L292.259,161.614L293.057,161.288L293.835,162.284L295.357,162.123L296.785,161.295L297.339,161.28L297.801,161.407L298.319,161.734L299.693,163.185L300.449,163.343L301.189,163.682L301.599,163.72L301.969,163.822L300.973,164.352L299.687,165.496L299.115,165.768L298.733,166.073L299.767,165.921L300.503,165.374L300.875,165.24L301.173,165.367L301.325,166.041L301.041,168.107L300.679,168.143L300.327,167.582L299.915,167.404L299.569,167.52L298.885,167.517L298.623,167.771L298.403,168.13L298.813,168.205L299.619,168.831L299.701,169.163L299.485,169.379L298.921,169.287L299.607,169.753L299.425,170.236L299.203,170.427L298.805,170.549L298.559,170.966L298.913,171.661L299.269,172.551L299.313,172.98L298.755,172.794L297.881,173.337L297.421,173.383L297.109,172.667L296.711,172.78L296.445,172.987L296.093,173.753L295.661,174.445L295.289,174.633L294.843,174.579L294.475,174.599L294.565,174.786L294.953,175.013L294.953,175.278L294.125,176.119L293.991,176.444L294.011,176.72L293.577,177.055L293.811,177.62L293.689,178.018L293.309,178.555L292.911,178.909L292.441,179.483L291.845,179.815L291.059,181.015L290.827,181.614L290.769,182.233L290.523,182.448L290.103,182.716L289.623,182.58L289.607,182.168L289.399,182.132L289.281,181.861L289.245,181.518L289.295,181.24L289.095,181.326L288.971,181.647L288.655,181.908L288.325,181.803L287.969,181.589L287.979,181.897L288.169,182.208L288.251,182.518L288.743,182.585L289.073,182.941L289.333,183.488L289.385,183.693L289.587,183.936L289.615,184.145L289.145,184.337L288.557,184.697L287.851,185.312L287.269,185.723L286.745,185.726L286.427,185.679L285.973,185.443L285.451,185.345L286.151,186.175L286.533,186.322L287.013,186.291L287.477,185.982L288.139,186.015L288.305,186.493L288.129,187.032L287.767,187.731L287.693,188.335L288.141,189.199L288.161,189.459L287.993,189.588L287.467,189.361L287.035,189.074L286.597,189.15L286.143,189.029L285.677,189.131L285.487,189.33L285.615,189.659L286.033,189.931L286.267,190.351L285.987,190.498L284.801,190.4L284.537,190.479L284.185,190.941L284.413,191.623L284.153,192.046L283.665,192.146L283.023,192.487L282.627,192.567L282.647,192.716L282.937,192.865L283.091,193.067L282.741,193.762L282.199,193.991L281.367,193.876L280.715,194.032L280.149,193.736L279.545,193.731L279.135,194.105L279.091,194.539L278.693,194.583L278.479,194.55L278.179,194.581L278.211,194.813L278.381,195.016L279.197,195.107L279.343,195.4L279.375,195.85L278.521,196.625L278.159,197.148L277.611,197.133L277.197,197.553L276.975,198.121L276.701,198.008L276.067,198.099L275.881,198.37L276.029,198.482L276.043,198.677L275.789,199.314L275.513,199.494L275.393,199.232L275.305,198.827L275.083,198.796L274.713,199.169L274.281,199.435L273.911,199.546L273.631,199.299L272.945,199.17L272.665,200.24L272.099,200.628L271.833,200.75L271.369,200.786L271.665,200.932L271.757,201.206L271.591,201.48L271.127,201.534L270.857,201.746L270.753,202.7L270.477,203.034L269.773,203.06L269.249,202.84L269.081,203.014L268.993,203.184L268.717,203.356L268.185,203.402L267.003,203.828L266.461,203.706L265.817,203.544L265.371,203.702L265.223,204.028L265.017,204.282L264.369,204.282L263.849,203.968L263.321,203.742L262.735,203.938L262.289,204.336L261.741,204.472L261.639,204.72L261.401,204.844L260.821,204.79L260.601,204.174L260.269,204.082L259.939,204.396L259.821,204.638L259.667,204.824L259.721,205.326L259.395,205.338L258.969,205.028L258.521,204.974L258.103,205.262L257.891,205.19L257.667,205.13L257.303,205.13L257.163,205.206L256.895,205.252L256.715,205.408L256.699,205.42L256.227,205.316L255.649,204.898L255.235,204.204L254.709,203.83L254.479,203.502L254.389,202.912L254.293,202.63L254.325,202.318L254.485,202.04L253.919,202.18L253.501,202.44L253.587,202.766L253.483,203.07L252.859,203.228L252.897,203.354L252.939,203.49L253.427,203.904L253.527,204.25L253.725,204.436L254.107,204.974L254.097,206.016L254.307,206.31L254.237,206.602L254.085,206.996L254.071,207.002L253.959,206.882L253.775,206.906L253.701,207.038L253.689,207.158L253.657,207.164L253.333,207.25L253.061,207.326L252.841,207.43L252.495,207.742L251.837,207.818L251.501,207.092L251.047,207.576L250.911,208.566L250.743,208.734L250.461,208.876L249.927,208.53L249.461,208.762L249.097,208.996L248.947,209.212L248.679,209.446L248.167,209.218L247.753,208.88L247.857,208.624L247.799,208.456L247.613,208.33L247.407,208.348L247.509,208.68L247.577,209.316L247.389,209.498L247.099,209.64L246.473,209.524L246.047,209.288L245.531,209.088L245.075,209.052L244.975,209.454L244.679,209.776L244.405,209.816L244.131,209.766L243.771,210.114L243.601,210.368L243.157,210.636L241.979,210.768L241.567,211.032L241.015,210.99L240.587,211.054L240.341,211.04L240.121,210.896L239.873,210.892L239.759,211.336L239.093,211.522L238.493,211.574L237.825,212.158L237.349,212.512L236.995,212.548L236.735,212.424L236.607,211.9L236.475,211.838L236.399,212.33L236.273,212.74L236.029,212.962L235.257,213.47L235.035,213.976L235.183,214.442L236.221,214.556L236.349,214.812L236.249,215.022L236.001,215.196L235.927,215.458L237.039,216.288L237.073,216.602L236.901,216.782L236.693,217.17L236.107,217.496L234.863,217.664L233.825,217.494L233.513,217.122L233.533,216.856L233.789,216.934L234.081,216.91L233.993,216.666L233.869,216.524L233.393,216.308L233.005,215.726L233.079,215.242L232.869,214.866L232.637,214.552L232.405,214.362L232.279,214.128L232.515,213.392L232.385,212.962L232.829,212.436L232.939,211.842L233.729,211.63L233.783,211.064L233.217,211.048L232.823,210.632L232.733,210.808L232.417,210.826L231.897,210.024L231.741,209.922L231.489,209.908L231.615,210.754L231.005,211.07L230.507,211.21L229.799,211.268L229.395,211.366L229.02,211.286L229.111,211.03L229.311,210.726L229.133,210.47L228.734,210.274L228.122,210.284L227.7,210.23L227.281,210.252L227.127,210.138L226.737,209.736L226.407,209.488L226.259,209.238L226.407,208.95L226.283,208.774L225.646,208.754L225.65,209.168L225.716,209.656L225.902,210.026L225.77,210.234L225.446,210.376L225.1,209.984L224.942,209.888L224.776,209.906L224.65,210.296L224.337,210.642L223.773,210.604L223.333,210.818L222.802,210.916L222.44,210.63L221.842,210.168L221.605,210.116L220.941,210.34L219.988,210.424L219.776,210.184L219.316,210.366L218.872,209.812L218.347,209.776L217.691,209.356L217.455,209.134L217.381,208.814L217.182,208.648L216.926,208.668L216.64,208.498L216.188,208.33L215.824,208.23L215.645,208.306L215.455,208.346L215.421,208.132L215.435,207.486L215.401,206.912L215.301,206.652L215.057,206.456L214.837,206.362L214.739,206.066L214.819,205.484L214.999,205.09L215.283,205.02L215.667,204.736L215.862,204.334L216.108,203.96L215.233,203.434L214.773,203.246L214.263,203.326L213.63,203.492L213.3,203.526L213.134,203.46L212.764,202.988L212.565,202.906L212.117,202.876L211.739,202.88L211.523,203.084L211.188,203.154L210.852,203.164L210.512,202.908L210,202.574L209.199,202.338L209.101,202.068L208.897,201.742L208.593,201.442L208.09,201.042L207.668,200.834L207.462,200.962L207.182,201.188L206.099,201.666L205.619,201.854L205.363,201.986L205.15,202.186L205.084,202.678L204.978,203.226L204.666,203.504L204.37,203.714L204.06,203.736L203.757,203.726L203.471,203.814L202.599,204.364L202.19,204.32L201.852,204.01L201.708,203.786L201.318,203.836L200.819,204.1L200.587,204.572L200.465,205.012L200.355,205.208L200.187,205.264L200.039,205.274L198.482,204.002L198.386,203.936L198.106,204.198L197.852,204.872L197.671,205.002L197.547,204.948L196.903,204.084L196.737,204.002L196.591,204.032L196.398,204.312L195.99,204.724L195.678,204.974L195.67,205.252L195.33,205.498L194.936,205.742L194.805,205.768L194.543,205.67L194.201,205.344L193.953,205.006L193.34,204.668L192.652,204.382L192.196,204.16L191.937,204.104L191.695,204.204L191.573,204.34L191.401,204.678L190.989,205.23L190.621,205.67L190.28,205.95L190.008,206.146L189.804,205.964L189.428,205.814L188.987,205.814L188.405,206.094L187.947,205.536L187.827,205.508L187.651,205.556L187.448,205.688L187.308,206L187.16,206.426L186.868,206.706L186.626,206.83L186.696,207.07L186.834,207.328L186.824,207.556L186.912,207.914L187.064,208.272L187.605,208.858L187.813,209.162L187.855,209.428L187.875,210.368L187.853,210.76L187.745,211.516L187.737,211.952L187.963,212.148L188.181,212.382L188.171,212.508L188.075,212.554L187.765,212.814L187.635,212.848L187.432,212.742L187.168,212.662L186.958,212.558L186.724,212.39L186.17,212.408L185.261,212.664L185.073,212.59L184.943,212.446L184.871,212.15L184.915,211.8L184.835,211.578L184.665,211.444L184.787,210.822L184.464,210.576L184.51,210.498L184.402,209.826L184.416,209.658L184.36,209.602L184.132,209.55L183.792,209.654L182.759,210.098L181.871,210.916L181.466,211.098L181.056,211.172L180.574,211.03L180.04,210.938L179.279,211.146L178.903,211.05L178.729,210.882L178.576,210.628L178.669,210.304L178.611,210.066L178.308,209.948L177.954,209.844L177.744,209.534L177.66,209.194L177.742,208.752L177.784,208.278L177.614,208.06L177.096,207.942L175.791,207.726L174.648,207.608L174.168,207.664L173.777,207.612L173.551,207.526L173.441,207.376L173.435,207.162L173.621,206.67L173.831,206.188L174.362,205.488L174.394,205.002L174.366,204.44L174.63,203.69L175.088,203.13L175.314,202.954L175.26,202.702L175.076,202.474L174.814,202.348L174.38,202.2L173.705,202.16L172.777,202.01L171.704,201.676L171.828,201.034L171.81,200.634L171.678,200.302L171.46,200.068L171.336,199.86L171.53,199.287L171.28,198.658L170.987,198.408L170.683,198.083L170.659,197.732L170.797,197.406L171.54,196.703L171.546,196.532L171.362,196.547L171.15,196.561L170.135,196.817L170.025,196.656L169.661,196.563L168.92,196.545L168.053,196.592L166.955,196.843L165.948,197.282L165.49,197.584L165.101,197.771L164.785,197.832L164.419,197.7L164.439,197.27L165.127,196.48L165.224,195.937L165.017,195.47L164.993,195.096L164.751,194.859L164.413,194.742L164.233,194.477L164.221,193.7L164.523,192.9L165.013,192.647L165.31,192.526L165.39,192.369L165.238,191.807L165.262,191.449L165.554,190.757L165.846,190.233L166.398,190.32L166.645,190.189L166.919,190.002L167.217,189.686L167.417,189.31L167.661,188.439L167.827,188.308L168.522,188.453L168.73,188.352L169.11,187.84L169.47,187.215L169.991,187.023L170.367,187.003L170.541,186.796L170.531,186.491L170.173,186.006L170.023,185.619L170.067,185.383L170.579,185.24L170.705,184.958L170.629,184.341L170.839,183.599L170.965,182.729L171.007,182.079L171.001,181.583L170.951,181.062L170.879,180.111L170.645,179.281L170.687,178.969L170.655,177.961L170.511,177.101L170.223,176.95L169.687,176.67L169.396,176.616L169.152,176.718L169.06,177.017L168.824,177.297L168.534,177.228L168.396,176.948L168.21,176.582L167.589,174.837L167.521,174.334L167.411,173.833L167.203,173.582L166.983,173.433L166.488,172.845L166.228,172.6L166.102,172.56L165.83,172.602L165.562,172.602L165.344,172.308L165.145,171.948L164.945,171.772L164.609,171.674L164.265,171.712L164.063,172.023L163.927,172.199L163.667,172.613L163.248,173.185L163.056,173.395L162.87,173.286L162.061,172.691L161.671,172.526L161.139,172.705L160.31,172.564L159.99,172.537L159.298,172.061L159.017,172.003L158.035,172.313L157.819,172.533L157.694,172.537L157.432,172.426L157.218,172.279L157.204,172.186L157.47,171.954L157.49,171.79L157.476,171.625L157.857,171.157L158.899,170.249L158.725,169.868L158.315,169.116L158.261,168.751L158.083,168.586L157.586,168.72L156.55,169.403L156.408,169.328L156.434,169.092L156.326,168.404L156.654,168.197L157.158,167.945L157.546,167.664L157.636,167.437L157.53,167.366L156.958,167.455L156.732,167.301L156.358,166.667L156.085,166.418L155.837,166.284L154.993,166.611L154.014,167.059L152.923,167.684L152.929,168.003L152.799,168.085L152.591,168.286L152.387,168.564L152.213,168.662L152.009,168.671L151.594,168.593L150.84,168.277L150.023,168.016L149.847,168.045L148.736,167.86L148.7,167.711L148.532,167.419L148.216,167.153L147.914,167.064L147.045,167.624L146.063,168.039L145.506,168.531L145.046,169.02L144.518,169.114L144.494,169.416L144.273,169.686L143.873,170.02L143.079,170.445L142.542,170.674L140.835,170.883L140.225,171.024L139.969,171.247L139.696,171.814L139.48,172.335L139.008,172.765L138.149,173.339L137.139,173.804L136.862,174.112L136.812,174.296L136.938,174.363L137.061,174.503L137.061,174.713L136.932,174.942L136.272,175.342L135.9,175.532L135.53,175.654L135.117,175.676L134.719,175.621L134.609,175.556L134.451,175.639L134.087,175.723L133.772,175.75L133.078,176.193L132.696,176.197L132.221,176.1L131.593,176.024L131.139,176.024L131.125,175.79L131.195,175.087L130.99,174.924L130.362,174.751L129.654,174.523L129.315,174.279L129.125,174.198L128.859,174.238L128.433,174.494L128.029,174.795L127.71,174.82L127.382,174.681L127.07,174.495L125.999,174.236L125.519,174.198L124.662,174.241L123.962,174.187L123.852,174.107L123.854,173.962L123.958,173.68L124.018,173.403L123.936,173.245L123.223,173.05L122.571,172.911L121.878,172.858L121.412,172.956L120.956,173.174L120.58,173.566L120.037,173.737L119.387,174.029L119.074,174.301L118.598,174.886L117.906,175.603L117.279,176.302L116.953,176.981L116.521,177.408L116.084,177.714L115.768,178.559L115.438,178.292L115.06,177.909L114.97,177.384L115.418,175.99L115.524,175.409L115.41,175.187L115.27,174.615L115.004,174.427L114.245,174.127L114.003,174.118L113.743,174.325L113.489,174.456L113.152,174.586L112.304,174.831L111.553,174.946L111.373,175.037L111.317,175.2L111.377,175.394L110.893,175.32L110.387,175.278L109.98,175.305L108.982,175.676L108.645,175.712L108.269,175.674L107.757,175.663L106.784,175.674L105.946,175.579L105.265,175.062L104.783,174.833L104.269,174.657L103.752,174.525L103.58,174.247L103.416,174.107L102.99,174.062L102.653,174.163L102.443,174.862L102.263,175L101.835,175.062L101.385,174.884L100.764,174.525L100.52,174.125L100.312,173.996L99.984,174.172L99.966,174.684L99.902,175.027L99.513,175.167L99.287,175.066L99.105,174.713L98.647,173.876L98.194,173.386L97.736,173.059L96.235,173.068L95.122,172.972L94.618,172.838L94.428,172.515L94.612,171.868L94.828,171.364L94.822,171.246L94.638,171.186L94.318,171.146L93.117,171.469L92.789,171.431L92.581,171.32L92.328,171.226L92.118,171.075L91.972,170.855L90.932,170.316L90.627,170.02L90.073,169.65L89.605,169.397L89.31,168.675L89.04,167.98L88.892,167.609L88.446,167.413L87.964,167.264L87.149,167.567L86.479,167.798L85.988,167.822L85.278,167.108L84.709,166.336L84.035,165.663L83.587,165.323L82.794,165.291L81.9,164.911L80.701,164.047L79.836,163.403L78.345,162.685L77.997,162.384L77.865,162.128L77.661,161.623L77.35,161.144L76.292,160.935L75.097,160.786L73.836,161.081L72.929,162.515L72.491,162.827L72.115,162.845L71.807,162.48L71.554,162.097L71.416,161.672L70.788,161.358L70.078,160.948L69.715,160.628L69.305,160.429L68.923,160.343L68.188,160.073L67.354,159.768L66.963,159.726L66.935,159.508L67.053,159.045L66.981,158.6L66.729,158.419L66.349,158.466L65.47,157.834L65.426,157.802L65.176,157.622L64.742,157.364L64.011,157.382L63.457,157.477L63.051,157.213L62.464,156.796L62.358,156.703L62.184,156.551L61.588,155.745L60.885,154.79L60.529,154.65L60.345,154.723L60.137,155.229L59.981,155.178L59.719,155.213L59.412,155.391L59.116,155.436L58.926,155.383L58.846,155.258L58.93,154.588L58.75,154.379L58.91,153.913L59.18,153.51L58.904,153.21L58.564,152.782L58.526,152.393L58.71,151.903L58.8,151.484L58.744,151.329L58.476,151.095L57.455,149.94L57.401,149.819L57.229,149.434L57.149,148.853L57.017,148.437L56.861,148.118L56.873,147.967L56.991,147.889L57.629,147.811L58.218,147.762L58.606,147.653L58.808,147.885L58.902,148.241L59.004,148.428L59.378,148.766L59.833,149.089L60.275,149.047L60.665,148.909L61.003,148.383L61.24,148.254L61.518,148.23L61.518,148.192L61.502,147.853L61.6,147.016L61.566,146.68L61.44,146.377L61.462,146.039L61.42,145.549L61.103,145.213L60.895,145.084L60.861,144.902L60.969,144.566L61.043,144.18L60.933,143.895L60.915,143.851L60.657,143.704L60.355,143.455L59.995,143.119L59.817,142.876L59.526,142.607L59.17,142.19L59.104,141.273L59.068,140.307L58.944,139.826L58.746,139.058L58.776,138.8L58.896,138.604L59.899,137.983L60.117,137.742L60.153,137.558L60.113,137.286L59.923,136.983L59.524,136.747L58.952,136.362L58.434,135.961L57.563,135.716L56.506,135.416L56.252,135.124L55.996,134.409L55.56,133.316L55.097,132.148L54.739,131.427L54.721,131.081L54.935,130.195L54.909,130.006L54.721,129.94L54.363,130.057L54.077,130.196L53.833,130.124L53.608,129.975L53.562,129.924L53.544,129.904L53.12,130L52.27,130.055L51.977,130.046L51.565,130.033L50.714,129.83L49.564,129.556L48.379,129.174L47.751,128.871L47.532,128.766L46.994,128.45L46.612,128.178L46.544,127.464L46.266,127.519L45.615,127.776L44.863,127.94L44.448,127.942L44.28,127.827L44.03,127.074L43.848,126.861L43.51,126.778L43.143,126.645L42.957,126.449L42.915,126.2L43.079,125.915L43.272,125.696L43.306,124.352L43.18,123.875L43.075,123.474L42.805,122.974L42.553,122.666L42.173,122.379L41.584,122.081L41.058,121.97L40.422,122.188L40.221,122.105L39.955,121.182L39.785,120.994L38.656,120.614L38.144,120.527L37.554,120.645L37.219,120.747L36.949,120.578L36.527,120.364L36.113,120.217L35.6,120.211L35.268,120.302L35.184,120.249L35.024,120.08L34.34,119.57L34.316,119.441L35.364,118.938L35.981,118.748L36.305,118.595L36.373,118.628L36.533,118.86L36.941,119.013L37.229,118.971L37.378,118.855L37.886,118.577L38.282,118.254L38.504,117.989L38.384,117.571L37.76,117.065L37.364,116.794L37.242,116.611L37.344,116.061L37.488,115.514L37.392,115.305L37.275,115.128L37.223,114.53L36.951,113.808L36.655,113.386L36.573,112.816L36.557,112.283L36.915,111.444L36.783,111.081L36.407,110.758L35.112,110.173L33.785,109.786L33.279,109.801L32.965,109.777L32.594,110.118L32.372,110.565L32.062,110.605L31.496,110.416L31.119,110.129L30.851,109.532L30.643,108.762L30.525,108.521L30.585,108.312L30.715,108.127L31.077,107.953L31.137,107.775L31.083,107.555L30.791,107.277L30.493,106.885L30.027,106.07L30.117,105.62L30.191,104.971L30.163,104.63L30.635,104.541L31.236,104.365L31.516,104.073L31.71,103.775L31.752,103.59L31.57,102.876L31.331,102.559L31.307,102.312L31.424,102.123L31.582,101.798L31.886,101.13L32.182,100.703L32.344,100.596L32.706,100.496L33.589,100.378L34.538,100.079L35.666,99.182L36.041,98.926L36.533,98.797L36.885,98.806L36.949,98.697L36.721,98.14L36.777,97.938L36.911,97.78L37.081,97.708L37.862,98.002L38.46,97.971L39.187,97.796L40.756,96.812L40.952,96.827L41.11,96.96L41.3,97.553L41.516,98.802L41.636,98.958L42.727,98.975L43.47,98.521L43.796,98.414L44.324,98.488L44.604,98.276L44.895,98.127L45.233,98.65L45.669,98.399L46.139,98.002L46.368,97.589L46.686,97.145L46.934,96.58L47.034,96.046L47.156,95.796L47.42,95.538L48.069,94.436L48.537,94.155L48.981,94.055L50.078,94.245L50.648,94.222L52.318,94.367L53.09,94.155L53.63,93.944L54.421,93.977L55.358,93.81L56.608,92.421L56.624,92.125L56.7,91.811L57.151,91.5L57.713,91.215L58.832,90.534L61.109,89.454L61.924,89.02L62.264,89.031L63.103,88.759L64.574,88.229L64.99,87.568L65.378,87.435L67.096,87.317L67.204,87.241L67.264,87.128L67.168,86.649L67.057,86.237L67.19,86.115L67.334,85.927L67.312,85.661L67.034,84.801L66.887,83.984L66.789,83.245L66.807,82.969L67.014,82.492L67.284,82.058L68.258,81.653L68.903,81.531L68.929,81.266L68.408,81.101L68.03,80.836L67.964,80.685L67.982,80.513L68.07,80.355L68.725,80.057L69.343,79.761L70.097,79.941L70.244,79.826L70.288,79.53L70.126,79.233L69.975,78.744L69.627,78.494L69.613,78.194L69.827,77.677L69.531,76.718L69.209,75.87L68.663,74.414L68.302,73.993L68.1,73.319L67.874,72.965L67.894,72.441L67.932,72.072L67.874,71.341L67.768,70.545L67.874,69.737L68.078,69.204L68.024,68.999L68.132,68.846L68.44,68.795L68.585,68.575L68.44,68.35L67.908,68.176L67.314,67.906L66.601,67.936L65.869,67.984L65.504,67.784L65.184,67.528L65.166,67.365L65.606,66.932L66.217,66.484L67.166,66.286L68.212,65.99L68.741,65.776L69.447,65.622L70.262,65.556L70.672,65.6L71.721,65.313L73.372,64.757L74.871,64.291L75.375,64.013L75.751,64.291L75.925,64.903L76.362,65.219L76.796,65.371L77.046,65.364L77.793,65.126L78.601,64.952L78.919,65.046L79.328,65.358L79.788,65.638L80.028,65.625L80.238,65.409L80.45,64.973L80.583,64.418L80.611,63.83L80.531,63.47L80.37,63.338L79.634,63.125L78.932,62.779L78.853,62.461L78.869,62.234L79.054,61.678L79.512,60.656L79.972,59.242L80.216,58.122L80.985,56.446L81.591,54.692L82.57,52.158L82.734,51.655L82.824,50.85L82.876,50.518L83.218,50.344L83.793,50.515L85.198,51.096L86.268,51.584L86.715,51.749L87.381,51.922L88.41,52.125L89.006,52.065L89.527,51.945L90.223,51.934L91.308,52.085L91.644,52.09L92.062,52.11L92.358,52.357L92.505,52.915L92.729,53.165L93.135,53.073L93.998,52.581L94.55,52.194L95.24,51.633L95.923,51.557L96.649,51.431L96.9,51.154L97.168,50.5L97.614,50.006L97.688,49.378L97.532,48.935L97.222,48.212L97.232,47.724L97.082,46.306L96.882,45.026L97.086,43.993L97.446,42.835L97.586,42.479L97.814,42.012L98.136,41.451L98.587,41.275L99.856,41.156L101.032,40.919L101.631,40.676L102.255,40.529L102.627,40.351L103.266,39.529L103.57,39.055L103.794,37.795L103.63,37.189L103.766,36.651L104.076,36.335L104.511,36.018L104.803,35.963L105.425,35.867L106.444,35.9L106.964,36.054L107.491,36.126L107.825,36.012L108.047,35.771L108.389,35.694L108.902,35.578L109.432,35.433L109.724,35.46L109.784,35.818L109.736,36.097L109.838,36.471L110.048,36.718L109.98,36.985L109.684,37.14L109.392,37.348L109.328,37.633L109.698,37.987L109.824,38.327L110.443,38.53L110.925,38.759L111.105,38.979L111.051,39.226L110.829,39.491L110.615,39.776L110.587,39.946L110.655,40.146L111.119,40.279L111.656,40.498L112.508,40.782L113.092,41.308L113.671,41.453L113.951,41.965L114.001,42.708L114.595,43.085L115.472,43.61L115.918,43.706L116.215,44.004L116.645,44.364L117.027,44.476L117.481,44.529L118.228,44.195L119.067,44.162L119.525,44.353L119.961,45.072L120.269,45.299L120.451,45.5L120.744,45.693L121.042,45.722L121.486,45.562L121.756,45.244L122.143,45.309L122.289,45.516L122.361,45.87L122.567,46.31L123.059,46.637L123.746,46.831L123.842,46.991L123.938,47.428L124.124,47.731L124.374,48.127L124.612,48.848L124.662,49.443L124.772,49.77L125.089,50.302L125.597,51.152L126.001,51.871L126.469,52.011L126.866,52.238L127.094,52.768L127.516,53.764L127.584,54.414L127.62,54.899L127.758,55.119L127.788,55.393L127.436,56.433L127.138,56.902L127.1,57.296L127.302,57.98L127.58,58.51L127.608,59.017L127.372,59.387L126.966,59.85L126.77,60.115L126.455,60.347L125.971,61.241L125.753,62.227L125.703,62.733L125.887,63.1L126.195,63.503L126.271,63.851L126.776,64.63L126.91,65.111L127.118,65.128L127.34,64.97L127.882,64.959L128.373,65.13L128.845,65.485L129.351,65.674L130.074,65.627L130.46,65.818L130.876,65.974L131.737,66.028L132.383,66.026L133.374,66.032L134.175,66.272L135.584,66.46L136.456,66.446L137.627,66.268L138.345,66.38L140.469,66.646L141.712,66.923L142.5,67.236L143.053,67.729L143.687,68.499L144.191,68.851L145.544,69.064L146.473,69.961L147.199,70.295L148.42,71.161L149.283,71.498L150.316,71.809L152.001,71.676L152.095,71.793L151.965,72.261L151.863,72.902L151.863,73.365L152.037,73.601L152.681,73.741L152.985,73.968L153.217,74.403L153.35,74.674L153.892,76.006L154.76,77.969L154.859,78.722L155.155,79.207L156.097,79.975L156.59,80.543L157.326,81.139L157.568,81.689L157.622,82.399L157.807,82.582L159.153,82.419L160.318,82.305L162.408,82.101L165.286,82.472L168.254,82.829L170.879,83.145L172.172,83.299L175.094,83.632L176.719,83.209L177.988,82.878L178.563,82.924L180.99,83.296L182.413,83.496L184.204,83.746L185.447,83.839L186.466,83.833L186.936,83.939L187.39,84.1L187.691,84.336L188.623,85.527L189.144,86.052L190.178,86.448L192.524,86.9L193.823,87.174L195.314,87.488L196.297,87.962L197.429,88.512L198.894,89.224L200.499,88.913L202.226,88.577L203.309,88.367L203.309,89.852L204.854,89.97L205.337,89.953L206.021,90.28L206.405,90.142L206.771,89.821L207.228,89.313L207.886,89.089L209.023,88.519L209.301,88.381L210.99,87.57L213.512,86.567L214.643,86.081L214.981,85.972L215.621,85.723L216.052,85.551L216.816,85.413L217.851,85.326L218.982,85.137L221.541,84.781L221.862,84.748L223.299,84.601L223.911,84.463L224.824,84.536L226.018,84.587L226.809,84.677L227.858,84.607L229.301,84.51L230.469,84.525L231.047,84.405L231.903,84.029L232.477,83.732L233.379,83.37L234.497,82.994L235.277,82.653L235.793,82.426L236.419,82.212L236.583,81.936L236.761,81.724L237.093,81.37L237.691,80.709L238.147,80.13L238.371,79.872L238.883,79.293L239.297,78.855L239.823,78.265L240.267,78.074L240.831,77.913L242.313,77.334L242.607,77.208L242.851,77.183L243.375,76.715L243.819,76.308L244.109,76.005L244.711,75.894L245.019,75.674L245.073,75.387L245.011,74.948L244.721,74.498L244.477,74.104L243.617,73.352L243.161,72.886L242.697,72.285L242.509,71.72L242.191,71.361L242.039,71.041L242.087,70.672L242.529,70.015L242.669,69.599L242.851,68.864L243.265,67.762L243.603,67.245L243.993,66.74L244.819,66.061L245.575,65.936L246.023,66.07L247.029,66.07L247.699,66.106L248.193,66.446L248.737,67.116L249.355,67.361L251.279,67.886L252.099,67.996L252.687,68.02L253.557,68.192L253.849,68.231L254.295,68.349L254.661,68.221L255.219,67.773L255.921,67.27L256.223,67.154L256.781,66.936L257.061,66.731L257.549,66.164L258.185,65.725L258.961,65.064L259.343,64.567L259.427,64.245L259.511,63.897L259.751,63.713L260.223,63.545L260.753,63.499L261.765,63.799L263.133,63.713L263.437,63.67L264.683,63.497L265.245,63.356L266.037,63.22L266.643,62.664L267.457,62.001L268.049,61.633L268.443,61.562L268.935,61.179L269.177,60.767L269.113,60.404L269.021,60.104L269.309,59.547L269.833,58.57L270.321,58.114L270.725,57.746L270.983,57.152L271.301,56.981L271.691,56.916L272.241,56.513L272.643,56.431L273.315,56.624L274.309,56.673L274.943,56.693L275.305,56.62L275.435,56.404L275.431,56.07L275.633,55.326L275.709,55.081L275.891,54.966L276.503,54.952L276.915,55.219L277.199,55.44L277.593,55.469L277.999,55.324L278.539,54.721L279.443,54.371L279.923,54.282L280.775,53.997L281.311,54.1L282.299,54.184L282.681,54.111L283.097,54.184L283.475,53.775L283.775,53.677L284.409,53.866L284.809,54.182L285.557,54.578L286.511,54.763L287.307,54.669L288.127,54.836L288.611,54.821L288.841,54.665L289.513,54.333L289.673,53.882L289.607,53.448L289.685,52.956L289.487,52.593L289.071,52.056L288.909,51.696L288.895,51.226L288.635,50.778L288.011,50.237L287.601,49.986L286.759,49.049L286.473,48.83L286.375,48.675L286.277,48.361L285.965,48.211L285.555,47.966L285.335,47.715L285.191,47.279L285.105,46.994L284.743,46.758L284.381,46.626L283.975,46.459L283.299,46.214L282.909,45.725L282.221,44.808L281.831,44.5L280.381,44.382L279.859,44.158L279.269,44.235L278.917,44.382L278.139,44.38L277.735,44.471L277.221,45.075L276.539,45.86L275.977,46.337L275.577,46.833L275.391,47.011L275.029,46.903L274.529,46.346L273.815,45.847L273.153,45.62L272.869,45.495L272.081,45.368L271.471,45.407L270.693,45.596L269.933,45.562L269.591,45.442L269.109,45.455L268.233,45.974L267.779,46.564L267.241,46.749L266.755,46.362L266.197,45.905L265.661,45.331L265.331,44.799L265.147,43.387L265.789,42.966L266.607,42.492L266.669,41.742L266.639,40.905L266.801,39.972L267.549,39.109L267.951,38.394L268.001,37.947L268.361,37.205L268.705,36.421L269.175,35.389L270.063,33.552L271.115,31.37L271.641,30.277L272.793,30.954L273.537,31.306L274.795,31.84L276.091,31.96L277.333,32.537L277.973,32.711L278.313,32.711L280.071,31.306L281.555,30.113L283.263,29.18L284.517,29.053L285.461,28.781L286.089,28.361L286.463,27.661L286.577,26.677L286.325,26.079L285.709,25.872L285.551,25.664L285.847,25.451L286.067,25.039L286.205,24.425L286.561,23.841L287.131,23.289L287.445,22.675L287.503,22L287.847,21.324L288.473,20.651L288.817,20.023L288.875,19.442L289.193,18.73L290.057,17.468L290.615,16.01L291.571,15.008L293.107,13.977L294.063,12.951L294.445,11.931L294.415,11.027L293.971,10.242L293.885,9.444L294.161,8.628L293.919,8.018L293.161,7.613L292.259,7.514L291.209,7.719L290.619,7.463L290.489,6.747L290.771,6.168L291.465,5.725L292.605,4.645L294.191,2.92L295.771,1.964L298.125,1.688L300.023,1.119L301.959,0.542L303.355,0.255L303.593,0.448L304.355,0.495L305.639,0.397L306.833,0.148L307.937,-0.253L308.809,-0.348L309.451,-0.135L309.829,-0.11Z" fill="#F7B329" stroke="#DCDCDC" stroke-width="0.5" stroke-miterlimit="3.999327"/>
<path d="M143.8,287.794L143.457,288.214L142.785,286.928L142.497,286.85L142.487,286.239L142.643,285.997L143.421,285.727L143.625,285.877L144.02,287.068L143.8,287.794ZM142.923,285.113L142.389,285.596L142.158,285.305L142.254,285.104L142.479,284.993L142.691,284.837L142.923,285.113ZM141.29,282.451L140.854,282.457L140.727,282.237L140.543,282.01L140.683,281.79L140.912,281.734L141.238,282.09L141.314,282.342L141.29,282.451ZM141.82,281.538L141.556,281.727L141.49,281.701L141.452,281.556L141.442,281.455L141.394,281.271L141.368,280.948L141.578,280.678L141.788,280.734L141.674,281.01L141.82,281.538ZM27.003,280.451L26.923,280.514L26.841,280.538L26.785,280.531L26.755,280.467L26.771,280.42L26.843,280.474L26.939,280.423L27.047,280.262L27.073,280.209L27.095,280.238L27.073,280.331L27.003,280.451ZM139.597,280.551L139.765,280.741L139.455,280.708L139.168,280.42L139.244,280.149L139.352,280.038L139.597,280.551ZM137.615,276.008L137.369,276.037L137.217,275.863L137.199,275.659L137.339,275.527L137.471,275.458L137.603,275.476L137.735,275.819L137.615,276.008ZM136.02,268.722L135.85,268.898L135.272,268.76L135.314,268.23L135.178,267.711L135.278,267.493L135.712,267.121L136.064,266.958L136.308,267.46L136.422,267.952L136.02,268.722ZM25.392,265.384L25.35,265.416L25.346,265.322L25.398,265.171L25.458,265.071L25.476,265.082L25.46,265.18L25.43,265.313L25.392,265.384ZM137.087,264.459L136.813,264.563L136.539,264.434L136.753,264.225L136.789,263.8L137.069,264.036L137.053,264.305L137.087,264.459ZM138.906,261.07L139.156,261.781L138.704,261.471L138.558,261.248L138.784,261.097L138.906,261.07ZM137.223,256.778L137.045,257.116L137.009,256.393L137.093,256.302L137.183,256.277L137.297,256.344L137.223,256.778ZM137.253,263.661L137.129,263.782L136.947,263.646L136.425,262.718L136.336,262.123L136.192,261.916L136.376,261.62L136.605,261.522L136.741,261.188L136.789,260.679L136.991,260.264L137.093,260.148L137.513,260.144L137.619,260.091L137.561,259.694L137.317,259.521L137.231,259.41L137.241,258.457L137.305,258.072L137.457,257.795L137.349,257.221L137.421,257.007L137.723,256.705L137.856,256.063L137.733,255.87L138.02,254.879L138.004,254.214L138.38,253.55L138.968,253.247L139.154,253.239L139.178,253.808L139.234,253.995L138.894,254.331L139.218,254.768L139.176,254.926L139.046,255.273L138.832,255.614L138.534,255.754L138.302,256.208L138.17,256.378L138.612,256.856L138.754,258.475L138.43,258.918L138.044,259.007L138.134,260.086L138.064,260.327L137.683,260.856L137.611,261.086L137.397,261.304L137.487,261.575L137.673,261.693L137.677,261.914L137.505,262.482L137.491,263.13L137.253,263.661ZM58.706,151.905L58.692,151.885L58.362,151.441L58.706,151.905L58.522,152.396L58.56,152.784L58.9,153.213L59.175,153.512L58.906,153.915L58.746,154.382L58.926,154.591L58.842,155.261L58.922,155.386L59.111,155.438L59.407,155.393L59.633,155.72L59.429,155.426L59.407,155.393L59.713,155.215L59.975,155.181L60.131,155.232L60.339,154.725L60.523,154.652L60.878,154.792L61.582,155.747L62.177,156.553L62.303,156.664L62.349,156.706L62.455,156.798L63.043,157.216L63.449,157.479L64.002,157.385L64.734,157.367L65.167,157.624L65.417,157.804L65.429,157.83L65.463,157.835L66.343,158.467L66.722,158.42L66.974,158.601L67.046,159.046L66.928,159.509L66.956,159.727L67.348,159.769L68.181,160.074L68.917,160.344L69.299,160.429L69.708,160.629L70.072,160.949L70.782,161.359L71.409,161.673L71.547,162.098L71.299,162.007L70.972,162.054L70.638,162.243L70.48,162.363L69.718,163.095L69.319,163.32L68.961,163.648L68.135,164.638L67.658,165.56L67.31,166.426L67.316,167.038L67.188,167.755L66.832,168.164L66.614,168.302L66.357,168.917L66.171,169.634L66.279,169.866L66.722,170.179L67.154,170.484L67.704,170.814L68.231,171.128L68.571,171.168L68.665,170.99L68.789,170.82L69.177,170.91L69.648,171.217L69.956,171.462L70.092,171.544L70.907,171.956L71.583,172.296L72.439,172.726L72.646,172.989L72.83,173.269L73.234,173.639L74.215,174.295L75.055,174.765L75.738,175.146L76.274,175.413L76.522,175.371L76.794,175.228L77.031,175.146L77.309,175.222L77.729,175.426L78.714,176.047L79.634,176.531L80.635,176.444L80.901,176.522L81.089,176.962L81.215,177.406L82.334,177.701L83.069,177.833L83.911,178.075L84.337,178.254L84.784,178.029L84.866,177.831L85.22,177.715L85.807,177.766L86.903,178.111L87.361,178.214L87.744,177.888L88.458,177.737L88.831,177.566L89.611,177.929L91.018,178.383L91.744,178.666L91.915,178.944L91.993,179.207L91.987,179.846L92.165,180.135L93.576,180.783L94.042,181.057L94.418,181.146L94.63,181.157L94.775,181.239L94.901,181.608L95.001,181.693L95.273,181.784L95.569,181.836L96.486,181.517L97.114,181.275L97.562,181.337L97.851,181.606L97.893,181.998L98.061,182.412L98.381,182.613L98.725,182.635L99.576,182.356L100.262,182.57L100.889,182.648L101.589,182.782L101.861,182.884L102.584,183.225L103.47,183.57L103.811,183.532L105.236,182.889L105.358,182.967L105.648,183.581L106.082,183.801L106.759,183.993L107.467,183.639L108.025,183.741L108.7,183.773L109.348,183.603L109.909,183.559L110.727,183.868L110.907,183.797L111.062,183.599L111.38,182.713L111.662,181.929L111.636,181.461L111.378,180.772L110.717,179.876L110.669,179.603L110.891,178.036L111.137,177.13L111.346,176.702L111.578,176.09L111.62,175.807L111.596,175.551L111.37,175.395L111.31,175.201L111.366,175.037L111.546,174.946L112.298,174.832L113.145,174.587L113.483,174.456L113.737,174.325L113.997,174.118L114.238,174.128L114.998,174.427L115.264,174.616L115.404,175.188L115.517,175.409L115.418,175.99L114.962,177.396L115.052,177.92L115.43,178.303L115.759,178.57L115.705,178.677L115.026,179.129L114.904,179.371L115.054,179.607L115.324,179.807L115.446,179.997L115.572,180.589L115.917,180.756L116.601,181.137L117.202,181.415L118.236,181.23L118.528,181.355L119.035,181.486L119.431,181.526L119.661,181.624L119.789,181.718L119.771,181.838L119.793,181.962L120.358,181.994L120.656,182.065L121.661,181.938L122.671,181.764L123.134,181.235L123.34,181.197L123.92,180.992L124.492,181.217L125.119,181.524L125.459,181.617L126.128,181.666L126.78,181.631L128.339,181.484L129.196,181.56L129.984,181.121L130.146,181.123L130.491,181.462L131.357,181.493L131.817,181.33L132.312,181.205L132.628,181.165L132.882,181.161L133.188,181.194L133.477,181.081L133.609,180.854L133.579,180.511L133.372,180.137L133.19,179.917L133.154,179.801L133.21,179.531L133.369,179.149L133.663,178.714L133.447,178.291L133.146,177.806L132.924,177.759L132.364,177.871L131.759,177.849L131.281,177.557L130.925,177.19L130.839,176.884L130.943,176.508L131.101,176.163L131.135,176.034L131.589,176.034L132.216,176.11L132.692,176.206L133.074,176.203L133.767,175.76L134.083,175.733L134.447,175.649L134.605,175.565L134.715,175.631L135.112,175.685L135.526,175.664L135.896,175.542L136.268,175.351L136.927,174.952L137.057,174.723L137.057,174.512L136.933,174.373L136.807,174.305L136.857,174.122L137.135,173.813L138.144,173.349L139.004,172.775L139.475,172.345L139.691,171.824L139.965,171.257L140.221,171.034L140.831,170.892L142.537,170.684L143.075,170.455L143.868,170.03L144.268,169.696L144.49,169.425L144.514,169.124L145.042,169.03L145.501,168.541L146.059,168.049L147.04,167.633L147.91,167.074L148.212,167.163L148.527,167.428L148.695,167.721L148.731,167.869L149.842,168.055L150.018,168.026L150.836,168.287L151.589,168.603L152.005,168.681L152.209,168.672L152.383,168.574L152.587,168.296L152.794,168.095L152.924,168.013L152.918,167.693L154.01,167.069L154.989,166.62L155.832,166.294L156.08,166.428L156.354,166.677L156.728,167.31L156.954,167.465L157.525,167.376L157.631,167.446L157.541,167.673L157.154,167.955L156.65,168.207L156.322,168.414L156.43,169.102L156.404,169.338L156.546,169.413L157.581,168.73L158.079,168.596L158.257,168.761L158.311,169.126L158.72,169.877L158.894,170.259L157.853,171.166L157.471,171.635L157.485,171.8L157.465,171.963L157.2,172.196L157.213,172.288L157.427,172.435L157.689,172.546L157.815,172.543L158.031,172.323L159.012,172.012L159.294,172.071L159.986,172.546L160.305,172.573L161.135,172.715L161.666,172.535L162.056,172.701L162.866,173.296L163.052,173.405L162.984,173.766L162.942,174.164L163.147,174.48L163.171,174.759L163.125,175.015L162.964,175.191L162.514,175.289L162.132,175.595L161.525,176.036L161.037,176.388L160.683,176.7L160.555,177.027L160.595,177.439L160.697,177.869L161.828,179.445L161.818,179.718L161.461,179.794L160.985,179.616L160.575,179.362L160.114,178.686L159.742,178.485L159.372,178.441L157.174,178.788L156.708,178.886L155.982,179.138L155.475,179.645L155.105,180.108L154.725,180.295L154.17,180.654L152.629,181.758L151.739,182.234L151.158,182.408L150.75,182.659L150.53,183.065L150.364,183.358L150.316,184.075L150.418,184.957L150.638,185.52L150.756,185.638L150.774,185.803L150.552,186.106L150.26,186.366L150.118,186.526L149.988,187.328L149.731,187.722L149.255,188.301L148.833,188.739L148.172,189.078L147.92,189.353L147.678,189.859L147.536,190.288L147.528,190.442L147.604,190.578L147.88,190.729L148.214,190.874L148.373,191.101L148.395,191.375L148.148,192.034L147.702,192.947L147.192,193.67L146.667,194.358L146.541,194.583L146.069,195.427L145.657,196.588L145.379,197.366L145.14,197.9L144.844,197.924L144.486,197.753L143.613,197.526L143.055,197.343L142.649,197.178L142.367,197.185L141.98,197.292L141.586,197.366L141.352,197.287L140.811,196.805L140.645,196.86L140.539,197.094L140.904,198.467L141.142,198.977L141.102,199.828L141.008,200.872L140.868,202.011L140.775,202.274L140.543,202.575L140.237,202.657L139.959,202.539L139.737,202.566L139.663,202.757L139.727,203.249L139.455,203.812L139.256,204.293L139.308,204.759L139.404,205.233L139.721,206.257L139.723,206.631L139.661,206.967L139.495,207.107L139.21,207.083L139.054,207.221L138.936,207.432L138.614,208.207L138.306,208.289L137.996,208.172L137.533,207.655L137.249,207.504L137.069,207.513L136.989,207.65L136.863,207.958L136.737,208.165L136.427,208.347L136.351,207.965L136.186,205.983L136.06,205.351L135.958,204.474L135.808,204.205L135.616,203.724L135.404,203.309L135.226,203.133L135.112,202.357L135.07,201.408L135.072,200.957L134.823,200.026L134.579,198.969L134.249,199.013L134.053,198.757L133.911,198.763L133.447,199L133.078,198.922L132.804,198.955L132.802,199.442L132.848,199.959L132.744,200.146L132.02,200.752L131.819,201.159L131.839,201.586L131.928,202.156L131.801,202.446L131.487,202.713L131.065,202.853L130.693,202.788L130.455,202.555L130.234,201.963L130.036,201.64L129.828,201.564L129.666,201.651L129.644,202.023L129.656,202.33L129.604,202.365L129.488,202.317L129.356,202.167L129.01,200.682L128.517,199.536L128.487,199.097L128.667,198.53L128.888,197.657L129.474,197.112L129.55,196.882L129.646,196.698L129.788,196.662L130.539,196.713L130.791,196.626L131.013,196.368L131.337,196.161L131.661,196.077L131.918,196.047L132.332,196.243L132.504,196.13L132.63,195.767L132.81,195.407L132.926,195.233L133.204,195.155L133.557,195.137L133.675,195.07L133.771,194.948L133.859,194.471L134.311,193.401L134.471,192.926L134.495,192.842L134.481,192.312L134.609,192.236L135.358,192.495L135.686,192.492L135.864,192.385L135.922,192.19L135.826,191.963L135.292,191.566L134.345,191.03L133.476,190.702L131.869,190.751L130.278,190.854L129.812,190.801L129.23,190.653L127.801,190.674L126.074,190.756L125.417,190.711L125.093,190.716L124.443,190.765L123.384,190.613L122.651,190.417L122.001,190.2L121.23,190.006L121.044,190.008L120.936,189.937L120.862,189.765L120.836,189.541L120.996,188.507L120.854,186.934L120.984,186.361L120.352,185.068L120.136,184.828L119.845,184.817L119.659,184.984L119.585,185.288L119.691,185.627L119.459,186.005L118.993,186.126L118.45,185.999L117.998,185.821L117.416,185.437L116.979,184.894L116.941,184.293L116.743,183.906L116.473,183.717L116.275,183.665L116.097,183.706L115.941,183.917L116.077,184.126L116.263,184.42L116.201,184.62L116.035,184.65L115.787,184.565L115.404,184.61L115.032,184.458L114.81,184.445L114.59,184.389L114.576,184.042L114.238,183.603L113.667,183.111L113.105,182.806L112.835,182.848L112.699,183.183L112.731,183.309L112.929,183.37L113.213,183.565L113.273,183.768L113.231,183.946L112.881,184.271L112.633,184.58L112.08,185.028L111.608,185.542L111.484,185.93L111.306,186.279L111.236,186.662L111.36,186.927L111.588,187.094L112.18,187.216L112.799,187.731L113.299,188.427L113.581,188.637L114.093,188.872L115.078,188.899L115.224,189.089L115.364,189.6L115.558,189.779L116.059,190.019L116.101,190.195L115.979,190.398L115.757,190.558L115.348,190.66L114.958,190.7L114.566,190.634L113.985,190.594L113.325,190.591L112.857,191.86L112.524,192.305L112.334,192.305L111.824,192.089L111.606,192.123L111.019,193.249L110.937,193.519L110.897,193.723L111.208,194.157L111.582,194.514L112.028,194.654L112.378,194.547L112.662,194.69L112.993,195.05L113.563,195.288L114.368,195.402L114.826,195.685L114.882,195.93L114.842,196.179L114.77,196.825L114.692,197.198L114.258,198.174L113.949,199.015L114.109,199.414L114.224,199.578L114.334,199.703L114.682,200.017L114.924,200.328L114.716,201.121L114.83,201.33L115.296,201.469L115.797,201.577L115.973,201.707L115.537,202.512L115.629,203.071L115.813,203.595L115.945,204.452L115.965,204.543L115.929,204.757L116.215,205.422L116.657,206.716L116.691,207.199L116.665,207.71L116.535,208.561L116.093,208.557L116.487,209.126L116.613,209.534L116.667,210.104L116.193,210.175L115.857,210.111L115.578,209.612L115.448,210.066L114.948,210.485L114.768,210.28L114.664,210.061L114.644,209.672L114.92,208.189L114.864,208.022L114.74,207.911L114.466,207.851L114.364,207.55L113.947,209.133L114.13,209.779L114.047,210.073L113.267,210.32L112.478,209.727L112.378,209.536L112.332,209.87L112.19,210.277L111.45,210.202L111.085,209.885L111.322,209.343L111.78,208.036L111.866,207.453L111.252,207.025L110.733,206.762L110.435,206.166L110.549,206.82L110.827,207.052L111.23,207.216L111.658,207.55L111.35,207.956L111.051,208.209L110.477,209.167L109.777,209.703L108.962,210.106L106.284,210.698L105.722,210.938L104.901,211.675L104.369,212.374L104.271,213.082L104.571,213.846L104.815,215.041L105.019,215.284L104.733,215.72L104.235,216.183L103.823,216.805L103.861,217.147L103.756,217.377L102.344,218.142L102.049,218.588L101.661,219.031L101.197,218.777L100.925,218.781L101.299,219.133L101.251,219.365L101.119,219.501L100.764,219.628L98.725,220.189L97.166,220.721L96.728,220.7L96.808,220.538L97.082,220.395L97.054,219.785L96.768,219.672L96.52,219.628L95.333,220.373L94.853,221.108L94.953,221.248L95.223,221.213L96.021,220.798L96.392,220.916L96.418,221.079L95.207,221.715L92.659,223.77L92.539,224.175L92.207,224.632L91.75,225.062L90.928,226.103L89.353,227.648L88.915,228.223L86.393,229.411L85.933,229.763L84.898,230.917L83.835,231.862L82.594,232.644L80.441,233.641L79.132,234.583L78.722,235.209L78.696,235.433L78.836,235.736L79.076,236.019L79.13,236.244L79.012,236.647L78.948,236.871L78.564,237.423L77.907,237.816L75.778,238.639L75.496,238.613L73.76,238.45L73.11,238.599L72.842,238.984L72.245,240.576L71.673,240.999L71.467,241.382L71.385,241.647L71.041,241.64L70.746,241.522L70.53,241.607L70.282,241.074L69.866,240.965L69.522,240.926L68.056,241.464L67.542,241.896L66.462,243.931L66.195,245.242L66.449,246.687L66.824,247.84L66.898,248.361L66.852,249.036L66.66,249.365L66.524,249.754L66.704,250.554L67.158,251.602L67.268,252.045L67.278,252.5L67.62,253.546L67.39,253.357L67.208,252.916L66.776,252.353L66.247,252.914L66.538,253.318L67.526,253.797L67.818,254.189L67.182,257.677L66.7,258.913L66.109,259.723L65.795,260.035L65.093,261.32L64.606,262.865L64.508,263.459L64.728,264.124L64.478,264.516L64.166,264.815L64.76,264.681L64.963,265.04L65.039,265.413L65.048,267.62L64.982,269.919L64.524,270.013L64.022,270.037L63.578,269.971L63.261,269.882L62.469,270.004L62.043,270.258L61.702,270.679L61.726,271.398L60.259,273.207L59.943,273.809L59.827,274.389L60.017,274.692L60.393,275.002L60.882,275.128L61.828,275.253L62.281,275.418L62.589,275.725L61.476,275.398L60.167,275.333L57.037,276.171L56.213,276.76L55.754,277.27L55.438,278.435L55.384,279.214L55.012,279.862L53.387,280.857L52.36,281.164L51.97,281.429L50.759,281.086L49.438,280.215L48.882,279.746L46.922,277.495L46.564,277.21L46.168,276.246L46.106,275.886L45.996,275.743L45.81,275.645L45.72,275.496L45.279,274.392L45.099,273.241L44.817,271.954L45.053,272.043L45.381,272.466L45.545,273.081L45.565,273.942L45.81,274.042L46.03,273.96L45.401,271.978L44.853,271.486L44.709,271.453L44.555,271.135L44.539,270.736L44.587,270.547L44.149,269.897L43.996,269.51L43.024,267.544L42.587,266.133L41.909,264.563L41.471,264.013L40.79,262.8L40.218,262.235L39.613,261.478L39.137,261.142L38.951,260.966L37.542,258.339L37.108,256.885L36.741,256.199L36.559,255.676L36.065,253.441L36.061,253.042L36.001,252.604L35.649,251.656L35.032,250.631L34.854,249.991L34.856,249.743L34.464,248.744L34.38,248.288L34.116,247.867L33.809,247.481L33.489,247.17L32.735,246.157L32.465,245.91L31.952,245.253L31.586,244.038L31.118,243.563L31.854,243.563L31.404,243.112L31.192,242.818L30.956,242.637L31.298,242.183L30.739,242.196L30.443,241.923L30.037,241.07L29.299,240.104L29.174,239.588L28.522,237.964L27.97,234.055L27.465,232.31L27.505,231.809L26.893,230.295L26.595,229.278L26.473,228.416L26.312,227.849L26.166,226.724L25.932,226.368L25.906,226.153L26.062,225.64L26.499,224.846L26.661,224.343L26.471,223.635L26.074,224.38L25.702,224.589L25.524,224.033L25.522,223.285L25.476,223.105L25.574,222.855L26.557,222.969L25.438,222.51L25.306,222.241L25.264,222.039L25.504,221.667L25.096,221.353L24.932,220.391L24.813,220.171L24.767,219.993L24.998,218.663L25.962,216.043L26.034,215.449L25.95,214.605L25.736,213.933L25.644,213.221L25.586,213.038L25.236,212.973L24.905,212.709L24.521,211.653L24.873,211.306L25.144,211.115L24.771,211.195L24.463,211.163L25.046,210.674L25.568,210.3L26.757,209.866L27.263,209.589L26.515,209.839L25.732,209.933L24.069,209.883L24.347,208.895L24.637,208.565L24.95,208.379L24.489,208.436L23.953,208.358L24.125,207.354L24.547,207.136L25,207.094L25.564,206.951L24.96,206.785L24.335,206.705L23.581,206.871L22.89,206.749L22.048,206.751L22.384,206.885L22.744,207.19L22.564,207.735L22.394,208.074L21.933,208.309L21.555,208.663L21.449,208.973L21.235,209.191L21.605,209.345L21.984,209.456L22.204,209.708L22.464,210.073L22.45,210.783L21.455,212.452L21.111,212.824L18.619,213.83L17.641,214.376L15.555,215.086L14.743,215.219L13.844,215.077L12.529,214.538L10.522,213.156L10,212.7L8.396,210.923L7.238,209.981L6.361,209.104L5.274,208.272L4.248,207.15L4.03,206.638L4.106,206.117L4.488,205.834L4.936,205.948L5.29,206.388L5.539,206.584L5.749,206.664L7.28,205.99L7.874,206.017L8.28,205.68L8.793,205.754L9.841,205.228L10.28,205.195L10.804,205.09L11.647,203.755L12.279,202.906L12.689,202.728L12.665,202.521L12.551,202.25L12.245,202.319L12.031,202.577L11.873,202.889L11.713,203.076L11.218,202.904L10.884,202.933L10.472,203.034L8.967,203.532L8.348,203.979L7.928,204.068L5.523,203.576L3.173,202.446L2.184,201.695L1.558,200.734L0.933,199.589L1.138,199.267L2.11,198.577L2.949,198.035L2.196,198.276L1.38,198.612L0.977,198.846L0.519,199.338L-0.089,199.449L-0.329,198.719L-0.48,198.007L-0.093,197.768L0.179,197.617L0.731,197.49L1.334,197.399L1.882,197.403L2.655,197.414L2.677,195.743L2.741,195.596L2.851,195.511L2.977,195.475L3.083,195.5L3.241,195.751L3.439,195.736L3.649,195.591L4.116,195.7L4.492,195.625L4.872,195.723L5.52,195.725L6.689,195.685L7.338,195.698L7.758,195.963L8.218,196.255L8.715,196.297L9.437,196.263L9.926,196.15L10.174,195.878L10.36,195.616L11.429,195.235L12.553,194.924L12.877,194.89L12.978,195.072L12.928,195.375L13.058,195.663L13.51,195.847L13.828,195.892L14.114,195.85L14.325,195.758L14.781,195.304L15.017,195.2L15.323,195.208L15.667,194.99L15.673,194.823L15.455,194.743L15.269,194.503L15.305,194.309L15.251,194.033L15.289,193.772L15.435,193.576L15.691,193.387L15.539,192.996L15.147,192.248L14.737,191.29L14.304,190.491L13.754,189.79L13.47,189.275L13.5,188.136L13.452,187.906L13.262,187.764L13.008,187.686L12.651,187.802L12.329,187.824L11.637,187.799L11.298,187.682L10.374,186.537L10.252,186.087L10.248,185.624L10.554,184.817L10.648,184.066L10.69,183.365L10.64,183.167L10.454,182.931L10.144,182.757L9.315,182.715L8.33,182.483L7.572,182.074L7.044,181.827L6.903,181.666L6.839,181.477L6.976,180.625L7.214,179.665L7.388,179.371L7.688,179.066L7.91,178.859L8.266,178.585L9.227,177.666L10.088,176.401L10.622,175.516L10.9,175.253L11.184,175.028L11.597,174.756L12.077,174.507L12.553,174.518L13.004,174.745L13.34,175.01L13.454,175.596L13.692,175.976L13.948,176.205L14.288,176.315L14.721,176.288L16.458,175.616L17.05,175.48L18.469,175.397L19.442,175.137L20.304,174.865L20.409,174.376L20.741,173.63L21.753,172.657L22.038,172.223L22.344,171.392L22.67,170.633L22.952,170.317L24.543,169.482L26.1,168.714L26.356,168.365L27.363,166.767L27.938,165.68L28.088,165.329L28.422,164.384L28.784,163.44L29.264,163.22L30.333,162.86L31.18,162.508L31.616,162.105L31.878,161.753L31.83,161.404L31.596,160.99L31.644,160.743L31.686,160.5L32.304,160.005L33.461,158.536L34.156,157.8L34.386,157.8L35.112,157.408L35.801,156.965L35.761,156.764L35.675,156.502L35.279,156.386L35.154,156.072L35.252,155.622L35.583,154.411L35.515,154.062L35.112,152.937L35.202,152.626L35.367,152.307L35.819,151.882L36.401,151.528L38.264,150.689L38.641,150.596L39.287,150.384L39.683,149.936L39.73,149.553L39.557,149.315L39.171,148.995L38.445,148.706L37.79,148.454L36.677,148.481L36.099,148.265L35.941,148.115L35.861,147.581L35.973,146.677L35.799,146.597L35.551,146.704L34.964,146.597L34.242,146.61L33.966,146.357L34.102,146.054L34.06,145.649L33.952,145.264L33.841,145.184L33.495,145.092L32.957,144.758L32.523,144.346L32.27,144.066L32.192,143.874L32.216,143.746L32.531,143.389L32.907,142.886L33.045,142.454L33.087,142.14L32.981,141.909L32.635,141.626L32.266,141.377L32.118,141.161L32.112,140.834L32.25,140.426L32.683,140.117L33.453,139.825L33.653,139.462L33.627,139.193L33.417,139.113L32.875,139.111L31.964,139.019L31.81,138.87L31.706,138.67L31.704,138.472L31.898,138.247L32.13,137.962L32.088,137.684L31.82,137.37L31.178,137.142L31.09,136.817L31.19,136.546L31.402,136.159L31.588,135.891L32.026,135.124L32.557,134.957L33.209,134.709L33.928,134.435L35.038,134.64L35.577,134.741L36.669,134.976L37.584,135.172L38.519,135.228L38.907,135.213L39.335,135.446L40.392,135.843L41.252,136.052L41.833,136.05L42.691,135.698L43.118,135.375L43.694,135.021L44.431,135.036L46.026,134.489L46.324,134.583L46.798,134.614L47.369,134.298L47.663,133.924L47.709,133.736L47.851,133.598L48.463,133.36L49.076,133.029L49.242,132.594L49.344,132.298L50.016,131.916L50.715,131.519L51.447,131.103L52.278,130.629L52.982,130.228L53.557,129.899L53.621,129.97L53.847,130.119L54.091,130.192L54.377,130.052L54.734,129.936L54.922,130.001L54.948,130.19L54.734,131.076L54.752,131.423L55.11,132.143L55.574,133.311L56.01,134.404L56.265,135.119L56.519,135.411L57.576,135.711L58.448,135.956L58.966,136.357L59.537,136.742L59.937,136.978L60.127,137.281L60.167,137.554L60.131,137.737L59.913,137.978L58.91,138.599L58.79,138.796L58.76,139.053L58.958,139.821L59.081,140.302L59.117,141.268L59.183,142.185L59.539,142.603L59.831,142.871L60.009,143.115L60.369,143.451L60.67,143.699L60.928,143.846L61.054,144.175L60.98,144.562L60.872,144.898L60.906,145.079L61.114,145.208L61.432,145.544L61.474,146.034L61.452,146.372L61.578,146.675L61.612,147.011L61.514,147.848L61.53,148.225L61.252,148.249L61.014,148.378L60.676,148.904L60.287,149.042L59.845,149.084L59.389,148.761L59.016,148.423L58.914,148.236L58.82,147.88L58.618,147.648L58.23,147.757L57.64,147.806L57.003,147.884L56.885,147.962L56.873,148.113L57.029,148.432L57.161,148.848L57.241,149.429L57.413,149.814L57.467,149.936L58.488,151.09L58.756,151.324L58.812,151.479L58.706,151.905Z" fill="#F7B329" stroke="#DCDCDC" stroke-width="0.5" stroke-miterlimit="3.999327"/>
</svg>
