<svg width="92" height="112" viewBox="0 0 92 112" fill="none" xmlns="http://www.w3.org/2000/svg" xmlns:xlink="http://www.w3.org/1999/xlink">
<path d="M60.572,28.512L60.301,29.095L60.145,28.836L60.117,28.373L60.005,28.191L59.773,28.08L59.647,27.928L59.657,27.699L60.496,28.066L60.572,28.512ZM90.122,0.473L89.987,0.584L89.867,0.575L89.787,0.468L89.773,0.29L89.887,0.339L89.929,0.366L89.965,0.402L90.122,0.473ZM88.468,-0.204L88.418,-0.184L88.346,-0.233L88.358,-0.32L88.418,-0.356L88.464,-0.331L88.5,-0.262L88.468,-0.204Z" fill="#A1A28A" stroke="#DCDCDC" stroke-width="0.5" stroke-miterlimit="3.999327"/>
<path d="M43.106,29.976L42.904,30.039L42.654,30.175L41.893,30.431L40.863,30.675L39.524,30.987L39.221,31.321L37.895,33.414L36.786,33.837L36.382,34.15L36.079,34.545L35.417,35.273L35.141,35.833L34.412,37.047L34.012,38.569L33.86,39.422L33.64,40.658L33.317,41.279L32.885,41.862L32.419,42.43L32.019,43.055L31.68,43.543L31.624,43.71L31.79,43.845L32.595,43.71L32.913,43.563L33.353,43.374L33.628,43.476L33.904,44.013L34.216,44.081L34.51,44.013L34.821,44.148L35.219,45.484L35.557,46.615L36.341,47.321L36.952,47.871L37.1,48.358L37.246,49.044L37.284,49.38L37.092,49.582L36.788,49.999L36.712,50.796L36.66,51.061L36.604,51.8L36.644,52.254L36.808,52.608L37.08,52.811L37.632,52.917L38.129,53.04L38.415,53.654L38.821,54.435L39.257,54.763L39.896,54.979L40.354,54.901L41.421,54.763L42.338,54.798L43.682,55.006L44.181,54.999L44.827,54.959L45.964,54.536L46.378,54.473L46.837,54.511L47.509,54.727L47.873,54.898L48.338,55.074L49.018,55.199L49.456,55.177L49.787,55.17L49.979,55.25L51.049,56.461L51.976,57.51L52.783,58.391L53.657,59.34L53.725,59.396L54.119,59.275L54.378,59.327L54.618,59.52L55.032,59.44L55.62,59.088L56.475,59.017L57.6,59.228L59.085,59.228L60.928,59.019L62.073,58.792L62.521,58.547L63.26,58.572L64.154,58.792L64.635,59.104L64.693,59.411L64.873,59.892L64.679,60.379L64.112,60.871L63.796,61.501L63.734,62.267L63.44,62.833L62.915,63.2L62.709,63.734L62.825,64.435L62.769,65.458L62.539,66.806L62.539,67.61L62.769,67.873L62.875,68.251L62.857,68.743L62.943,69.179L63.228,69.745L63.626,70.872L63.958,71.357L64.248,71.535L64.541,71.753L65.389,72.906L65.595,73.149L65.533,73.361L65.453,73.519L65.355,73.621L64.452,74.307L62.657,75.8L62.509,75.989L62.521,76.301L63.041,76.099L63.598,76.268L63.87,76.301L63.994,76.424L64.156,76.827L64.342,76.895L64.613,77.062L65.145,77.486L65.591,77.933L65.925,78.147L66.16,78.347L66.234,78.637L66.136,78.928L66.416,79.602L66.606,79.81L66.706,80.066L66.606,80.324L66.842,80.625L67.098,81.219L67.41,81.943L67.448,82.347L67.577,82.532L67.731,83.069L67.993,83.574L67.931,83.919L68.041,84.258L66.98,84.485L66.884,84.449L66.82,84.324L66.85,83.36L66.84,82.27L66.676,81.824L66.19,81.108L65.547,80.161L65.371,79.888L65.099,79.732L64.777,79.71L64.541,79.778L64.226,79.954L63.928,80.146L63.352,80.718L62.773,81.386L62.433,81.537L62.093,81.599L61.793,81.579L61.552,81.399L61.304,81.034L61.006,80.549L60.65,80.391L60.512,80.54L60.394,80.825L60.302,81.108L60.542,81.468L60.748,81.746L60.394,81.737L59.251,81.737L57.932,81.737L56.615,81.737L55.432,81.737L54.336,81.737L53.919,81.713L53.493,81.55L53.085,81.473L52.869,81.486L52.484,81.644L51.982,81.668L51.644,81.818L51.372,81.8L51.368,82.635L51.36,83.824L51.352,85.086L51.656,84.99L51.918,84.999L52.11,85.088L52.65,85.015L52.947,85.054L53.231,85.086L53.493,85.09L53.655,85.19L53.871,85.172L54.103,85.061L54.38,85.13L54.678,85.308L54.87,85.573L55.042,85.901L55.214,86.076L55.204,86.39L55.198,86.637L55.138,86.842L55.214,86.974L55.27,87.116L55.254,87.198L55.154,87.236L54.936,87.263L54.704,87.287L54.542,87.278L54.416,87.15L54.294,87.136L54.119,87.154L53.931,87.078L53.769,86.918L53.481,86.758L53.173,86.827L52.961,86.909L52.743,87.009L52.546,87.114L52.348,87.087L52.096,87.163L51.884,87.281L51.6,87.377L51.292,87.423L50.939,87.468L50.601,87.486L50.217,87.524L50.195,88.189L50.151,89.494L50.121,90.359L50.123,91.156L50.271,91.446L50.951,92.06L51.484,92.383L51.936,92.744L52.386,92.895L52.574,93.031L52.697,93.254L52.759,93.488L52.807,93.688L52.759,93.901L52.648,94.102L52.695,94.315L52.857,94.482L52.907,94.694L53.019,94.896L53.081,95.097L53.217,95.242L53.389,95.342L53.611,95.509L53.635,95.665L53.611,95.843L53.609,95.978L53.821,96.284L53.883,96.5L53.785,96.756L53.689,97.648L53.445,98.663L53.287,99.438L53.033,100.7L52.737,102.169L52.376,103.959L52.018,105.727L51.674,107.439L51.362,108.988L51.019,110.696L50.811,111.731L50.711,111.911L50.423,111.535L49.987,111.181L49.58,110.968L49.406,110.689L49.172,110.119L48.844,109.925L48.614,109.774L48.392,109.796L48.157,109.952L47.793,110.052L47.547,110.037L46.558,109.645L46.396,109.607L47.031,108.71L48.169,107.107L48.892,106.086L49.694,104.955L50.103,104.378L50.157,104.28L50.157,104.131L49.983,103.911L49.598,103.819L49.15,103.65L48.868,103.376L48.478,103.258L48.175,103.064L47.621,102.873L47.289,102.697L46.883,102.633L46.562,102.31L45.388,101.684L45.087,101.626L44.757,101.722L44.273,101.822L43.807,102.163L43.226,102.274L42.682,102.27L42.398,102.067L42.127,101.992L41.771,101.715L41.143,101.5L40.688,101.352L40.406,101.421L40.044,101.731L39.678,102.04L39.388,102.232L38.999,102.221L38.533,102.504L38.075,102.606L37.614,102.65L37.082,102.75L36.492,102.579L36.009,102.428L35.793,102.359L35.597,102.406L35.293,102.564L34.75,102.632L34.324,102.648L34.022,102.573L33.75,102.299L33.311,102.159L32.827,101.989L32.725,101.635L32.795,101.37L32.983,100.988L32.879,100.594L32.675,99.974L32.589,99.719L32.437,99.503L32.199,99.425L31.734,99.483L31.224,99.249L30.91,99.024L30.748,98.75L30.92,98.232L30.768,97.791L30.464,97.548L30.269,97.118L29.965,96.776L29.565,96.6L29.163,96.62L28.85,96.513L28.492,96.15L28.156,96.014L27.776,95.662L27.069,95.506L26.701,95.368L26.491,95.15L26.207,94.761L26.239,94.547L26.101,94.335L25.979,93.955L25.738,93.394L25.472,93.075L25.198,92.835L24.966,92.632L24.622,92.328L24.201,92.152L23.843,91.967L23.703,91.693L23.583,91.468L23.381,91.484L23.093,91.464L22.778,91.406L22.444,91.243L22.164,91.045L21.694,90.709L21.439,90.665L21.211,90.665L20.875,90.994L19.87,90.649L19.008,90.137L18.115,90.004L17.537,89.692L17.004,89.202L16.716,88.87L16.482,88.706L15.345,88.231L15.119,88.185L14.685,88.407L14.545,88.539L14.519,88.919L14.467,89.135L14.089,89.266L13.48,89.236L13.058,89.099L12.774,89.079L12.716,89.188L12.556,89.233L12.211,89.202L11.701,89.097L11.239,88.957L10.614,88.659L10.324,88.697L9.612,88.634L9.031,88.463L8.883,88.307L8.631,87.236L8.553,87.161L8.303,87.116L7.882,86.967L7.616,86.795L7.478,86.497L7.312,86.215L6.602,86.279L5.439,85.907L4.634,85.553L3.896,85.161L2.777,84.387L2.351,84.197L1.824,83.961L1.512,83.579L0.998,83.194L0.826,83.089L0.664,82.742L-0.103,82.238L0.277,81.588L1.2,81.097L2.411,81.477L2.559,80.718L2.121,80.046L2.187,78.777L2.329,78.523L2.649,78.184L3.065,77.948L3.309,77.88L3.724,77.997L3.986,77.742L4.974,77.857L5.273,77.75L5.479,77.577L5.721,77.446L6.029,77.141L6.207,76.789L6.355,76.651L6.696,76.7L6.728,76.548L6.904,76.341L7.502,75.878L7.496,75.673L7.328,75.226L7.37,75.063L7.716,75.006L8.125,74.881L8.343,74.454L8.613,74.082L8.921,73.534L9.261,73.499L9.441,72.859L9.898,72.298L10.83,70.635L10.548,70.671L10.324,70.894L10.07,70.867L9.78,70.736L9.864,69.986L9.698,69.897L9.249,70.475L8.861,69.887L8.825,69.529L8.989,69.175L8.965,68.937L8.337,69.115L8.367,68.893L8.757,68.667L8.935,68.431L9.275,68.173L9.417,67.784L9.499,67.18L9.652,66.531L9.538,66.212L9.355,65.94L9.201,64.73L9.243,64.026L9.163,63.472L9.003,63.004L8.257,62.388L9.435,61.684L9.856,61.152L9.321,60.057L8.621,59.133L8.601,58.579L8.785,58.65L9.021,58.634L9.235,57.465L9.185,57.103L8.791,56.519L8.303,56.504L7.876,55.769L7.63,55.604L7.432,55.141L6.742,54.239L6.197,53.768L6.606,52.679L6.964,52.47L7.08,52.2L6.94,51.53L6.98,51.374L7.064,51.306L7.148,51.31L7.292,51.412L7.56,51.7L7.784,52.058L7.964,52.167L8.235,52.049L9.287,51.335L9.219,51.114L9.315,50.667L9.666,50.302L10.042,50.177L10.154,49.974L10.064,49.66L9.668,48.877L9.317,48.456L9.091,48.037L8.971,47.65L8.571,47.285L8.739,46.94L9.049,46.537L9.155,46.466L9.323,46.577L9.786,47.309L10.524,47.784L11.297,48.552L11.615,49.082L11.867,49.179L12.085,49.369L11.989,49.513L11.747,49.663L11.677,49.97L11.835,50.143L12.001,50.253L12.453,50.183L12.7,49.823L12.534,48.245L12.275,47.456L11.973,47.211L11.703,46.898L11.885,46.662L12.367,46.555L12.998,46.279L15.313,44.771L16.106,43.353L16.714,42.839L17.399,42.505L18.239,42.583L18.89,42.405L19.092,41.953L18.914,41.341L18.664,40.971L18.904,40.435L19.154,39.62L19.136,38.935L19.458,38.527L19.346,38.367L18.876,38.698L18.504,38.846L18.714,38.574L19.372,37.899L19.714,36.869L19.976,36.441L20.903,35.842L21.087,35.553L21.788,35.103L22.918,34.137L23.349,33.868L25.538,34.491L26.233,34.451L26.109,34.565L25.788,34.604L25.324,34.772L25.19,35.145L25.504,35.533L25.838,35.646L26.121,35.395L26.403,34.682L26.857,33.892L26.963,33.064L27.285,32.779L27.754,32.675L28.594,32.839L29.231,33.009L29.897,33.031L31.937,32.906L35.255,30.755L36.796,30.292L37.762,29.838L38.377,28.954L38.543,28.289L38.997,28.031L39.472,28.031L39.69,27.87L39.758,27.665L40.905,27.089L41.563,27.015L42.145,27.026L43.444,27.527L44.045,28.413L44.145,29.023L43.322,29.685L43.106,29.976ZM4.998,77.583L4.846,77.695L4.556,77.495L4.458,77.241L4.636,77.052L4.864,77.114L4.968,77.269L4.998,77.583Z" fill="#F7B329" stroke="#DCDCDC" stroke-width="0.5" stroke-miterlimit="3.999327"/>
</svg>
