<svg width="120" height="114" viewBox="0 0 120 114" fill="none" xmlns="http://www.w3.org/2000/svg" xmlns:xlink="http://www.w3.org/1999/xlink">
<path d="M70.423,48.345L70.467,48.552L70.475,50.36L70.525,51.132L70.705,51.767L70.741,52.009L70.563,52.205L70.387,52.243L70.222,51.936L69.846,51.702L69.29,51.451L69.054,51.284L68.769,51.351L68.367,51.731L68.207,52.083L68.277,52.577L68.403,53.063L68.683,53.341L68.705,53.648L68.805,54.046L68.948,54.409L69.016,54.803L68.924,54.81L68.591,54.305L68.291,53.759L67.513,52.724L67.26,50.868L67.244,49.95L66.71,48.868L66.356,47.368L66.214,46.978L66.4,46.491L66.432,46.31L66.332,46.35L66.06,46.6L65.707,46.001L65.475,45.464L64.559,44.351L64.293,43.859L64.282,43.378L63.886,43.86L63.348,44.2L62.8,44.71L62.437,44.864L61.284,44.959L60.616,44.276L59.659,42.604L59.533,42.226L59.659,41.241L59.431,40.306L59.435,39.814L59.367,39.483L59.195,39.556L59.129,39.783L59.167,40.129L59.097,40.42L58.27,40.364L57.49,40.231L58.176,40.723L58.913,40.838L59.293,41.277L59.339,41.62L59.315,42.007L58.939,42.277L58.593,42.448L58.655,42.818L59.075,43.269L58.567,43.396L58.429,43.69L58.417,44.109L58.673,44.48L58.775,44.754L58.713,45.006L58.961,45.277L59.321,45.845L59.437,46.248L59.287,46.816L59.081,47.038L58.751,47.252L57.976,47.967L57.596,48.781L57.274,49.16L56.87,49.231L56.715,49.064L56.381,48.846L56.373,48.448L56.475,48.134L57.156,47.374L56.785,47.475L56.365,47.693L55.725,48.105L55.521,47.595L55.387,47.123L55.386,46.544L55.899,45.678L55.318,46.11L55.158,46.649L55.23,47.285L55.154,47.735L54.928,48.321L54.618,48.673L54.118,48.9L53.898,49.247L53.563,49.501L53.553,48.993L53.445,48.321L53.083,46.725L53.005,47.068L53.193,48.058L53.181,48.701L52.907,49.209L52.358,49.754L51.936,49.83L51.688,49.746L51.312,49.409L50.9,48.926L50.833,48.149L50.663,47.722L50.689,47.212L50.655,46.729L50.213,45.434L49.927,44.77L49.963,44.556L49.943,44.465L49.811,43.608L49.627,43.083L49.535,42.524L49.971,41.72L49.795,41.589L49.294,41.482L48.828,41.342L48.714,41.133L48.922,40.34L48.68,40.03L48.332,39.716L48.222,39.59L48.106,39.427L47.947,39.027L48.256,38.187L48.69,37.21L48.768,36.838L48.84,36.192L48.88,35.943L48.824,35.698L48.366,35.415L47.561,35.3L46.991,35.062L46.659,34.703L46.376,34.559L46.026,34.667L45.58,34.527L45.206,34.169L44.895,33.735L44.935,33.532L45.017,33.261L45.604,32.136L45.822,32.101L46.332,32.317L46.521,32.317L46.855,31.872L47.323,30.603L47.982,30.607L48.564,30.647L48.956,30.712L49.346,30.672L49.755,30.571L49.977,30.411L50.099,30.208L50.057,30.032L49.555,29.792L49.361,29.612L49.222,29.102L49.076,28.911L48.09,28.884L47.579,28.65L47.297,28.439L46.797,27.744L46.178,27.228L45.586,27.107L45.358,26.94L45.234,26.675L45.304,26.292L45.482,25.943L45.606,25.554L46.078,25.041L46.631,24.592L46.879,24.284L47.229,23.959L47.271,23.781L47.211,23.577L46.927,23.383L46.729,23.321L46.697,23.196L46.833,22.86L47.103,22.818L47.665,23.123L48.236,23.615L48.574,24.055L48.588,24.402L48.808,24.458L49.03,24.471L49.402,24.623L49.785,24.578L50.033,24.663L50.199,24.632L50.261,24.432L50.075,24.138L49.939,23.929L50.095,23.719L50.273,23.677L50.471,23.73L50.741,23.919L50.938,24.305L50.976,24.906L51.414,25.449L51.992,25.834L52.444,26.012L52.987,26.139L53.453,26.017L53.685,25.64L53.579,25.3L53.653,24.997L53.839,24.83L54.13,24.841L54.346,25.081L54.98,26.377L54.85,26.951L54.992,28.523L54.832,29.558L54.858,29.781L54.932,29.953L55.04,30.024L55.226,30.022L55.997,30.217L56.647,30.433L57.38,30.629L58.439,30.781L59.089,30.732L59.413,30.727L60.07,30.772L61.797,30.69L63.226,30.669L63.808,30.818L64.273,30.87L65.865,30.767L67.471,30.718L68.341,31.046L69.288,31.582L69.822,31.98L69.918,32.207L69.86,32.401L69.682,32.508L69.354,32.512L68.605,32.252L68.477,32.328L68.491,32.858L68.467,32.942L68.307,33.417L67.855,34.487L67.767,34.964L67.671,35.086L67.553,35.153L67.2,35.171L66.922,35.249L66.806,35.424L66.626,35.783L66.5,36.146L66.328,36.259L65.915,36.063L65.657,36.094L65.333,36.177L65.009,36.384L64.787,36.642L64.535,36.729L63.784,36.678L63.642,36.714L63.546,36.898L63.47,37.128L62.885,37.673L62.663,38.546L62.483,39.113L62.513,39.552L63.006,40.698L63.352,42.183L63.484,42.334L63.6,42.381L63.652,42.346L63.64,42.039L63.662,41.667L63.824,41.58L64.032,41.656L64.23,41.98L64.451,42.571L64.689,42.804L65.061,42.869L65.483,42.729L65.797,42.462L65.925,42.172L65.834,41.602L65.815,41.175L66.016,40.769L66.74,40.162L66.844,39.975L66.798,39.458L66.8,38.971L67.074,38.938L67.443,39.017L67.907,38.779L68.049,38.773L68.245,39.029L68.575,38.986L68.819,40.042L69.068,40.974L69.07,41.408L69.112,42.359L69.226,43.134L69.404,43.31L69.612,43.724L69.804,44.205L69.954,44.474L70.056,45.351L70.182,45.983L70.347,47.965L70.423,48.345ZM59.581,42.945L59.681,43.181L59.369,43.04L59.135,42.876L58.991,42.659L59.235,42.544L59.581,42.945ZM60.342,47.737L59.367,47.929L58.869,47.869L59.799,46.433L59.767,45.79L59.623,45.266L59.151,44.844L59.125,44.543L58.913,44.131L58.803,43.648L59.327,43.494L59.753,43.77L59.812,43.922L59.904,44.316L60.114,44.726L60.85,45.571L60.836,46.088L60.634,47.35L60.342,47.737ZM64.711,46.135L64.451,46.297L64.208,46.157L63.896,45.623L64.05,44.948L64.148,44.852L64.303,45.071L64.521,45.542L64.663,45.899L64.711,46.135ZM62.435,47.268L61.841,47.651L62.035,45.382L62.479,46.228L62.591,46.68L62.435,47.268ZM66.49,49.142L66.286,49.588L66.186,49.263L66.272,48.851L66.36,48.624L66.418,48.626L66.538,48.86L66.49,49.142ZM66.914,50.908L66.576,50.934L66.41,50.772L66.488,50.545L66.396,49.814L66.682,49.737L66.828,49.741L66.91,49.957L66.986,50.353L66.914,50.908Z" fill="#7699BB" stroke="#DCDCDC" stroke-width="0.5" stroke-miterlimit="3.999327"/>
<path d="M118.461,50.585L118.131,51.122L117.274,51.679L116.668,51.963L116.315,51.97L116.015,52.304L115.769,52.961L115.513,53.346L115.249,53.46L115.079,53.709L114.999,54.09L115.151,54.294L115.535,54.321L115.565,54.428L115.241,54.615L114.838,54.68L114.358,54.624L113.9,54.775L113.469,55.129L113.101,55.893L112.797,57.066L112.757,57.367L112.089,57.026L111.812,56.834L111.454,56.785L111.086,57.001L110.794,57.235L110.497,57.32L110.039,57.347L109.439,57.226L109.032,57.117L108.97,57.177L109.191,57.671L109.269,58.065L109.181,58.27L108.988,58.44L108.696,58.575L108.352,58.653L108.048,58.646L107.562,58.459L107.191,58.451L106.873,58.544L106.679,58.682L106.571,58.854L106.383,59.828L106.219,60.131L105.99,60.303L105.76,60.321L105.444,60.274L105.114,60.314L103.617,60.69L103.399,60.726L102.932,60.755L102.496,60.766L102.19,60.748L101.473,60.363L101.125,60.323L100.933,60.432L100.801,60.948L100.381,61.276L99.822,61.99L99.694,63.032L99.75,63.758L99.248,64.477L99.202,64.824L99.472,66.487L99.428,66.661L99.324,66.747L99.01,66.805L98.481,66.979L98.131,67.144L97.963,67.162L97.469,67.039L97.341,67.037L97.379,67.164L97.773,67.883L98.181,68.224L98.607,68.186L98.79,68.253L98.736,68.426L98.9,68.876L99.28,69.602L99.396,70.147L99.164,70.688L99.206,70.882L99.332,70.997L99.692,71.5L100.457,72.286L101.207,73.135L101.832,73.843L102.29,74.334L103.313,75.243L103.495,75.67L103.535,76.53L103.787,77.028L104.021,77.384L104.183,77.681L104.558,78.655L104.718,78.785L105.538,78.193L105.728,78.317L105.836,78.54L105.836,78.823L105.708,79.145L105.442,79.442L104.175,80.129L104.071,80.719L103.983,81.614L103.961,82.712L104.023,83.533L103.977,83.722L103.865,83.811L103.387,83.774L102.7,84.188L102.456,84.225L102.154,84.383L101.924,84.579L101.85,84.876L101.986,85.777L102.232,86.621L102.714,87.24L103.095,87.73L103.629,88.411L104.049,89.003L104.898,89.651L106.089,90.621L106.545,91.156L106.947,91.804L107.231,92.358L107.339,93.092L107.427,93.502L107.453,94.875L107.235,95.187L107.067,95.548L107.161,95.926L107.439,96.287L107.439,96.699L107.698,97.438L108.134,97.89L108.554,98.193L108.74,98.433L108.68,98.818L108.804,99.226L108.896,99.671L109.065,100.287L109.403,100.808L109.917,102.404L109.905,102.567L109.683,102.89L109.359,103.182L109.151,103.277L108.954,103.578L108.484,104.43L107.537,105.897L106.613,106.852L105.836,107.531L105.274,107.943L105.108,108.188L105.108,108.38L105.21,108.722L105.17,109.372L105.05,109.784L104.89,110.219L104.8,110.608L104.551,110.666L104.015,111.407L103.783,111.035L103.647,110.648L103.793,109.771L103.467,108.11L103.671,107.888L103.865,107.776L104.221,107.138L104.65,106.507L104.692,105.751L105.04,105.198L104.958,104.735L104.976,104.192L105.05,103.747L105.022,103.382L105.298,103.005L105.776,102.721L105.576,102.62L105.376,102.413L104.75,102.727L104.431,102.623L104.367,102.296L104.447,101.946L104.479,101.734L104.728,101.494L104.71,101.026L104.584,100.613L104.766,100.103L104.397,100.101L104.227,99.998L104.333,99.715L104.668,99.464L104.363,98.985L104.589,98.471L104.581,97.836L104.427,97.275L104.435,96.872L104.199,96.156L104.091,95.241L103.593,94.56L103.223,93.567L102.236,92.267L102.254,91.71L102.202,91.22L101.986,90.982L101.7,92.716L101.483,92.375L101.413,91.407L101.271,90.948L101.425,90.034L100.853,89.127L100.731,88.468L100.355,87.467L100.465,87.242L100.967,87.467L100.505,86.884L100.129,87.015L99.81,86.385L99.74,84.677L99.426,84.038L99.598,83.386L99.24,81.047L98.533,80.289L98.672,79.635L98.848,79.054L98.808,77.979L98.982,77.647L99.326,77.393L99.004,77.482L98.731,77.558L98.089,77.622L97.363,77.634L97.112,76.848L96.756,76.47L96.444,75.681L96.256,74.782L96.378,74.606L95.818,74.239L95.674,74.014L95.089,73.429L94.423,72.985L94.571,73.297L94.751,73.495L94.419,74.036L94.743,74.947L94.459,75.528L94.194,76.283L93.94,76.643L93.138,77.416L92.489,77.678L92.065,77.727L91.689,77.645L91.229,77.246L91.118,76.912L91.044,76.351L90.882,76.271L90.708,76.336L90.98,77.061L90.976,77.398L91.465,78.048L91.291,78.23L90.404,78.586L90.102,78.527L89.888,78.598L89.83,78.891L89.719,79.054L88.321,79.501L88.03,80.004L87.85,80.514L87.154,81.245L86.223,81.85L85.993,81.815L85.729,81.674L85.765,81.02L86.085,80.467L85.983,79.875L85.905,80.214L85.303,81.038L85.03,81.307L84.478,81.236L83.715,81.347L83.427,80.501L83.433,80.191L83.377,79.927L83.465,79.649L83.437,79.428L83.253,79.851L83.183,80.218L82.903,80.545L82.138,80.895L82.106,80.45L82.08,80.049L82.243,79.688L82.219,79.116L82.463,78.288L82.443,78.005L82.369,77.691L82.233,78.146L82.156,78.618L82.002,78.762L81.72,78.869L81.204,79.41L80.902,79.895L80.103,80.352L79.681,80.305L79.627,79.724L79.947,77.663L80.261,77.373L80.407,77.015L80.668,75.808L80.962,75.352L81.078,74.394L81.198,74.228L81.592,73.475L81.728,72.091L81.566,71.403L81.196,70.735L80.84,68.727L79.913,67.097L79.837,66.552L79.379,65.893L79.801,65.846L78.934,65.269L78.814,65.033L78.64,63.678L78.674,62.921L78.548,63.021L78.43,63.488L78.09,63.678L78.242,64.486L78.202,64.682L78.022,64.996L77.299,64.67L76.767,64.314L76.166,63.448L75.576,62.476L75.784,62.326L76.056,62.308L76.893,63.03L77.435,63.181L77.778,63.001L78.204,62.692L78.408,62.093L78.2,61.874L77.79,61.754L77.521,61.592L77.129,61.186L77.081,60.979L76.959,60.713L76.563,60.527L76.243,60.289L76.513,59.869L76.779,59.557L76.076,59.572L75.276,59.034L75.11,58.878L74.844,58.771L74.215,58.707L73.691,58.865L73.929,59.633L73.883,59.887L73.539,59.849L72.824,58.68L73.04,58.384L73.347,58.106L73.196,58.066L72.898,58.085L73.19,57.046L73.012,56.892L72.92,57.217L72.762,57.529L72.152,58.263L71.85,58.125L71.643,57.941L71.934,57.556L72.092,57.453L72.202,57.246L71.976,56.843L71.617,56.549L71.329,56.042L71.179,56.035L71.311,56.632L71.257,57.485L70.613,56.543L69.324,55.203L69.02,54.8L68.952,54.406L68.809,54.043L68.709,53.646L68.687,53.339L68.407,53.061L68.281,52.574L68.211,52.081L68.371,51.728L68.773,51.349L69.058,51.282L69.294,51.449L69.85,51.699L70.226,51.934L70.391,52.24L70.567,52.202L70.745,52.006L70.709,51.765L70.529,51.129L70.479,50.358L70.471,48.549L70.427,48.342L70.737,48.161L70.863,47.954L70.989,47.645L71.069,47.509L71.249,47.5L71.533,47.651L71.996,48.168L72.306,48.284L72.614,48.203L72.936,47.427L73.054,47.217L73.21,47.079L73.495,47.102L73.661,46.963L73.723,46.627L73.721,46.253L73.403,45.229L73.307,44.755L73.256,44.288L73.455,43.807L73.727,43.244L73.663,42.752L73.737,42.562L73.959,42.535L74.237,42.653L74.543,42.571L74.775,42.27L74.868,42.006L75.008,40.868L75.102,39.824L75.142,38.972L74.904,38.462L74.539,37.09L74.645,36.856L74.81,36.801L75.352,37.282L75.586,37.362L75.98,37.288L76.367,37.181L76.649,37.173L77.055,37.339L77.613,37.522L78.486,37.749L78.844,37.919L79.14,37.896L79.379,37.362L79.657,36.583L80.069,35.423L80.541,34.579L80.667,34.354L81.192,33.666L81.702,32.943L82.148,32.03L82.395,31.371L82.373,31.097L82.213,30.87L81.88,30.725L81.604,30.574L81.528,30.438L81.536,30.283L81.678,29.855L81.92,29.348L82.172,29.074L82.833,28.735L83.255,28.297L83.731,27.718L83.988,27.324L84.118,26.522L84.26,26.362L84.552,26.102L84.774,25.799L84.756,25.634L84.638,25.516L84.418,24.953L84.316,24.071L84.364,23.354L84.53,23.061L84.75,22.655L85.158,22.404L85.739,22.23L86.628,21.754L88.17,20.65L88.725,20.291L89.105,20.104L89.475,19.641L89.982,19.134L90.708,18.882L91.174,18.784L93.372,18.437L93.742,18.481L94.114,18.682L94.575,19.358L94.985,19.612L95.461,19.79L95.818,19.713L95.828,19.441L94.697,17.865L94.595,17.435L94.555,17.023L94.683,16.696L95.037,16.384L95.525,16.032L96.132,15.59L96.514,15.285L96.964,15.187L97.126,15.011L97.171,14.755L97.147,14.476L96.942,14.16L96.984,13.762L97.052,13.401L97.243,13.19L97.663,12.618L97.923,12.204L98.059,12.028L98.261,11.718L98.604,11.68L98.94,11.778L99.14,11.954L99.34,12.313L99.558,12.607L99.826,12.607L100.098,12.566L100.223,12.606L100.483,12.851L100.979,13.439L101.199,13.588L101.407,13.838L101.517,14.339L101.585,14.842L102.206,16.587L102.392,16.954L102.53,17.233L102.82,17.302L103.056,17.023L103.147,16.723L103.391,16.622L103.683,16.676L104.219,16.956L104.507,17.106L104.65,17.967L104.682,18.974L104.64,19.287L104.874,20.116L104.946,21.068L104.996,21.589L105.002,22.084L104.96,22.734L104.834,23.604L104.624,24.347L104.7,24.964L104.574,25.245L104.063,25.389L104.019,25.625L104.169,26.011L104.527,26.496L104.537,26.801L104.363,27.008L103.987,27.028L103.465,27.221L103.105,27.845L102.726,28.357L102.518,28.459L101.822,28.314L101.657,28.444L101.413,29.316L101.213,29.692L100.915,30.007L100.641,30.194L100.393,30.325L99.842,30.238L99.55,30.763L99.258,31.454L99.234,31.812L99.386,32.375L99.306,32.531L99.008,32.653L98.519,32.905L98.217,33.706L98.229,34.483L98.409,34.748L98.746,34.864L98.988,35.102L99.012,35.476L99.22,35.942L99.122,36.485L98.435,37.275L98.415,37.705L98.78,37.838L99.096,37.776L99.486,37.589L99.944,37.288L100.951,36.848L102.048,36.598L102.916,36.551L103.657,36.569L104.021,36.661L104.131,36.823L105.146,36.567L105.358,36.552L105.542,36.538L105.536,36.708L104.792,37.411L104.655,37.738L104.678,38.088L104.982,38.413L105.276,38.664L105.526,39.292L105.332,39.866L105.456,40.075L105.674,40.309L105.806,40.639L105.824,41.04L105.7,41.681L106.773,42.015L107.7,42.166L108.376,42.206L108.81,42.353L109.071,42.48L109.255,42.709L109.309,42.959L109.084,43.135L108.626,43.696L108.362,44.446L108.39,45.007L108.358,45.494L107.826,46.195L107.616,46.676L107.431,47.168L107.437,47.382L107.546,47.531L107.772,47.618L108.164,47.671L108.644,47.614L109.787,47.732L111.092,47.948L111.61,48.066L111.78,48.284L111.738,48.758L111.656,49.199L111.74,49.539L111.95,49.849L112.303,49.953L112.607,50.073L112.665,50.31L112.571,50.634L112.725,50.888L112.899,51.055L113.275,51.151L114.036,50.944L114.57,51.037L115.051,51.178L115.461,51.104L115.867,50.922L116.754,50.104L117.788,49.661L118.127,49.555L118.355,49.608L118.411,49.664L118.397,49.831L118.505,50.505L118.461,50.585ZM72.864,59.488L72.938,60L72.668,59.789L72.316,59.078L72.326,58.611L72.578,58.829L72.864,59.488ZM75.566,59.657L75.688,60.399L75.304,60.122L75.162,59.739L75.124,59.346L75.566,59.657ZM76.817,61.456L77.459,61.901L77.715,61.87L78.112,62.151L78.122,62.262L78.046,62.491L77.866,62.671L77.381,62.85L77.047,62.705L76.915,62.219L76.523,61.99L76.421,61.796L76.669,61.53L76.817,61.456ZM76.683,66.14L76.589,66.186L76.006,65.737L75.544,65.16L76.278,65.045L76.985,65.171L76.989,65.477L76.837,65.971L76.683,66.14ZM98.471,79.049L98.259,79.118L97.941,78.773L97.877,77.952L98.143,77.763L98.285,77.718L98.493,77.819L98.573,77.952L98.609,78.117L98.553,78.286L98.471,79.049ZM81.092,80.668L80.727,81.182L80.593,80.414L81.186,79.987L81.48,79.579L81.79,79.301L81.888,79.64L81.594,80.283L81.092,80.668ZM82.933,81.334L82.817,81.469L82.587,81.372L82.533,81.314L83.063,80.735L83.119,80.951L82.933,81.334ZM102.624,95.561L102.588,96.414L102.306,96.002L102.26,95.532L102.282,95.094L102.342,95.023L102.36,95.091L102.528,95.287L102.624,95.561ZM103.176,98.162L103.301,98.306L103.481,98.302L103.431,98.809L102.992,99.432L102.73,99.522L102.614,99.522L102.712,98.613L102.55,98.093L102.604,97.749L103.075,97.908L103.176,98.162ZM101.225,99.241L101.191,99.43L100.867,99.816L100.581,99.591L100.509,99.47L100.799,99.221L101.107,99.257L101.189,99.201L101.225,99.241ZM101.621,100.483L101.555,100.512L101.463,100.495L101.277,100.412L101.063,100.06L101.177,99.813L101.255,99.753L101.443,99.773L101.543,99.82L101.576,99.911L101.523,100.105L101.531,100.272L101.621,100.483ZM103.749,101.752L103.515,101.781L103.403,100.944L103.469,100.824L103.801,101.234L104.273,101.485L104.087,101.648L103.749,101.752ZM101.277,102.852L101.321,103.139L100.971,102.834L100.911,101.984L101.187,102.52L101.307,102.641L101.277,102.852ZM103.959,102.58L103.817,103.645L103.461,103.498L103.291,103.498L103.08,102.896L103.095,102.734L102.968,102.338L103.793,102.269L103.959,102.58ZM102.096,103.959L102.064,104.076L102.026,104.072L101.9,103.99L101.978,103.5L102.19,103.099L102.408,102.511L102.53,102.384L102.574,102.694L102.44,103.36L102.326,103.723L102.096,103.959ZM103.893,106.625L103.765,106.636L103.647,106.61L103.531,106.53L103.807,105.977L103.893,106.625ZM102.03,106.67L102.498,107.561L102.448,107.699L102.376,107.768L102.264,107.745L102.076,107.264L101.724,106.953L101.303,107.011L101.652,106.617L101.79,106.528L102.03,106.67ZM101.878,111.917L101.607,112.216L101.515,112.204L101.641,111.706L102.092,111.343L102.49,111.311L102.446,111.536L102.154,111.812L101.878,111.917Z" fill="#4B91EC" stroke="#DCDCDC" stroke-width="0.5" stroke-miterlimit="3.999327"/>
<path d="M45.378,15.4L45.604,15.556L45.628,15.812L45.586,16.095L45.354,16.707L45.143,17.135L44.897,18.041L44.675,19.608L44.723,19.882L45.384,20.777L45.642,21.467L45.668,21.934L45.386,22.72L45.069,23.604L44.913,23.804L44.733,23.874L43.915,23.566L43.354,23.609L42.706,23.78L42.031,23.746L41.471,23.644L40.765,24L40.088,23.807L39.654,23.588L39.366,22.972L39.245,22.894L37.819,23.537L37.478,23.577L36.592,23.232L35.869,22.889L35.597,22.787L34.897,22.653L34.27,22.575L33.584,22.362L32.733,22.642L32.389,22.618L32.069,22.417L31.901,22.004L31.859,21.612L31.57,21.344L31.124,21.282L30.494,21.523L29.577,21.843L29.281,21.788L29.009,21.698L28.909,21.612L28.784,21.244L28.638,21.162L28.424,21.149L28.048,21.06L27.58,20.786L26.169,20.138L25.991,19.85L25.997,19.21L25.919,18.947L25.747,18.669L25.022,18.386L23.615,17.932L22.836,17.569L22.464,17.74L21.748,17.891L21.364,18.219L20.905,18.114L19.811,17.769L19.224,17.718L18.87,17.836L18.788,18.032L18.34,18.257L17.915,18.078L17.073,17.838L16.338,17.705L15.221,17.411L15.093,16.968L14.905,16.529L14.641,16.451L13.64,16.538L12.72,16.053L11.735,15.43L11.315,15.227L11.037,15.153L10.8,15.234L10.528,15.378L10.28,15.42L9.744,15.151L9.063,14.77L8.223,14.299L7.24,13.644L6.836,13.272L6.654,12.994L6.445,12.731L5.589,12.301L4.914,11.961L4.098,11.551L3.962,11.469L3.654,11.224L3.181,10.917L2.793,10.826L2.669,10.997L2.575,11.175L2.237,11.133L1.71,10.819L1.158,10.49L0.728,10.185L0.285,9.871L0.177,9.639L0.363,8.922L0.62,8.306L0.838,8.168L1.194,7.76L1.324,7.043L1.318,6.429L1.664,5.563L2.143,4.641L2.969,3.651L3.325,3.323L3.726,3.098L4.488,2.366L4.646,2.246L4.979,2.057L5.307,2.01L5.555,2.101L5.809,2.484L6.117,2.849L6.49,2.831L6.928,2.518L7.836,1.084L9.097,0.79L10.292,0.939L11.349,1.148L11.661,1.627L11.865,2.134L11.997,2.39L12.344,2.691L13.836,3.406L14.701,4.051L15.898,4.915L16.794,5.294L17.587,5.327L18.035,5.665L18.708,6.338L19.278,7.11L19.987,7.823L20.479,7.8L21.149,7.569L21.966,7.266L22.448,7.415L22.893,7.613L23.041,7.981L23.311,8.679L23.607,9.401L24.075,9.653L24.63,10.024L24.936,10.318L25.975,10.859L26.121,11.079L26.331,11.228L26.585,11.322L26.795,11.433L27.123,11.471L28.322,11.148L28.642,11.188L28.825,11.248L28.831,11.366L28.616,11.87L28.432,12.517L28.622,12.84L29.125,12.974L30.237,13.07L31.737,13.061L32.195,13.388L32.647,13.878L33.105,14.715L33.286,15.069L33.512,15.171L33.902,15.031L33.968,14.688L33.984,14.176L34.312,14L34.522,14.131L34.765,14.53L35.385,14.889L35.835,15.066L36.263,15.004L36.442,14.866L36.652,14.167L36.99,14.065L37.416,14.111L37.58,14.25L37.751,14.53L38.269,14.662L38.783,14.837L39.264,15.066L39.946,15.583L40.783,15.679L41.757,15.667L42.268,15.679L42.644,15.717L42.982,15.681L43.979,15.311L44.387,15.283L44.893,15.325L45.378,15.4Z" fill="#4B91EC" stroke="#DCDCDC" stroke-width="0.5" stroke-miterlimit="3.999327"/>
</svg>
