<svg width="154" height="80" viewBox="0 0 154 80" fill="none" xmlns="http://www.w3.org/2000/svg" xmlns:xlink="http://www.w3.org/1999/xlink">
<path d="M138.976,13.269L139.058,13.449L139.242,13.946L139.707,15.21L140.115,16.198L140.613,17.563L140.769,18.086L140.835,18.447L141.558,19.943L141.988,21.168L142.302,22.163L142.745,23.612L142.937,24.117L142.624,24.38L141.996,25.319L141.326,28.291L140.369,30.602L140.261,32.045L140.107,32.565L139.652,33.294L139.1,34.008L138.119,33.639L136.52,32.383L135.588,31.188L134.589,30.415L133.646,29.389L133.388,28.65L133.398,28.175L132.986,27.015L132.68,26.464L131.529,25.228L131.199,24.567L130.947,24.275L130.694,23.857L130.276,22.243L129.82,21.216L129.301,21.501L129.392,21.933L128.939,22.53L128.665,23.222L128.875,23.787L129.816,24.645L130.006,25.021L130.226,25.833L130.19,26.935L130.342,27.307L131.047,28.124L131.299,28.609L131.451,29.026L131.685,29.404L132.384,30.112L133.39,31.459L134.343,32.367L135.033,32.804L135.324,33.242L135.39,34.369L135.338,34.907L135.944,35.918L136.168,36.428L136.751,36.844L137.019,37.318L137.265,38.089L137.635,40.364L138.143,40.922L139.712,43.897L141.035,45.773L141.674,47.171L142.652,48.866L144.564,52.577L145.701,53.717L146.155,54.358L146.979,54.85L147.87,55.562L147.021,55.493L146.805,55.535L146.507,55.656L146.365,56.088L146.303,56.441L146.407,58.302L146.641,59.249L147.388,61.038L147.946,61.573L148.218,61.92L148.597,62.172L150.37,62.782L151.408,64.068L153.738,65.691L153.966,66.139L153.972,66.243L152.131,66.245L150.29,66.245L148.45,66.245L146.609,66.245L144.77,66.245L142.927,66.246L141.089,66.246L139.248,66.246L137.407,66.246L135.566,66.246L133.726,66.246L131.887,66.246L130.046,66.248L128.205,66.248L126.365,66.248L124.524,66.248L123.474,66.248L123.654,65.762L123.764,65.419L123.64,65.179L123.283,65.119L123.049,65.195L122.499,66.214L122.211,66.254L121.558,66.254L119.415,66.254L117.271,66.254L115.128,66.254L112.985,66.252L110.843,66.252L108.7,66.252L106.558,66.252L104.415,66.252L102.273,66.25L100.128,66.25L97.986,66.25L95.843,66.25L93.7,66.25L91.558,66.25L89.413,66.248L87.271,66.248L87.271,65.021L87.271,63.79L87.271,62.557L87.271,61.324L87.271,60.088L87.271,58.85L87.271,57.61L87.271,56.368L87.271,55.123L87.271,53.877L87.271,52.628L87.271,51.375L87.271,50.123L87.271,48.866L87.271,47.608L87.271,46.348L87.271,45.085L87.271,43.819L87.271,42.552L87.271,41.283L87.271,40.008L87.271,38.734L87.271,37.456L87.271,36.176L87.271,34.892L87.271,33.607L87.271,32.318L87.271,31.027L87.271,29.732L87.271,28.436L87.271,27.136L87.271,25.834L87.223,25.591L86.911,24.703L86.629,23.574L86.321,22.183L86.281,21.731L85.766,20.293L85.718,19.885L85.848,19.594L86.695,18.38L86.951,17.788L87.165,17.078L87.237,16.501L86.987,15.615L86.695,14.818L86.597,14.001L86.555,13.197L86.989,12.646L87.509,12.131L87.703,11.815L88.01,11.459L88.226,11.292L88.648,12.015L89.527,12.138L92.393,11.495L95.557,12.144L97.302,12.39L99.992,12.941L101.629,13.921L102.079,14.044L103.256,14.024L104.027,14.604L107.097,14.881L108.736,15.519L109.666,16.027L110.223,16.183L110.717,16.158L111.383,15.967L112.224,15.609L113.137,15.112L115.034,13.832L115.706,13.607L116.143,13.667L116.677,13.649L116.899,13.302L117.181,13.064L117.357,12.793L117.644,12.467L118.632,12.376L120.608,11.817L120.386,12.082L118.586,12.708L119.357,12.786L120.147,12.572L121.048,12.436L121.212,12.169L121.33,11.67L121.502,11.599L122.125,11.693L123.978,12.463L124.44,12.478L125.745,12.058L126.023,11.969L126.446,12.202L127.41,13.158L127.074,13.138L126.043,12.318L125.951,12.728L125.363,13.447L126.097,13.757L126.694,13.874L127.014,14.275L127.216,14.631L127.806,14.475L128.227,13.99L128.007,13.719L127.859,13.44L128.051,13.433L128.461,13.663L129.634,14.584L130.03,14.774L130.486,14.742L131.439,14.484L131.705,14.524L132.984,14.184L133.134,14.433L133.346,14.68L134.377,14.404L135.994,14.407L137.319,14.108L138.854,13.378L138.976,13.269Z" fill="#A1A28A" stroke="#DCDCDC" stroke-width="0.5" stroke-miterlimit="3.999327"/>
<path d="M147.89,4.822L147.594,4.858L146.903,5.14L146.809,5.225L146.687,5.388L146.665,5.514L146.567,6.864L146.191,6.826L145.733,6.532L145.643,6.278L145.505,6.191L145.178,6.158L144.558,6.029L143.839,6.474L143.533,7.207L143.471,7.551L143.227,8.27L143.313,8.713L143.355,9.284L143.417,9.751L143.353,10.032L143.215,10.181L143.255,10.288L143.379,10.328L143.773,10.201L144.186,10.328L144.584,10.57L144.616,10.726L144.334,10.819L143.669,11.183L143.199,11.606L143.077,11.997L142.759,12.828L142.803,12.999L142.957,13.099L144.04,13.01L145.026,12.674L145.767,12.316L146.001,12.338L145.845,13.253L145.849,13.257L145.721,13.816L145.771,13.91L145.939,14.397L145.621,15.285L145.27,16.007L145.146,16.349L144.802,17.109L144.45,17.99L144.262,18.596L144.304,18.811L144.218,19.92L144.268,20.234L143.857,21.194L143.775,21.668L143.609,22.309L143.325,23.663L142.937,24.117L142.745,23.613L142.302,22.164L141.988,21.169L141.558,19.943L140.835,18.447L140.769,18.086L140.613,17.563L140.115,16.198L139.707,15.21L139.242,13.947L139.819,13.446L139.829,13.032L140.813,12.062L140.805,11.968L140.543,11.71L140.581,11.666L141.67,9.856L142.374,8.059L143.035,5.548L143.507,4.268L143.907,3.418L144.082,2.714L144.726,2.665L145.206,2.739L145.781,2.763L146.241,2.498L146.461,1.705L146.723,1.576L146.857,1.765L146.992,1.556L147.594,1.205L147.892,0.98L148.19,0.702L148.35,0.603L148.25,0.975L148.17,1.218L148.17,1.536L148.292,1.71L148.457,2.055L148.559,2.4L148.344,2.685L148.363,2.983L148.422,3.233L148.597,3.526L148.282,4.052L147.97,4.535L147.89,4.822Z" fill="#4B91EC" stroke="#DCDCDC" stroke-width="0.5" stroke-miterlimit="3.999327"/>
<path d="M88.226,11.292L88.01,11.459L87.703,11.815L87.509,12.131L86.989,12.646L86.555,13.197L86.597,14.001L86.695,14.818L86.987,15.615L87.237,16.501L87.165,17.078L86.951,17.788L86.695,18.38L85.848,19.594L85.718,19.885L85.766,20.293L86.282,21.731L86.321,22.183L86.629,23.574L86.911,24.703L87.223,25.591L87.271,25.834L87.271,27.136L87.271,28.436L87.271,29.732L87.271,31.027L87.271,32.318L87.271,33.607L87.271,34.892L87.271,36.176L87.271,37.456L87.271,38.734L87.271,40.008L87.271,41.283L87.271,42.552L87.271,43.819L87.271,45.085L87.271,46.348L87.271,47.608L87.271,48.866L87.271,50.123L87.271,51.375L87.271,52.628L87.271,53.877L87.271,55.123L87.271,56.368L87.271,57.61L87.271,58.85L87.271,60.088L87.271,61.325L87.271,62.557L87.271,63.79L87.271,65.021L87.271,66.248L87.271,68.966L87.269,71.675L87.269,74.375L87.267,77.065L87.249,77.072L87.233,77.083L87.215,77.092L87.197,77.103L85.814,77.102L84.431,77.102L83.046,77.102L81.663,77.1L81.663,77.773L81.663,78.445L81.663,79.115L81.663,79.787L78.974,78.514L76.288,77.241L73.6,75.965L70.914,74.687L68.226,73.407L65.539,72.125L62.851,70.842L60.165,69.556L57.477,68.267L54.791,66.976L52.103,65.685L49.416,64.391L46.728,63.093L44.042,61.793L41.354,60.493L38.666,59.189L36.811,58.287L34.808,59.168L33.239,59.858L31.173,60.764L28.798,61.938L26.975,62.839L26.89,62.831L26.808,62.81L24.911,61.281L23.43,60.084L22.772,59.749L19.98,59.137L17.204,58.529L14.282,57.886L13.75,56.907L13.157,55.813L12.355,54.442L11.866,53.601L11.702,53.471L9.461,52.806L7.093,52.152L5.708,52.548L5.464,52.519L5.072,52.27L4.678,51.931L4.471,51.457L3.915,50.822L3.401,49.364L3.351,48.202L3.249,47.79L2.016,46.148L0.895,44.654L0.149,43.656L0.006,43.204L0.091,42.648L0.391,42.149L1.477,41.559L2.456,40.914L2.59,40.468L2.652,39.235L2.332,38.85L2.096,38.117L1.856,37.123L1.828,36.486L2.264,35.217L2.774,33.886L2.45,32.409L2.21,29.433L2.36,27.08L2.238,26.223L2.152,25.862L1.818,24.747L1.409,23.594L1.225,23.189L0.699,22.258L-0.172,21.101L-0.624,20.39L-0.004,20.014L0.545,19.72L1.215,19.409L2.164,19.057L2.656,18.792L2.866,18.569L3.579,17.657L3.951,17.153L4.459,16.461L4.68,15.978L4.686,15.531L4.608,14.99L4.213,13.694L3.889,12.43L4.141,11.942L4.343,11.71L4.784,11.114L4.96,10.994L5.914,10.809L6.293,10.413L6.585,9.916L6.659,9.654L7.075,9.38L7.572,9.106L7.878,8.75L8.882,8.198L9.797,7.695L10.862,7.165L11.686,6.755L11.86,6.396L11.848,6.085L11.4,5.377L11.4,4.538L11.43,3.841L11.474,3.429L11.672,2.28L11.684,2.118L12.539,2.501L13.417,2.654L16.033,4.075L16.858,4.253L18.689,4.422L20.846,3.841L21.661,3.736L23.08,4.282L23.706,4.437L24.757,4.478L26.554,4.972L27.011,5.145L28.059,5.933L28.56,6.169L32.28,6.889L32.788,7.367L33.305,8.276L33.327,9.406L33.613,10.223L34.075,11.281L34.632,12.029L35.25,12.652L35.959,13.04L37.59,13.614L39.429,13.834L41.284,13.908L44.468,14.698L47.168,15.608L47.833,16.056L49.187,16.495L51.875,18.627L53.372,19.362L54.421,19.504L55.362,19.375L57.035,18.638L57.727,18.198L59.41,16.357L59.963,15.395L60.183,14.714L60.129,14.023L59.919,13.4L59.448,12.746L59.118,11.882L58.924,10.323L59.188,9.239L59.51,8.589L60.017,7.924L61.414,6.652L62.819,5.753L65.296,4.576L66.733,4.564L67.328,4.433L68.511,3.6L68.991,3.569L69.655,3.772L71.605,3.714L72.465,3.946L73.49,4.466L74.785,4.787L75.699,5.108L76.672,5.52L76.892,6.546L76.784,6.851L76.76,7.249L77.769,7.953L80.637,8.284L81.203,8.473L81.992,9.012L82.5,9.177L84.465,9.253L85.61,9.139L86.701,9.328L87.105,9.509L87.523,9.93L88.028,10.951L88.226,11.292Z" fill="#4B91EC" stroke="#DCDCDC" stroke-width="0.5" stroke-miterlimit="3.999327"/>
<path d="M139.82,13.445L139.242,13.946L139.058,13.449L138.976,13.269L140.037,12.312L140.543,11.71L140.805,11.967L140.813,12.064L139.83,13.031L139.82,13.445ZM146.455,9.324L146.609,10.635L146.275,11.19L146.085,11.846L146.001,12.34L145.768,12.318L145.026,12.675L144.041,13.013L142.957,13.1L142.803,13L142.76,12.83L143.077,11.998L143.199,11.608L143.669,11.187L144.334,10.822L144.616,10.729L144.584,10.573L144.187,10.332L143.771,10.206L143.377,10.332L143.253,10.293L143.211,10.186L143.349,10.036L143.413,9.756L143.351,9.288L143.309,8.718L143.223,8.275L143.469,7.556L143.531,7.212L143.837,6.479L144.554,6.034L145.176,6.163L145.504,6.196L145.642,6.283L145.732,6.537L146.189,6.831L146.565,6.869L146.681,7.815L146.471,8.623L146.455,9.324Z" fill="#F7B329" stroke="#DCDCDC" stroke-width="0.5" stroke-miterlimit="3.999327"/>
</svg>
