<svg width="860" height="150" viewBox="0 0 860 150" fill="none" xmlns="http://www.w3.org/2000/svg" xmlns:xlink="http://www.w3.org/1999/xlink">
<mask id="mask_0_692_675" style="mask-type:alpha" maskUnits="userSpaceOnUse" x="0" y="0" width="430" height="75">
<rect  x="0" y="0" width="860" height="150" fill="url(#pattern_0_692_675)"/>
</mask>
<rect  x="46" y="42" width="222" height="84" fill="url(#pattern_0_692_676)"/>
<rect  x="548" y="52" width="190" height="74" fill="url(#pattern_0_692_594)"/>
<path d="M578.005,66.5C573.767,66.503 569.617,67.703 566.031,69.962L589.945,69.962C586.369,67.709 582.231,66.51 578.005,66.5L578.005,66.5Z" fill="#B22234"/>
<path d="M566.024,69.961C564.48,70.939 563.06,72.101 561.797,73.422L594.225,73.422C592.943,72.097 591.503,70.935 589.938,69.961L566.024,69.961Z" fill="#FFFFFF"/>
<path d="M561.801,73.424C560.779,74.486 559.865,75.645 559.07,76.885L596.958,76.885C596.164,75.645 595.25,74.486 594.229,73.424L561.801,73.424Z" fill="#B22234"/>
<path d="M559.067,76.885C558.356,77.983 557.743,79.141 557.234,80.346L598.744,80.346C598.249,79.143 597.65,77.985 596.955,76.885L559.067,76.885Z" fill="#FFFFFF"/>
<path d="M557.237,80.346C556.776,81.468 556.407,82.626 556.133,83.807L599.866,83.807C599.587,82.625 599.213,81.467 598.747,80.346L557.237,80.346Z" fill="#B22234"/>
<path d="M556.132,83.809C555.86,84.947 555.678,86.104 555.586,87.27L600.426,87.27C600.329,86.103 600.142,84.946 599.865,83.809L556.132,83.809Z" fill="#FFFFFF"/>
<path d="M555.587,87.27C555.536,87.845 555.507,88.422 555.5,89C555.502,89.578 555.527,90.155 555.573,90.731L600.413,90.731C600.464,90.155 600.493,89.578 600.5,89C600.498,88.423 600.473,87.845 600.427,87.27L555.587,87.27Z" fill="#B22234"/>
<path d="M555.578,90.73C555.675,91.897 555.862,93.055 556.139,94.192L599.872,94.192C600.144,93.054 600.327,91.897 600.418,90.73L555.578,90.73Z" fill="#FFFFFF"/>
<path d="M556.133,94.191C556.412,95.374 556.786,96.531 557.252,97.653L598.762,97.653C599.222,96.531 599.591,95.373 599.866,94.191L556.133,94.191Z" fill="#B22234"/>
<path d="M557.25,97.654C557.745,98.858 558.344,100.016 559.04,101.116L596.928,101.116C597.638,100.017 598.251,98.859 598.76,97.654L557.25,97.654Z" fill="#FFFFFF"/>
<path d="M559.047,101.115C559.841,102.356 560.755,103.515 561.776,104.577L594.205,104.577C595.226,103.515 596.14,102.356 596.935,101.115L559.047,101.115Z" fill="#B22234"/>
<path d="M561.773,104.576C563.055,105.901 564.495,107.064 566.06,108.038L589.974,108.038C591.519,107.06 592.938,105.897 594.202,104.576L561.773,104.576Z" fill="#FFFFFF"/>
<path d="M566.063,108.039C569.639,110.291 573.777,111.491 578.003,111.501C582.24,111.497 586.391,110.297 589.976,108.039L566.063,108.039Z" fill="#B22234"/>
<path d="M578,66.5C572.033,66.5 566.31,68.871 562.09,73.09C557.871,77.31 555.5,83.033 555.5,89C555.503,89.595 555.529,90.189 555.579,90.781L579.781,90.781L579.781,66.589C579.189,66.536 578.595,66.506 578,66.5L578,66.5Z" fill="#3C3B6E"/>
<path d="M569.944,68.017C569.644,68.126 569.347,68.242 569.052,68.364L569.381,68.614L569.158,69.332L569.747,68.893L570.353,69.353L570.126,68.61L570.732,68.158L569.987,68.158L569.944,68.017ZM573.761,67.402L573.527,68.157L572.785,68.157L573.385,68.614L573.163,69.332L573.752,68.893L574.358,69.353L574.13,68.61L574.736,68.157L573.992,68.157L573.761,67.402L573.761,67.402ZM577.765,67.402L577.532,68.157L576.789,68.157L577.39,68.614L577.168,69.332L577.757,68.893L578.363,69.353L578.135,68.61L578.741,68.157L577.997,68.157L577.765,67.402ZM564.155,71.295C564.049,71.373 563.944,71.453 563.84,71.534L564.346,71.919L564.155,71.295ZM567.753,69.968L567.52,70.723L566.778,70.723L567.378,71.18L567.156,71.898L567.745,71.458L568.351,71.919L568.123,71.176L568.729,70.723L567.985,70.723L567.753,69.968ZM571.758,69.968L571.524,70.723L570.782,70.723L571.383,71.18L571.161,71.898L571.75,71.458L572.356,71.919L572.128,71.176L572.734,70.723L571.989,70.723L571.758,69.968L571.758,69.968ZM575.763,69.968L575.529,70.723L574.787,70.723L575.388,71.18L575.165,71.898L575.754,71.458L576.36,71.919L576.133,71.176L576.739,70.723L575.994,70.723L575.763,69.968L575.763,69.968ZM561.959,73.228C561.737,73.463 561.52,73.703 561.309,73.947L561.149,74.464L561.738,74.024L562.344,74.485L562.116,73.741L562.722,73.289L561.977,73.289L561.959,73.228ZM565.751,72.534L565.517,73.289L564.775,73.289L565.376,73.745L565.154,74.464L565.742,74.024L566.349,74.485L566.121,73.741L566.727,73.289L565.982,73.289L565.751,72.534L565.751,72.534ZM569.756,72.534L569.522,73.289L568.78,73.289L569.381,73.745L569.158,74.464L569.747,74.024L570.353,74.485L570.126,73.741L570.732,73.289L569.987,73.289L569.756,72.534L569.756,72.534ZM573.761,72.534L573.527,73.289L572.785,73.289L573.385,73.745L573.163,74.464L573.752,74.024L574.358,74.485L574.13,73.741L574.736,73.289L573.992,73.289L573.761,72.534L573.761,72.534ZM577.765,72.534L577.532,73.289L576.789,73.289L577.39,73.745L577.168,74.464L577.757,74.024L578.363,74.485L578.135,73.741L578.741,73.289L577.997,73.289L577.765,72.534L577.765,72.534ZM559.914,75.654C559.707,75.93 559.506,76.211 559.311,76.497L559.146,77.029L559.735,76.59L560.341,77.05L560.114,76.307L560.72,75.854L559.975,75.854L559.914,75.654ZM563.749,75.099L563.515,75.854L562.773,75.854L563.373,76.311L563.151,77.029L563.74,76.59L564.346,77.05L564.118,76.307L564.725,75.854L563.98,75.854L563.749,75.099L563.749,75.099ZM567.753,75.099L567.52,75.854L566.778,75.854L567.378,76.311L567.156,77.029L567.745,76.59L568.351,77.05L568.123,76.307L568.729,75.854L567.985,75.854L567.753,75.099L567.753,75.099ZM571.758,75.099L571.524,75.854L570.782,75.854L571.383,76.311L571.161,77.029L571.75,76.59L572.356,77.05L572.128,76.307L572.734,75.854L571.989,75.854L571.758,75.099L571.758,75.099ZM575.763,75.099L575.529,75.854L574.787,75.854L575.388,76.311L575.165,77.029L575.754,76.59L576.36,77.05L576.133,76.307L576.739,75.854L575.994,75.854L575.763,75.099L575.763,75.099ZM558.159,78.42C558.024,78.672 557.895,78.927 557.77,79.184L558.339,79.616L558.111,78.873L558.717,78.42L558.159,78.42ZM561.746,77.665L561.513,78.42L560.77,78.42L561.371,78.877L561.149,79.595L561.738,79.155L562.344,79.616L562.116,78.873L562.722,78.42L561.978,78.42L561.746,77.665ZM565.751,77.665L565.517,78.42L564.775,78.42L565.376,78.877L565.154,79.595L565.742,79.155L566.349,79.616L566.121,78.873L566.727,78.42L565.982,78.42L565.751,77.665L565.751,77.665ZM569.756,77.665L569.522,78.42L568.78,78.42L569.381,78.877L569.158,79.595L569.747,79.155L570.353,79.616L570.126,78.873L570.732,78.42L569.987,78.42L569.756,77.665ZM573.761,77.665L573.527,78.42L572.785,78.42L573.385,78.877L573.163,79.595L573.752,79.155L574.358,79.616L574.13,78.873L574.736,78.42L573.992,78.42L573.761,77.665L573.761,77.665ZM577.765,77.665L577.532,78.42L576.789,78.42L577.39,78.877L577.168,79.595L577.757,79.155L578.363,79.616L578.135,78.873L578.741,78.42L577.997,78.42L577.765,77.665ZM559.744,80.23L559.51,80.986L558.768,80.986L559.369,81.442L559.146,82.16L559.735,81.721L560.341,82.181L560.114,81.438L560.72,80.986L559.975,80.986L559.744,80.23L559.744,80.23ZM563.749,80.23L563.515,80.986L562.773,80.986L563.373,81.442L563.151,82.16L563.74,81.721L564.346,82.181L564.118,81.438L564.725,80.986L563.98,80.986L563.749,80.23ZM567.753,80.23L567.52,80.986L566.778,80.986L567.378,81.442L567.156,82.16L567.745,81.721L568.351,82.181L568.123,81.438L568.729,80.986L567.985,80.986L567.753,80.23ZM571.758,80.23L571.524,80.986L570.782,80.986L571.383,81.442L571.161,82.16L571.75,81.721L572.356,82.181L572.128,81.438L572.734,80.986L571.989,80.986L571.758,80.23L571.758,80.23ZM575.763,80.23L575.529,80.986L574.787,80.986L575.388,81.442L575.165,82.16L575.754,81.721L576.36,82.181L576.133,81.438L576.739,80.986L575.994,80.986L575.763,80.23L575.763,80.23ZM557.742,82.796L557.508,83.551L556.766,83.551L557.366,84.008L557.144,84.726L557.733,84.286L558.339,84.747L558.111,84.004L558.717,83.551L557.973,83.551L557.742,82.796ZM561.746,82.796L561.513,83.551L560.77,83.551L561.371,84.008L561.149,84.726L561.738,84.286L562.344,84.747L562.116,84.004L562.722,83.551L561.978,83.551L561.746,82.796ZM565.751,82.796L565.517,83.551L564.775,83.551L565.376,84.008L565.154,84.726L565.742,84.286L566.349,84.747L566.121,84.004L566.727,83.551L565.982,83.551L565.751,82.796L565.751,82.796ZM569.756,82.796L569.522,83.551L568.78,83.551L569.381,84.008L569.158,84.726L569.747,84.286L570.353,84.747L570.126,84.004L570.732,83.551L569.987,83.551L569.756,82.796ZM573.761,82.796L573.527,83.551L572.785,83.551L573.385,84.008L573.163,84.726L573.752,84.286L574.358,84.747L574.13,84.004L574.736,83.551L573.992,83.551L573.761,82.796L573.761,82.796ZM577.765,82.796L577.532,83.551L576.789,83.551L577.39,84.008L577.168,84.726L577.757,84.286L578.363,84.747L578.135,84.004L578.741,83.551L577.997,83.551L577.765,82.796ZM559.744,85.362L559.51,86.117L558.768,86.117L559.369,86.573L559.146,87.292L559.735,86.852L560.341,87.313L560.114,86.57L560.72,86.117L559.975,86.117L559.744,85.362L559.744,85.362ZM563.749,85.362L563.515,86.117L562.773,86.117L563.373,86.573L563.151,87.292L563.74,86.852L564.346,87.313L564.118,86.57L564.725,86.117L563.98,86.117L563.749,85.362ZM567.753,85.362L567.52,86.117L566.778,86.117L567.378,86.573L567.156,87.292L567.745,86.852L568.351,87.313L568.123,86.57L568.729,86.117L567.985,86.117L567.753,85.362ZM571.758,85.362L571.524,86.117L570.782,86.117L571.383,86.573L571.161,87.292L571.75,86.852L572.356,87.313L572.128,86.57L572.734,86.117L571.989,86.117L571.758,85.362L571.758,85.362ZM575.763,85.362L575.529,86.117L574.787,86.117L575.388,86.573L575.165,87.292L575.754,86.852L576.36,87.313L576.133,86.57L576.739,86.117L575.994,86.117L575.763,85.362L575.763,85.362ZM557.742,87.927L557.508,88.683L556.766,88.683L557.366,89.139L557.144,89.857L557.733,89.418L558.339,89.878L558.111,89.135L558.717,88.683L557.973,88.683L557.742,87.927L557.742,87.927ZM561.746,87.927L561.513,88.683L560.77,88.683L561.371,89.139L561.149,89.857L561.738,89.418L562.344,89.878L562.116,89.135L562.722,88.683L561.978,88.683L561.746,87.927L561.746,87.927ZM565.751,87.927L565.517,88.683L564.775,88.683L565.376,89.139L565.154,89.857L565.742,89.418L566.349,89.878L566.121,89.135L566.727,88.683L565.982,88.683L565.751,87.927L565.751,87.927ZM569.756,87.927L569.522,88.683L568.78,88.683L569.381,89.139L569.158,89.857L569.747,89.418L570.353,89.878L570.126,89.135L570.732,88.683L569.987,88.683L569.756,87.927L569.756,87.927ZM573.761,87.927L573.527,88.683L572.785,88.683L573.385,89.139L573.163,89.857L573.752,89.418L574.358,89.878L574.13,89.135L574.736,88.683L573.992,88.683L573.761,87.927L573.761,87.927ZM577.765,87.927L577.532,88.683L576.789,88.683L577.39,89.139L577.168,89.857L577.757,89.418L578.363,89.878L578.135,89.135L578.741,88.683L577.997,88.683L577.765,87.927L577.765,87.927Z" fill="#FFFFFF"/>
<path d="M635.016,82.16L635.016,86.36L640.656,86.36L640.656,89.024L635.016,89.024L635.016,93.464L641.376,93.464L641.376,96.2L631.656,96.2L631.656,79.424L641.376,79.424L641.376,82.16L635.016,82.16ZM655.632,84.212Q657.096,85.712 657.096,88.4L657.096,96.2L653.736,96.2L653.736,88.856Q653.736,87.272 652.944,86.42Q652.152,85.568 650.784,85.568Q649.392,85.568 648.588,86.42Q647.784,87.272 647.784,88.856L647.784,96.2L644.424,96.2L644.424,82.904L647.784,82.904L647.784,84.56Q648.456,83.696 649.5,83.204Q650.544,82.712 651.792,82.712Q654.168,82.712 655.632,84.212ZM668.112,83.276Q669.24,83.864 669.888,84.8L669.888,82.904L673.272,82.904L673.272,96.296Q673.272,98.144 672.528,99.596Q671.784,101.048 670.296,101.9Q668.808,102.752 666.696,102.752Q663.864,102.752 662.052,101.432Q660.24,100.112 660,97.832L663.336,97.832Q663.6,98.744 664.476,99.284Q665.352,99.824 666.6,99.824Q668.064,99.824 668.976,98.948Q669.888,98.072 669.888,96.296L669.888,94.232Q669.24,95.168 668.1,95.792Q666.96,96.416 665.496,96.416Q663.816,96.416 662.424,95.552Q661.032,94.688 660.228,93.116Q659.424,91.544 659.424,89.504Q659.424,87.488 660.228,85.928Q661.032,84.368 662.412,83.528Q663.792,82.688 665.496,82.688Q666.984,82.688 668.112,83.276M669.408,87.452Q668.928,86.576 668.112,86.108Q667.296,85.64 666.36,85.64Q665.424,85.64 664.632,86.096Q663.84,86.552 663.348,87.428Q662.856,88.304 662.856,89.504Q662.856,90.704 663.348,91.604Q663.84,92.504 664.644,92.984Q665.448,93.464 666.36,93.464Q667.296,93.464 668.112,92.996Q668.928,92.528 669.408,91.652Q669.888,90.776 669.888,89.552Q669.888,88.328 669.408,87.452Z" fill="#1C75BC"/>
<path d="M696,95C695.737,95.002 695.476,94.951 695.233,94.852C694.989,94.752 694.767,94.606 694.58,94.42L686.58,86.42C686.204,86.044 685.992,85.533 685.992,85C685.992,84.468 686.204,83.957 686.58,83.58C686.957,83.204 687.468,82.992 688,82.992C688.533,82.992 689.044,83.204 689.42,83.58L696,90.18L702.58,83.6C702.963,83.273 703.455,83.102 703.958,83.121C704.462,83.14 704.939,83.349 705.295,83.705C705.652,84.061 705.86,84.539 705.88,85.042C705.899,85.546 705.728,86.038 705.4,86.42L697.4,94.42C697.028,94.79 696.525,94.998 696,95Z" fill="#1C75BC" stroke="#1C75BC" stroke-width="1" stroke-miterlimit="3.999327"/>
</svg>
