<svg width="1956" height="122" viewBox="0 0 1956 122" fill="none" xmlns="http://www.w3.org/2000/svg" xmlns:xlink="http://www.w3.org/1999/xlink">
<path d="M1130.089,42.302L1129.399,43.195L1128.572,44.266L1127.047,46.236L1125.888,47.273L1125.012,48.057L1124.93,48.199L1124.934,49.072L1124.944,51.207L1124.962,55.476L1124.98,59.742L1124.998,64.009L1125.006,66.142L1125.01,66.859L1125.78,67.756L1126.531,68.633L1127.525,69.791L1128.058,70.412L1128.146,70.619L1128.118,71.035L1127.301,71.904L1126.631,72.3L1125.73,72.489L1125.46,72.453L1125.106,72.329L1124.968,72.538L1124.864,72.863L1124.665,72.794L1124.515,72.698L1124.605,73.275L1124.697,73.56L1124.559,73.941L1124.121,74.277L1124.081,74.562L1123.134,75.307L1121.788,75.388L1121.081,75.759L1120.767,76.062L1120.527,76.725L1120.611,77.74L1120.236,78.52L1120.166,78.912L1119.47,79.419L1119.162,79.884L1118.934,80.357L1118.737,80.564L1118.501,81.625L1118.177,82.269L1118.089,82.483L1118.009,82.676L1117.759,83.054L1117.595,83.315L1117.477,83.486L1116.658,85.138L1116.018,85.884L1115.517,85.799L1115.183,86.087L1115.147,86.223L1114.969,86.147L1114.551,85.873L1113.69,85.312L1112.829,84.751L1111.967,84.19L1111.106,83.629L1110.244,83.068L1109.383,82.507L1108.521,81.946L1107.66,81.385L1107.154,81.056L1106.932,80.862L1106.757,80.475L1106.673,80.379L1106.443,80.258L1106.173,80.23L1106.095,80.156L1106.097,79.969L1106.189,79.7L1106.507,79.186L1106.541,78.883L1106.479,78.54L1106.381,77.99L1106.295,77.865L1105.723,77.576L1104.528,76.973L1103.333,76.371L1102.138,75.768L1100.941,75.165L1099.745,74.562L1098.55,73.96L1097.355,73.357L1096.16,72.754L1094.962,72.151L1093.767,71.549L1092.57,70.946L1091.375,70.343L1090.18,69.74L1088.985,69.137L1087.789,68.535L1086.592,67.932L1086.142,67.705L1085.739,67.514L1085.311,67.514L1085.293,66.652L1085.429,64.457L1085.413,62.529L1085.535,61.563L1086.062,60.951L1086.306,60.506L1086.48,59.886L1086.756,59.379L1087.382,58.967L1087.494,58.74L1088.157,58.052L1088.555,57.168L1088.855,56.866L1089.23,56.589L1089.494,56.441L1089.93,56.294L1090.272,56.211L1090.334,56.14L1090.364,55.997L1090.25,55.448L1090.396,55.269L1090.627,54.902L1090.893,54.561L1091.133,54.343L1091.267,54.119L1091.329,53.734L1091.339,53.46L1091.337,53.014L1091.261,51.999L1090.979,51.149L1090.805,50.198L1090.933,49.886L1090.711,49.328L1090.601,49.297L1090.422,49.176L1090.19,48.649L1090.016,48.17L1089.908,48.05L1089.156,47.631L1088.783,46.641L1088.363,46.422L1088.135,45.437L1088.091,45.158L1088.329,44.176L1088.305,43.951L1088.053,43.744L1087.348,43.531L1086.776,43.126L1086.85,42.985L1086.892,42.838L1086.59,42.74L1085.715,41.06L1086.84,40.051L1087.981,39.029L1089.438,37.734L1090.775,36.545L1091.931,35.517L1092.962,34.601L1092.936,34.775L1092.94,35.007L1093.068,35.149L1093.28,35.247L1093.573,35.143L1093.831,35L1094.083,34.969L1095.632,35.35L1095.892,35.683L1095.874,36.04L1095.942,36.3L1095.822,36.561L1095.694,37.349L1095.734,38.072L1096.196,38.607L1096.611,39.027L1096.941,39.617L1097.185,39.798L1097.521,39.893L1098.586,39.918L1100.163,39.956L1101.68,39.993L1101.818,40.007L1102.14,40.087L1103.537,40.882L1104.816,41.612L1105.899,42.246L1106.95,42.861L1107.972,43.46L1108.763,43.956L1109.545,44.107L1110.814,44.179L1111.691,44.205L1112.503,44.414L1113.71,44.608L1114.609,44.708L1115.153,44.82L1116.662,44.935L1116.912,44.867L1117.577,44.317L1118.323,43.422L1118.615,42.93L1119.578,42.44L1121.271,41.757L1122.464,41.274L1123.791,40.79L1124.395,41.209L1125.226,41.883L1125.598,42.215L1125.896,42.362L1126.347,42.46L1126.897,42.462L1127.197,42.447L1127.81,42.36L1129.245,42.28L1130.089,42.302ZM1125.098,73.377L1124.89,73.42L1124.998,73.13L1125.614,72.758L1125.864,72.841L1125.912,72.925L1125.898,73.003L1125.794,73.079L1125.098,73.377Z" fill="#4B91EC" stroke="#DCDCDC" stroke-width="0.5" stroke-miterlimit="3.999327"/>
<path d="M1951.379,76.456L1951.563,76.552L1951.703,76.683L1951.771,76.864L1951.771,76.91L1951.663,76.908L1951.533,76.852L1951.439,76.775L1951.391,76.755L1951.371,76.739L1951.483,76.75L1951.611,76.826L1951.707,76.861L1951.707,76.772L1951.591,76.617L1951.523,76.565L1951.435,76.519L1951.335,76.489L1951.267,76.516L1951.229,76.528L1951.209,76.492L1951.229,76.459L1951.265,76.427L1951.385,76.456L1951.379,76.456ZM1954.815,78.328L1954.789,78.366L1954.749,78.333L1954.777,78.273L1954.801,78.222L1954.839,78.25L1954.815,78.328ZM1953.983,85.063L1953.929,85.087L1953.865,85.08L1953.823,85.045L1953.823,84.991L1953.875,84.953L1953.949,84.965L1953.991,85.014L1953.991,85.063L1953.983,85.063ZM1948.479,85.305L1948.515,85.339L1948.597,85.33L1948.669,85.325L1948.625,85.359L1948.477,85.374L1948.405,85.287L1948.495,85.219L1948.575,85.209L1948.575,85.227L1948.575,85.247L1948.537,85.247L1948.477,85.263L1948.477,85.305L1948.479,85.305ZM1935.587,86.138L1935.653,86.205L1935.653,86.238L1935.621,86.232L1935.525,86.213L1935.493,86.173L1935.563,86.2L1935.593,86.194L1935.529,86.134L1935.473,86.091L1935.431,86.073L1935.431,86.051L1935.483,86.062L1935.587,86.138ZM1.388,42.576L1.836,43.005L1.75,43.221L1.426,43.201L1.278,43.124L1.53,43.086L1.572,43.006L1.456,42.881L1.302,42.794L1.196,42.794L1.17,42.967L0.997,42.832L1.099,42.698L1.222,42.609L1.388,42.576ZM1865.375,46.605L1865.019,46.774L1864.911,46.746L1865.333,46.507L1865.331,46.536L1865.375,46.605ZM1864.671,46.999L1864.255,47.195L1864.143,47.09L1864.293,47.086L1864.573,46.897L1864.911,46.883L1864.871,46.988L1864.671,46.999ZM12.589,53.057L13.522,53.644L13.126,53.685L12.151,53.402L11.26,52.823L11.526,52.698L11.655,52.907L12.061,53.101L12.301,52.692L12.459,52.6L11.747,52.179L12.029,52.2L12.703,52.487L12.589,53.057ZM1865.649,53.106L1865.677,53.222L1865.357,52.905L1865.167,52.7L1865.179,52.611L1865.265,52.667L1865.371,52.767L1865.441,52.847L1865.649,53.106ZM1865.711,53.756L1865.507,53.778L1865.659,53.705L1865.701,53.606L1865.677,53.291L1865.757,53.317L1865.785,53.446L1865.799,53.635L1865.711,53.756ZM1865.759,55.657L1865.609,55.675L1865.707,55.572L1866.349,55.457L1866.405,55.425L1866.509,55.488L1866.507,55.548L1866.461,55.579L1866.143,55.581L1865.893,55.635L1865.759,55.657ZM1865.727,57.322L1866.029,57.522L1865.989,57.66L1865.887,57.818L1865.493,58.221L1865.373,58.183L1865.757,57.818L1865.905,57.576L1865.685,57.391L1865.597,57.431L1865.561,57.431L1865.485,57.258L1865.561,57.258L1865.727,57.322ZM1874.007,66.509L1873.825,66.647L1873.755,66.521L1873.845,66.367L1873.693,65.726L1873.441,65.639L1873.291,65.446L1873.363,65.446L1873.615,65.623L1873.817,65.702L1873.935,66.124L1874.007,66.509ZM1846.199,66.872L1846.147,66.883L1846.041,66.83L1846.055,66.765L1846.129,66.736L1846.223,66.784L1846.199,66.872ZM1875.491,68.584L1875.523,68.845L1875.397,68.811L1875.355,68.709L1875.313,68.446L1875.179,68.188L1875.331,68.257L1875.457,68.458L1875.491,68.584ZM25.972,83.157L25.956,83.188L25.888,83.148L25.756,83.073L25.644,82.992L25.642,82.957L25.8,82.908L26.002,82.87L26.046,82.923L26.008,82.997L25.972,83.157ZM20.881,90.973L20.751,91L20.599,91L20.523,90.933L20.519,90.878L20.571,90.878L20.619,90.888L20.835,90.897L20.891,90.937L20.881,90.973ZM43.774,120.748L43.728,120.829L43.64,120.8L43.588,120.697L43.57,120.584L43.604,120.493L43.662,120.497L43.728,120.61L43.774,120.748Z" fill="#F7B329" stroke="#DCDCDC" stroke-width="0.5" stroke-miterlimit="3.999327"/>
<path d="M1128.118,71.031L1128.144,70.616L1128.056,70.409L1127.525,69.786L1126.532,68.628L1125.78,67.751L1125.011,66.856L1125.007,66.139L1124.999,64.005L1124.979,59.741L1124.963,55.474L1124.943,51.208L1124.933,49.073L1124.931,48.199L1125.011,48.058L1125.888,47.275L1127.047,46.237L1128.57,44.267L1129.398,43.194L1130.089,42.302L1130.263,42.03L1130.875,41.489L1132.02,41.166L1132.731,41.111L1135.18,40.707L1135.544,40.543L1135.757,40.356L1135.961,39.929L1136.437,39.33L1137.053,38.916L1138.222,38.379L1139.367,37.923L1139.621,37.849L1141,37.562L1141.338,37.464L1141.895,37.364L1142.115,37.36L1144.03,37.46L1145.529,37.54L1147.07,37.62L1147.234,37.558L1148.311,36.494L1150.026,34.797L1151.121,33.715L1152.812,32.041L1154.111,30.832L1155.548,29.496L1156.945,28.272L1158.622,26.8L1159.681,25.872L1161.324,24.43L1162.889,23.056L1164.272,21.841L1162.363,21.841L1160.499,21.841L1158.662,21.841L1158.334,21.694L1156.791,21.222L1154.837,20.625L1152.41,19.884L1150.681,19.358L1148.838,18.804L1146.97,18.245L1145.503,17.805L1143.674,17.257L1142.085,16.78L1141.867,16.663L1140.986,15.935L1139.829,14.979L1139.607,14.962L1139.055,14.762L1138.559,14.245L1138.048,13.584L1137.574,12.756L1137.368,12.193L1136.735,11.956L1136.431,11.511L1135.857,10.852L1135.46,10.532L1135.318,10.253L1135.134,9.675L1134.806,9.045L1134.492,8.657L1134.42,8.488L1134.438,8.379L1135.02,7.526L1135.282,7.221L1135.58,6.927L1135.821,6.633L1135.915,6.431L1136.621,5.425L1137.242,4.539L1137.728,3.847L1138.823,4.639L1139.889,6.244L1141.13,7.54L1142.845,8.742L1143.524,9.149L1144.126,9.363L1147.246,9.33L1149.46,8.234L1151.471,7.439L1152.146,7.273L1153.313,7.491L1154.601,7.557L1155.758,7.798L1156.346,7.736L1158.636,6.812L1160.075,5.912L1161.056,5.529L1161.442,5.525L1162.781,5.85L1164.502,5.708L1166.856,4.931L1167.606,4.773L1168.178,4.763L1169.459,5.113L1169.658,5.095L1170.352,5.029L1172.181,4.659L1173.606,4.1L1176.23,3.695L1178.227,2.671L1178.577,2.175L1179.18,1.551L1180.056,1.346L1182.294,2.079L1182.652,2.137L1182.522,2.58L1182.444,3.032L1181.986,3.82L1181.692,4.695L1181.908,6.032L1182.012,8.196L1181.958,8.51L1181.81,8.818L1181.748,9.063L1181.507,9.149L1181.401,9.289L1181.576,9.343L1182.276,9.109L1182.264,8.849L1182.304,8.722L1182.88,9.011L1183.291,9.131L1183.411,9.403L1183.379,9.588L1182.726,9.503L1182.392,9.359L1181.423,9.595L1180.829,9.85L1180.651,10.274L1180.513,11.967L1180.283,13.063L1180.239,14.514L1179.454,15.472L1179.19,16.148L1178.023,17.502L1177.415,18.657L1177.215,19.221L1176.19,20.805L1174.781,22.017L1174.273,23.566L1173.77,24.537L1173.2,25.416L1171.957,26.981L1171.321,28.067L1170.524,29.951L1170.278,31.142L1168.034,34.599L1165.705,37.351L1164.256,39.666L1161.654,42.35L1158.106,45.812L1153.461,49.919L1152.202,50.756L1147.12,53.288L1143.824,55.409L1142.141,56.852L1140.374,58.108L1138.971,59.305L1134.732,63.339L1134.296,63.718L1133.885,64.076L1133.351,64.761L1132.979,65.031L1131.968,66.186L1131.334,66.783L1130.627,67.375L1130.325,67.792L1130.113,68.274L1129.875,68.54L1129.238,69.688L1128.674,70.439L1128.118,71.031Z" fill="#7699BB" stroke="#DCDCDC" stroke-width="0.5" stroke-miterlimit="3.999327"/>
<path d="M1085.637,12.371L1085.275,13.027L1085.159,13.493L1085.123,13.885L1085.145,14.112L1085.185,14.258L1085.203,14.292L1085.219,14.316L1085.235,14.332L1085.253,14.337L1086.296,14.341L1086.302,14.341L1086.296,14.55L1086.338,15.588L1086.374,16.496L1086.434,17.979L1086.436,18.366L1086.396,18.847L1086.272,19.038L1085.976,19.31L1085.603,19.559L1084.659,19.622L1083.872,19.613L1083.314,19.559L1082.551,19.537L1081.833,19.59L1081.569,19.8L1081.182,20.543L1080.622,21.619L1080.326,22.075L1080.25,22.34L1080.338,22.498L1080.708,22.727L1081.523,23.05L1082.457,23.239L1083.152,23.321L1083.626,23.41L1083.992,23.508L1085.317,24.332L1085.74,24.715L1085.978,25.054L1086.034,25.416L1086.224,25.781L1086.99,26.501L1087.431,26.917L1088.581,27.451L1089.022,28.056L1089.448,28.348L1089.852,28.664L1090.068,29.134L1090.565,30.497L1090.901,31.213L1091.245,31.797L1091.381,32.747L1091.653,33.172L1091.932,33.689L1092.396,34.158L1092.89,34.513L1092.98,34.61L1091.948,35.526L1090.791,36.554L1089.454,37.745L1087.997,39.038L1086.856,40.062L1085.731,41.071L1084.415,42.264L1083.444,43.144L1083.282,43.268L1083,43.431L1082.075,43.435L1081.12,43.331L1080.24,42.796L1079.347,43.212L1078.781,43.342L1078.443,43.39L1077.646,43.457L1076.529,43.68L1076.023,43.958L1075.749,44.177L1075.523,44.582L1075.41,44.624L1075.204,44.577L1074.918,44.413L1074.32,44.179L1074.018,43.664L1073.743,43.353L1073.513,43.19L1072.565,43.704L1072.106,43.823L1071.73,43.809L1071.042,43.52L1070.283,43.273L1069.891,43.275L1069.306,43.584L1068.64,44.045L1068.298,44.501L1068.132,44.771L1068.01,44.555L1067.898,44.354L1067.675,44.096L1067.353,43.994L1067.061,44.045L1066.719,44.096L1066.565,43.949L1066.533,43.595L1066.44,43.268L1066.28,43.023L1065.788,42.778L1064.521,42.28L1063.548,41.287L1063.058,40.826L1062.7,40.528L1062.192,39.748L1061.615,39.21L1060.915,38.96L1060.454,39.083L1059.978,39.659L1059.08,40.2L1058.669,40.218L1058.141,39.926L1057.478,39.717L1056.288,39.626L1055.797,39.882L1055.153,40.296L1054.607,40.543L1054.27,40.572L1053.954,40.472L1053.596,40.419L1053.286,40.41L1052.651,40.033L1052.321,39.755L1052.101,39.488L1051.741,39.306L1051.322,39.154L1051.022,38.916L1050.872,38.618L1050.634,38.237L1050.326,37.894L1049.355,37.277L1049.065,36.912L1048.861,36.556L1048.466,36.164L1048.04,35.639L1047.904,34.871L1047.886,34.252L1047.796,33.965L1047.616,33.678L1047.406,33.435L1047.069,33.163L1046.277,32.765L1045.458,32.304L1045.066,32.035L1044.32,31.937L1043.875,31.674L1043.501,31.095L1043.351,30.632L1042.973,30.27L1042.811,30.009L1042.721,29.708L1043.021,28.791L1042.588,28.466L1041.942,28.045L1041.478,27.584L1041.196,27.16L1040.367,26.601L1038.56,25.764L1037.517,25.231L1036.947,24.751L1036.45,24.281L1036.4,24.089L1036.721,23.62L1036.77,23.233L1036.506,22.809L1035.422,22.006L1034.559,21.124L1033.905,20.848L1032.331,20.603L1031.879,20.505L1031.407,20.336L1030.941,19.938L1030.784,19.468L1031.011,18.715L1030.865,18.484L1030.6,18.421L1030.672,18.264L1030.969,17.898L1031.455,17.66L1032.756,17.288L1032.828,17.144L1032.854,16.674L1032.96,16.443L1033.408,15.79L1033.472,15.53L1033.492,14.975L1033.552,14.711L1033.682,14.524L1034.037,14.201L1034.161,14.003L1034.215,13.577L1034.177,12.734L1034.359,12.4L1035.179,11.634L1035.398,11.291L1035.472,10.984L1035.464,10.672L1035.514,10.363L1035.758,10.065L1035.966,9.973L1036.57,9.878L1036.981,9.938L1039.859,9.414L1040.197,9.485L1040.347,9.795L1040.333,10.292L1040.383,10.534L1040.537,10.705L1040.995,10.941L1041.31,11.336L1041.48,11.482L1041.942,11.752L1044.083,14.011L1044.686,14.225L1045.272,14.147L1046.435,13.678L1047.017,13.56L1051.086,13.693L1051.542,13.622L1051.57,13.633L1052.189,14.766L1052.483,15.024L1056.946,15.036L1056.862,14.713L1056.918,14.354L1057.44,13.891L1057.703,13.66L1057.703,13.662L1057.815,13.579L1058.505,13.246L1059.178,13.025L1060.474,12.765L1060.945,12.355L1061.207,11.981L1061.215,11.242L1061.387,11.12L1061.695,10.95L1063.192,10.289L1063.446,10.149L1066.092,11.683L1067.575,12.898L1067.665,12.958L1067.743,12.979L1067.821,12.938L1067.887,12.881L1067.994,12.845L1068.066,12.829L1068.702,12.812L1069.903,12.752L1070.299,12.607L1072.711,10.438L1073.325,9.746L1073.479,9.604L1073.829,9.112L1074.196,8.263L1074.27,8.166L1076.915,6.129L1077.006,5.968L1077.032,5.839L1076.633,5.153L1076.547,4.804L1076.531,4.267L1076.609,3.432L1076.581,2.903L1076.571,2.841L1076.545,2.76L1076.527,2.729L1075.052,1.226L1078.779,1.211L1078.787,1.086L1078.783,1.02L1078.773,0.961L1078.703,0.781L1078.661,0.539L1078.659,0.474L1078.665,0.407L1078.685,0.283L1078.687,0.216L1078.683,0.184L1078.677,0.155L1078.679,0.127L1078.695,0.105L1081.373,0.136L1081.337,0.563L1081.014,1.563L1081.02,2.162L1080.942,2.849L1080.924,2.903L1080.85,3.052L1080.786,3.136L1080.712,3.217L1080.692,3.248L1080.668,3.299L1080.666,3.373L1081.222,7.201L1081.2,7.297L1081.18,7.359L1081.032,7.598L1080.994,7.676L1080.986,7.736L1081.046,7.778L1082.279,8.192L1082.339,8.217L1082.387,8.25L1082.83,8.742L1085.259,10.552L1085.343,10.643L1085.595,11.211L1085.623,11.298L1085.631,11.433L1085.625,11.538L1085.563,11.879L1085.583,12.032L1085.625,12.133L1085.659,12.251L1085.659,12.286L1085.655,12.317L1085.637,12.371Z" fill="#4B91EC" stroke="#DCDCDC" stroke-width="0.5" stroke-miterlimit="3.999327"/>
<path d="M1085.323,67.522L1084.71,67.522L1083.712,67.522L1082.715,67.522L1081.718,67.522L1080.72,67.522L1079.725,67.522L1078.728,67.522L1077.73,67.522L1076.733,67.522L1075.736,67.522L1074.738,67.522L1073.741,67.522L1072.744,67.522L1071.748,67.522L1070.751,67.522L1069.754,67.522L1068.756,67.522L1068.167,67.522L1068.049,67.507L1067.967,67.485L1067.591,67.549L1067.201,67.772L1066.788,67.863L1066.344,67.829L1066.288,67.852L1066.064,67.847L1065.74,67.83L1065.449,67.888L1065.227,68.083L1064.999,68.417L1064.589,68.798L1064.269,69.138L1063.998,69.377L1063.376,69.775L1063.036,69.891L1062.868,69.873L1062.764,69.798L1062.569,69.292L1062.449,69.21L1061.239,69.472L1061.056,69.475L1061.072,69.317L1060.982,68.126L1060.972,67.396L1061.13,66.941L1061.222,66.414L1061.231,65.949L1061.453,65.16L1061.371,64.686L1061.657,63.025L1061.733,62.754L1061.845,61.952L1062.023,61.705L1062.183,61.609L1062.389,61.117L1062.786,60.329L1063.06,59.924L1063,59.04L1063.046,58.437L1063.108,58.304L1063.694,58.079L1064.453,57.524L1064.775,56.868L1065.229,56.451L1066.108,56.18L1066.11,56.178L1068.716,53.933L1069.928,52.722L1070.455,52.101L1070.473,51.877L1070.575,51.585L1070.363,51.356L1070.112,51.149L1070.026,50.957L1069.81,50.862L1069.498,50.866L1069.292,50.726L1069.058,50.454L1068.824,50.283L1068.085,50.298L1067.515,50.018L1067.523,49.639L1067.745,48.891L1068.177,48.034L1068.201,47.798L1068.139,47.596L1068.035,47.424L1067.841,47.253L1067.657,47.048L1067.799,46.431L1068.071,45.828L1068.295,45.525L1068.512,45.187L1068.451,44.909L1068.133,44.771L1068.299,44.501L1068.64,44.045L1069.306,43.584L1069.892,43.275L1070.283,43.274L1071.043,43.52L1071.73,43.809L1072.106,43.824L1072.566,43.704L1073.513,43.19L1073.743,43.353L1074.019,43.664L1074.321,44.179L1074.918,44.414L1075.204,44.577L1075.41,44.624L1075.524,44.583L1075.75,44.178L1076.023,43.958L1076.529,43.68L1077.646,43.457L1078.444,43.39L1078.782,43.343L1079.347,43.212L1080.241,42.796L1081.12,43.332L1082.075,43.435L1083.001,43.432L1083.283,43.268L1083.444,43.145L1084.416,42.264L1085.731,41.071L1086.606,42.751L1086.908,42.851L1086.864,42.996L1086.79,43.137L1087.364,43.542L1088.069,43.755L1088.321,43.962L1088.343,44.185L1088.105,45.167L1088.149,45.447L1088.377,46.431L1088.797,46.65L1089.169,47.642L1089.922,48.061L1090.03,48.181L1090.204,48.66L1090.434,49.187L1090.614,49.308L1090.724,49.339L1090.945,49.895L1090.817,50.209L1090.991,51.16L1091.273,52.01L1091.349,53.025L1091.351,53.471L1091.341,53.746L1091.279,54.13L1091.145,54.354L1090.905,54.572L1090.638,54.913L1090.406,55.28L1090.26,55.459L1090.374,56.008L1090.344,56.151L1090.284,56.22L1089.942,56.304L1089.506,56.451L1089.242,56.596L1088.867,56.876L1088.567,57.175L1088.169,58.059L1087.506,58.749L1087.394,58.976L1086.768,59.386L1086.492,59.893L1086.316,60.514L1086.075,60.959L1085.545,61.57L1085.425,62.536L1085.441,64.463L1085.303,66.659L1085.323,67.522Z" fill="#A1A28A" stroke="#DCDCDC" stroke-width="0.5" stroke-miterlimit="3.999327"/>
</svg>
