<svg width="76" height="60" viewBox="0 0 76 60" fill="none" xmlns="http://www.w3.org/2000/svg" xmlns:xlink="http://www.w3.org/1999/xlink">
<path d="M70.358,5.507L70.053,5.558L70.089,5.353L70.624,4.999L71.444,4.759L71.652,4.75L71.534,5.068L70.358,5.507ZM68.923,10.886L68.014,11.175L65.644,11.244L64.662,11.139L63.909,11.221L65.282,10.591L65.444,10.325L66.027,10.276L66.193,10.197L66.387,8.804L66.311,8.472L66.195,8.288L65.959,8.156L65.43,7.976L65.342,7.88L65.676,7.726L66.387,7.64L66.919,7.473L68.02,7.439L68.556,7.29L69.457,7.248L69.013,7.889L68.805,8.127L68.887,8.702L68.785,9.093L68.903,9.587L69.173,9.912L68.999,10.229L68.973,10.712L68.923,10.886Z" fill="#4B91EC" stroke="#DCDCDC" stroke-width="0.5" stroke-miterlimit="3.999327"/>
<path d="M74.501,19.017L75.543,20.263L75.559,20.401L75.445,20.557L74.795,20.849L74.649,21L74.415,21.554L73.598,21.857L73.032,22.238L72.652,22.572L72.463,22.707L71.715,22.781L71.475,22.992L71.173,23.623L70.954,23.889L70.566,24.199L70.564,24.388L71.1,25.078L71.195,25.296L71.03,25.624L71.046,25.857L71.327,26.136L71.663,26.2L71.991,26.083L72.399,26.094L72.664,26.169L72.774,26.251L72.792,26.465L72.625,26.919L72.383,27.213L71.311,27.663L70.836,27.924L70.572,28.117L69.994,28.013L69.7,28.021L69.475,28.17L69.337,28.297L68.949,28.329L68.401,28.406L68.172,28.491L67.994,28.714L67.846,29.032L67.97,29.413L68.142,29.755L68.134,30.067L68.265,30.936L68.094,31.14L67.726,31.369L67.288,31.775L66.796,32.34L66.874,32.501L68.05,33.685L69.245,34.889L70.434,36.085L70.602,36.138L70.826,36.276L71.034,36.694L71.203,37.138L71.207,37.367L71.074,37.656L70.784,37.988L70.432,38.257L69.918,38.485L69.509,38.701L69.171,39.27L68.965,39.469L68.777,39.549L68.405,39.624L67.806,39.606L67.41,39.562L66.918,39.987L66.293,40.143L65.873,40.724L64.378,41.185L62.915,41.543L62.513,41.684L61.068,41.388L60.72,41.481L60.321,41.757L59.951,41.969L59.639,41.982L59.377,42.093L59.221,42.487L59.084,43.843L58.564,44.246L57.938,44.244L57.509,43.774L56.999,43.42L56.11,42.579L55.862,42.469L55.632,42.474L54.806,42.725L54.415,42.616L54.099,42.485L53.571,42.527L52.632,42.536L52.032,42.543L51.741,42.314L51.469,41.844L51.287,41.675L51.073,41.539L50.719,41.47L49.206,41.472L48.92,41.472L48.713,41.381L48.421,40.978L48.103,40.789L47.729,40.782L47.565,41.005L48.213,41.73L48.401,42.124L48.968,42.692L50.609,43.896L50.913,44.277L50.879,44.765L50.869,45.512L50.925,46.218L51.347,47.231L51.938,48.26L52.1,48.918L51.99,49.402L51.876,49.662L51.888,49.776L52.01,49.88L52.576,50.029L53.763,50.121L54.481,50.121L55.576,50.234L55.658,50.595L55.55,51.192L55.334,51.532L55.158,51.63L54.563,51.708L53.935,52.075L53.024,52.436L52.504,52.485L52.288,52.556L52.104,52.665L51.952,52.803L51.777,53.482L51.509,54.248L51.003,54.702L50.447,55.078L49.882,55.119L49.428,55.088L49.202,55.199L48.876,55.508L48.411,55.893L48.051,56.098L47.567,56.078L47.05,56.267L46.396,56.577L45.962,56.831L45.593,57.267L45.063,57.723L44.519,58.044L44.26,58.44L43.888,58.941L43.424,58.957L43.386,58.656L43.608,58.171L43.366,57.754L42.924,57.529L42.717,57.461L42.511,57.489L41.987,57.696L41.346,58.071L40.95,58.342L40.592,58.465L39.857,58.578L39.237,58.636L38.981,58.56L38.521,58.284L37.456,57.42L36.015,56.25L35.905,55.911L35.967,55.566L35.705,55.061L35.551,54.524L35.422,54.339L35.384,53.936L35.072,53.211L34.816,52.618L34.58,52.316L34.68,52.058L34.58,51.802L34.39,51.594L34.11,50.92L34.208,50.63L34.134,50.339L33.899,50.139L33.565,49.925L33.119,49.478L32.587,49.054L32.316,48.887L32.13,48.819L31.968,48.416L31.844,48.293L31.572,48.26L31.015,48.091L30.495,48.293L30.483,47.981L30.631,47.792L32.426,46.299L33.329,45.613L33.427,45.512L33.507,45.354L33.569,45.141L33.363,44.898L32.515,43.745L32.222,43.527L31.932,43.349L31.6,42.864L31.202,41.737L30.917,41.171L30.831,40.735L30.849,40.243L30.743,39.865L30.513,39.602L30.513,38.798L30.743,37.451L30.799,36.427L30.683,35.726L30.889,35.192L31.414,34.825L31.708,34.259L31.77,33.493L32.086,32.863L32.653,32.371L32.847,31.884L32.667,31.403L32.609,31.096L32.128,30.784L31.234,30.564L30.495,30.539L30.047,30.784L28.902,31.011L27.059,31.22L25.574,31.22L24.449,31.009L23.593,31.08L23.006,31.432L22.592,31.512L22.352,31.32L22.092,31.267L21.699,31.388L21.631,31.332L20.757,30.383L19.95,29.502L19.023,28.453L17.953,27.242L17.761,27.162L17.43,27.169L16.992,27.191L16.312,27.066L15.847,26.89L15.483,26.719L14.811,26.503L14.352,26.465L13.938,26.528L12.801,26.951L12.155,26.991L11.656,26.999L10.312,26.79L9.395,26.755L8.328,26.893L7.87,26.971L7.231,26.755L6.795,26.427L6.389,25.646L6.103,25.032L5.606,24.909L5.054,24.804L4.782,24.6L4.618,24.246L4.578,23.792L4.634,23.053L4.686,22.788L4.762,21.991L5.066,21.574L5.258,21.372L5.22,21.036L5.074,20.35L4.926,19.864L4.315,19.313L3.531,18.607L3.193,17.476L2.796,16.14L2.484,16.006L2.19,16.073L1.878,16.006L1.602,15.468L1.327,15.366L0.887,15.555L0.569,15.702L-0.236,15.837L-0.402,15.702L-0.346,15.535L-0.007,15.047L0.393,14.422L0.859,13.854L1.291,13.271L1.614,12.65L1.834,11.414L1.986,10.561L2.386,9.039L3.115,7.825L3.391,7.266L4.053,6.538L4.356,6.142L4.76,5.829L5.869,5.406L7.195,3.313L7.498,2.979L8.837,2.667L9.867,2.424L10.628,2.168L10.878,2.031L11.08,1.968L10.914,2.211L10.548,2.52L10.135,2.709L8.002,3.182L7.784,3.282L7.506,3.478L7.504,3.929L7.562,4.281L8.19,5.439L8.436,5.724L9.275,6.351L9.083,6.438L8.773,6.449L8.999,7.269L9.515,7.832L9.539,8.186L9.143,9.286L8.422,9.943L7.91,10.708L7.512,11.011L6.631,12.514L7.3,13.409L7.396,13.863L7.976,14.508L8.354,14.718L8.606,14.98L8.49,15.419L8.722,16.015L9.021,16.329L9.397,16.454L9.863,16.454L11.2,16.056L11.518,15.878L11.722,15.561L12.391,14.916L12.433,14.083L12.577,13.081L12.413,12.427L11.71,11.494L11.402,10.831L10.704,10.214L10.277,9.156L10.101,8.825L9.969,8.369L9.819,7.561L10.287,7.267L10.239,6.605L11.39,6.421L13.88,5.343L15.421,5.071L17.176,4.495L17.584,4.21L17.935,3.736L18.209,3.682L19.125,4.126L19.576,3.972L19.754,3.625L19.504,2.95L18.979,2.95L17.398,3.195L17.244,2.905L17.244,2.649L16.87,1.843L17.102,1.236L17.34,0.744L17.793,0.546L18.457,0.332L18.959,0.661L19.262,0.973L19.428,1.276L19.542,2.099L19.812,2.93L20.096,3.507L20.548,3.943L20.893,3.914L21.141,3.841L22.786,3.743L23.785,4.041L25.056,4.192L26.244,4.824L27.465,5.59L27.777,6.149L27.879,6.683L28.174,7.04L27.881,7.409L28.041,8.023L28.39,8.642L28.918,9.036L30.423,9.143L32.05,8.878L34.564,8.636L35.374,8.429L39.535,8.317L40.328,8.615L40.406,8.91L40.414,9.137L41.753,10.245L42.853,10.396L43.786,10.75L44.751,10.94L45.807,11.209L46.4,11.174L46.846,11.08L47.369,11.064L51.083,9.212L53.074,9.259L53.379,9.139L53.643,8.978L52.91,8.696L51.253,8.587L50.751,8.776L50.467,8.299L51.007,8.311L52.85,8.152L54.962,8.257L56.683,7.917L57.549,7.861L58.048,7.928L59.419,7.709L62,7.968L64.034,7.754L63.798,8.061L63.131,8.248L62.05,8.306L61.224,8.754L59.465,8.673L58.23,8.834L58.626,8.959L58.626,9.419L58.794,9.511L58.972,9.515L59.391,9.856L59.505,10.08L59.641,10.548L59.455,11.055L59.2,11.282L59.701,11.205L59.985,10.967L59.943,10.728L59.985,10.45L60.267,10.537L60.465,10.662L61.106,11.988L61.558,12.683L61.674,12.658L61.782,12.632L61.916,12.5L62.116,12.173L62.287,12.38L62.391,12.46L62.495,12.485L62.399,12.189L62.527,11.81L62.483,11.677L62.683,11.648L62.923,11.699L63.263,11.804L63.868,12.24L64.268,12.692L64.302,12.945L64.448,13.086L64.71,13.235L64.838,13.467L64.862,13.101L64.708,12.834L64.67,12.529L65.457,12.516L65.663,12.115L66.093,12.356L67.232,13.458L67.652,13.64L68.893,13.851L69.674,14.381L70.132,14.856L69.86,15.354L69.131,15.602L68.839,15.913L68.671,16.218L68.669,16.525L68.447,16.881L68.415,17.006L68.283,17.507L67.984,18.112L67.584,18.752L65.501,18.767L66.015,19.03L66.489,19.221L67.266,19.724L67.884,19.328L68.769,19.299L69.726,18.86L70.088,18.791L71.879,19.019L72.311,18.698L72.67,18.604L73.64,18.663L74.501,19.017ZM53.008,5.751L53.188,6.425L53.134,6.552L52.626,7.006L52.2,7.039L51.856,7.022L51.597,6.935L51.263,6.639L50.937,6.728L50.132,6.625L49.908,6.521L50.21,6.158L50.763,6.011L50.967,5.98L51.129,6.203L51.533,6.396L52.006,6.416L52.124,6.073L52.766,5.563L53.008,5.751ZM45.363,6.91L45.061,7.026L44.507,6.91L44.23,6.748L44.405,6.563L44.859,6.563L45.285,6.788L45.363,6.91ZM69.994,15.998L69.321,16.167L69.331,16.031L69.511,15.793L69.86,15.726L69.992,15.644L70.214,15.59L70.342,15.599L70.47,15.666L70.164,15.8L69.994,15.998ZM69.003,17.389L68.655,17.492L68.603,16.979L68.709,16.841L69.301,16.427L69.465,16.349L69.585,16.436L69.555,16.547L69.84,16.734L69.77,16.97L69.463,17.227L69.003,17.389Z" fill="#F7B329" stroke="#DCDCDC" stroke-width="0.5" stroke-miterlimit="3.999327"/>
</svg>
