<svg width="60" height="60" viewBox="0 0 60 60" fill="none" xmlns="http://www.w3.org/2000/svg" xmlns:xlink="http://www.w3.org/1999/xlink">
<path d="M43.342,37.107C42.057,35.961 40.931,34.647 39.996,33.201C38.975,31.204 38.363,29.024 38.196,26.787L38.196,20.201C38.205,16.688 36.931,13.293 34.613,10.654C32.295,8.014 29.093,6.312 25.609,5.867L25.609,4.147C25.609,3.675 25.422,3.222 25.088,2.889C24.754,2.555 24.301,2.367 23.829,2.367C23.357,2.367 22.904,2.555 22.571,2.889C22.237,3.222 22.049,3.675 22.049,4.147L22.049,5.894C18.596,6.371 15.433,8.084 13.146,10.714C10.859,13.344 9.602,16.715 9.609,20.201L9.609,26.787C9.442,29.024 8.83,31.204 7.809,33.201C6.89,34.644 5.783,35.958 4.516,37.107C4.374,37.232 4.26,37.386 4.181,37.558C4.103,37.731 4.063,37.918 4.063,38.107L4.063,39.921C4.063,40.274 4.203,40.613 4.453,40.863C4.703,41.113 5.042,41.254 5.396,41.254L42.462,41.254C42.816,41.254 43.155,41.113 43.405,40.863C43.655,40.613 43.796,40.274 43.796,39.921L43.796,38.107C43.795,37.918 43.755,37.731 43.677,37.558C43.599,37.386 43.485,37.232 43.342,37.107ZM6.836,38.587C8.076,37.389 9.169,36.046 10.089,34.587C11.375,32.176 12.126,29.515 12.289,26.787L12.289,20.201C12.236,18.638 12.498,17.081 13.06,15.621C13.621,14.162 14.471,12.831 15.557,11.707C16.644,10.583 17.946,9.689 19.385,9.078C20.825,8.468 22.372,8.153 23.936,8.153C25.499,8.153 27.047,8.468 28.486,9.078C29.926,9.689 31.227,10.583 32.314,11.707C33.401,12.831 34.25,14.162 34.812,15.621C35.373,17.081 35.635,18.638 35.583,20.201L35.583,26.787C35.746,29.515 36.496,32.176 37.783,34.587C38.703,36.046 39.795,37.389 41.036,38.587L6.836,38.587Z" fill="#000000"/>
<path d="M23.995,45.706C24.835,45.687 25.641,45.371 26.271,44.815C26.9,44.258 27.313,43.497 27.435,42.666L20.422,42.666C20.548,43.52 20.98,44.299 21.637,44.858C22.294,45.417 23.132,45.718 23.995,45.706L23.995,45.706Z" fill="#000000"/>
<path d="M48,60C54.627,60 60,54.627 60,48C60,41.373 54.627,36 48,36C41.373,36 36,41.373 36,48C36,54.627 41.373,60 48,60Z" fill="#F47827"/>
</svg>
