<svg width="212" height="106" viewBox="0 0 212 106" fill="none" xmlns="http://www.w3.org/2000/svg" xmlns:xlink="http://www.w3.org/1999/xlink">
<path d="M106.25,33.536L106.25,33.583L106.436,34.035L106.897,35.714L107.161,35.927L107.461,36.105L107.673,36.353L107.757,36.604L107.731,36.992L107.741,37.443L107.865,37.788L108.037,38.049L108.197,38.18L108.436,38.193L108.724,38.256L108.918,38.516L109.536,40.409L109.594,40.656L109.853,40.736L110.279,40.7L110.717,40.896L111.185,41.201L111.624,41.776L111.92,41.869L112.848,41.784L114.115,41.876L114.708,42.172L114.648,42.356L114.191,42.559L113.385,42.799L113.147,43.203L113.013,43.728L113.037,44.022L113.235,44.345L113.803,44.988L113.835,45.22L113.937,45.544L114.043,45.765L113.925,46.192L113.409,46.488L112.732,46.807L111.371,48.231L111.269,48.537L111.277,49.376L111.141,49.616L110.711,49.612L110.375,49.569L110.357,49.861L110.143,50.253L110.021,50.593L110.521,51.393L110.611,51.818L110.531,52.205L110.067,52.869L109.794,53.316L109.86,53.416L110.221,53.594L111.345,55.052L111.706,55.564L112.182,55.429L112.36,55.438L112.498,55.52L112.584,55.692L112.584,55.91L112.464,56.237L113.069,56.37L113.287,56.7L113.993,57.829L113.967,58.165L113.629,58.697L113.625,59.049L113.697,59.365L113.807,59.476L114.848,59.521L115.29,59.648L116.371,60.222L117.602,61.103L118.608,61.823L119.465,62.435L120.384,62.392L120.634,62.502L120.866,62.693L121.13,63.196L121.656,64.331L122.103,64.707L122.793,65.613L123.44,66.46L123.015,67.611L122.597,68.806L122.597,70.342L122.597,71.166L123.476,71.201L124.454,71.241L124.462,72.223L124.47,73.209L124.478,74.331L124.765,74.378L125.221,74.619L125.417,74.983L125.661,75.18L125.959,75.213L126.251,75.391L126.54,75.716L126.646,75.959L126.568,76.128L126.63,76.422L126.832,76.843L127.078,77.041L127.46,77.285L126.942,77.424L126.382,77.317L125.189,76.825L124.801,76.811L124.296,76.998L124.274,77.165L123.013,76.615L122.559,76.504L122.395,76.493L121.672,76.498L120.642,76.598L120.037,76.822L119.617,77.058L119.425,77.29L119.357,77.415L119.029,78.1L118.65,78.977L118.256,79.765L117.49,80.872L117.067,81.382L116.157,82.33L115.174,82.521L112.893,82.334L110.365,82.125L107.849,81.92L105.976,81.765L105.832,81.714L103.98,80.36L102.517,79.287L100.688,77.945L98.821,76.571L96.926,75.175L95.549,74.158L93.878,72.847L92.357,71.651L91.156,70.703L89.615,69.875L88.412,69.225L86.657,68.28L85.256,67.522L84.055,66.873L82.206,65.87L81.593,65.598L79.676,65.262L77.859,64.979L75.978,64.685L74.727,64.489L75.553,63.773L75.299,63.131L74.697,63.249L74.144,63.401L73.808,62.401L74.235,62.276L73.84,60.967L73.434,59.616L73.042,58.307L72.641,56.965L74.23,56.103L75.417,55.458L77.078,54.554L78.679,53.681L80.204,52.848L81.884,51.927L83.387,51.103L84.764,50.767L85.056,50.507L85.684,49.378L86.221,48.412L86.247,48.189L86.249,46.814L86.343,45.197L86.521,44.331L86.831,43.563L87.115,43.002L87.145,42.477L87.107,41.943L86.813,41.136L86.507,40.291L86.541,39.478L86.597,39.042L86.789,38.343L87.117,37.831L87.469,37.515L88.776,37.189L89.553,36.994L90.593,36.087L91.21,35.545L92.07,34.689L92.703,34.057L92.753,33.837L92.753,33.752L93.297,33.623L94.302,32.855L94.896,32.138L95.084,32.074L95.613,32.308L95.993,32.374L96.866,32.101L97.386,32.245L97.824,32.426L98.067,32.439L99.241,32.886L99.534,32.94L100.138,32.995L101.039,33.02L101.621,32.728L102.031,32.446L102.319,32.454L102.598,32.521L102.834,32.641L103.032,32.851L103.126,33.153L103.088,34.113L103.176,34.365L103.336,34.547L103.538,34.581L103.784,34.373L104.211,34.069L104.739,33.739L105.131,33.436L105.357,33.321L105.71,33.338L106.056,33.39L106.25,33.536Z" fill="#7699BB" stroke="#DCDCDC" stroke-width="0.5" stroke-miterlimit="3.999327"/>
<path d="M106.542,17.294L106.66,17.436L107.569,18.789L107.969,19.186L108.203,19.524L108.361,19.9L108.638,20.154L109.006,20.292L109.452,20.655L109.754,20.938L110.259,21.525L110.795,21.742L112.74,22.165L113.821,22.362L114.133,22.418L114.96,22.135L115.93,22.173L116.289,22.187L117.57,20.993L117.96,20.593L118.724,20.386L119.153,19.909L119.843,19.331L120.684,18.787L121.458,18.297L122.049,18.001L123.121,17.307L123.79,17.067L124.372,17.075L125.243,17.888L125.977,18.627L126.203,18.95L125.839,19.241L125.159,19.52L125.029,19.725L124.983,19.989L125.009,20.239L125.101,20.444L125.935,20.918L126.029,21.18L126.035,21.445L125.941,21.61L125.755,21.706L125.175,21.839L124.678,21.993L124.506,22.144L124.356,22.323L124.378,22.523L124.528,22.75L125.545,23.367L125.661,23.594L125.863,23.899L126.113,24.086L126.536,24.137L126.74,24.262L127.724,25.399L127.963,25.479L129.113,25.228L129.272,25.239L129.282,25.517L129.454,27.125L129.586,27.955L129.784,28.759L130.094,29.493L130.462,30.188L130.969,30.617L132.097,31.132L132.644,31.281L134.085,31.385L135.508,31.612L136.348,31.853L136.606,32.024L136.817,32.285L137.513,33.498L138.608,34.36L140.819,35.651L141.89,36.08L145.5,36.889L147.902,36.844L154.541,35.281L156.748,34.89L157.578,34.89L157.084,35.201L156.254,35.379L156.754,35.599L157.527,35.635L157.885,35.599L158.145,35.401L158.187,35.072L158.149,34.747L157.783,33.289L157.571,32.258L159.128,32.329L159.734,32.194L160.625,31.849L161.301,31.641L161.641,31.612L161.977,31.45L162.234,31.247L162.814,29.832L163.104,29.477L164.087,28.678L164.923,28.171L165.798,27.721L166.907,27.407L168.38,27.44L169.553,27.55L170.233,27.545L170.555,27.578L170.797,27.532L170.936,27.44L171.088,26.819L171.328,26.615L171.742,26.441L172.322,26.441L173.029,26.396L173.617,26.437L174.356,26.675L175.322,26.695L175.965,26.653L176.339,26.891L176.609,27.209L176.739,27.474L176.769,27.837L176.763,28.113L176.864,28.22L177.256,28.385L177.802,28.509L178.863,28.658L179.86,28.945L180.378,29.139L181.098,29.442L181.955,30.196L182.273,30.314L182.657,30.39L182.93,30.37L183.574,30.052L184.134,30.286L184.417,30.255L185.061,30.081L185.744,30.299L187.447,31.123L187.635,31.105L187.789,31.189L187.931,31.377L188.031,31.61L188.157,32.318L188.649,32.835L189.25,33.306L189.952,33.563L191.417,34.179L192.056,34.678L192.704,35.524L193.503,36.637L193.619,36.739L195.674,36.704L197.984,36.706L198.266,37.151L198.214,38.031L198.296,38.934L198.504,39.556L198.506,40.13L198.34,40.421L198.21,40.753L198.172,40.898L198.468,41.105L198.728,41.581L198.766,42.243L198.638,42.594L198.656,42.884L198.786,43.131L198.898,43.543L198.878,43.792L198.692,44.039L198.58,44.348L198.432,44.738L198.378,45.047L198.098,45.19L197.876,45.293L197.914,45.684L198.026,46.012L198.156,46.401L198.008,46.668L197.914,46.975L197.708,47.467L197.764,47.875L197.543,48.222L197.263,48.529L197.077,48.774L197.039,49.121L196.835,49.242L196.445,49.527L196.205,49.731L195.852,49.792L195.778,49.956L195.834,50.117L195.982,50.219L196.211,50.571L196.691,51.178L195.308,51.254L194.902,51.789L194.429,52.556L194.66,54.102L194.429,54.896L194.569,55.341L194.922,55.647L195.376,55.818L196.227,55.829L196.791,55.949L196.847,56.154L196.523,56.454L196.006,57.015L195.73,57.26L194.848,58.385L194.856,58.865L194.938,59.251L195.318,60.462L195.69,61.633L196.355,63.739L196.343,64.228L196.136,65.31L196.122,65.967L196.215,66.818L196.146,67.258L196.309,68.242L196.495,68.313L197.936,68.503L199.257,68.679L201.018,68.912L201.552,69.487L201.884,70.749L201.864,71.691L201.714,72.172L200.455,73.543L199.176,74.93L197.898,76.312L196.575,77.741L196.437,77.891L197.507,79.032L198.168,79.736L199.102,80.725L199.219,80.963L199.211,81.352L200.169,82.855L200.507,83.638L200.81,84.097L201.568,84.814L202.307,85.513L203.109,85.833L203.657,85.903L204.904,86.272L205.359,86.566L206.091,87.307L206.95,87.205L207.128,87.205L207.176,87.258L207.202,87.496L207.076,88.645L207.314,89.801L207.48,91.539L207.418,91.838L207.212,92.339L207.202,92.661L207.148,92.859L207.204,92.946L207.478,93.064L208.061,93.127L209.471,92.933L209.634,92.982L209.972,93.187L210.226,93.509L210.248,93.661L209.892,93.928L209.834,94.38L209.94,95.057L209.892,95.139L209.58,95.291L209.479,96.268L209.423,96.357L209.059,96.457L207.34,96.39L207.144,96.417L206.499,96.675L205.391,96.86L205.088,96.965L204.68,97.26L204.386,97.617L204.33,97.948L204.272,98.017L203.638,97.949L203.431,98.236L202.201,98.665L202.05,98.757L201.868,99.099L201.704,100.055L201.556,100.914L201.462,101.039L201.074,101.334L201.036,101.433L201.088,101.766L200.912,102.37L200.774,104.046L200.62,104.514L200.315,104.553L200.075,104.787L199.635,105.075L198.686,104.852L197.932,104.618L195.438,104.068L195.164,103.801L195.008,103.331L194.577,103.198L193.957,103.903L191.85,103.496L191.135,103.621L190.693,103.401L189.558,103.389L188.663,102.949L187.377,103.251L186.362,103.309L184.969,102.539L183.472,102.327L182.257,102.392L181.631,102.332L180.618,102.056L180.138,101.771L179.349,101.989L178.993,101.584L176.761,101.208L176.347,100.491L176.037,99.825L176.013,99.139L175.469,97.937L175.288,96.188L175.086,95.504L174.784,94.908L174.382,94.402L173.836,93.859L173.361,93.643L171.274,93.229L170.873,93.283L169.939,93.554L168.946,94.155L167.315,94.496L166.987,94.754L166.577,95.335L166.046,95.673L165.318,95.586L164.535,95.929L163.082,96.886L162.316,97.178L161.675,97.156L160.985,96.702L159.444,96.092L158.447,95.889L157.064,96.029L156.408,95.927L155.295,95.21L155.003,94.689L154.368,94.34L152.353,93.558L150.722,92.523L150.422,92.131L150.222,91.551L149.513,90.847L147.92,90.272L147.017,89.658L145.957,89.52L144.972,89.54L144.538,89.429L144.145,89.166L142.799,87.895L142.783,87.392L141.954,86.147L141.76,85.702L141.582,84.465L141.352,84.142L140.487,83.632L140.353,83.298L140.537,82.853L140.537,82.516L140.087,82.198L139.412,82.029L139.248,81.648L139.372,80.905L139.27,80.439L138.674,79.692L137.795,78.928L136.917,77.795L136.574,77.512L136.35,76.769L136.028,75.887L135.532,75.824L133.13,76.882L132.428,76.286L130.322,75.252L130.176,75.095L130.028,74.858L130.294,74.72L130.558,74.663L131.087,74.849L131.405,74.631L131.279,74.279L130.749,74.061L130.03,74.077L130.228,74.407L129.554,74.72L129.41,75.128L129.508,75.635L129.566,76.343L129.292,76.684L129.081,76.842L128.175,76.884L127.752,77.196L127.478,77.27L127.096,77.027L126.85,76.829L126.648,76.408L126.586,76.114L126.664,75.947L126.558,75.702L126.268,75.377L125.977,75.199L125.681,75.166L125.435,74.968L125.239,74.605L124.781,74.366L124.494,74.318L124.486,73.195L124.478,72.209L124.47,71.227L123.492,71.187L122.613,71.152L122.613,70.328L122.613,68.79L123.031,67.596L123.456,66.444L122.809,65.597L122.119,64.691L121.672,64.313L121.146,63.178L120.884,62.675L120.652,62.485L120.402,62.374L119.485,62.418L118.628,61.806L117.622,61.087L116.393,60.206L115.31,59.631L114.868,59.504L113.827,59.46L113.717,59.349L113.645,59.033L113.647,58.681L113.985,58.149L114.011,57.813L113.305,56.684L113.087,56.354L112.484,56.221L112.604,55.894L112.604,55.677L112.518,55.504L112.378,55.422L112.2,55.413L111.726,55.548L111.365,55.036L110.239,53.578L109.878,53.4L109.812,53.3L110.085,52.852L110.549,52.187L110.629,51.802L110.541,51.377L110.041,50.577L110.163,50.237L110.377,49.847L110.395,49.553L110.731,49.596L111.161,49.6L111.297,49.36L111.289,48.522L111.391,48.215L112.754,46.791L113.431,46.472L113.947,46.178L114.065,45.749L113.959,45.528L113.857,45.205L113.825,44.972L113.257,44.329L113.059,44.006L113.035,43.71L113.169,43.188L113.407,42.781L114.213,42.541L114.67,42.338L114.732,42.154L114.139,41.859L112.872,41.766L111.944,41.851L111.648,41.759L111.209,41.185L110.741,40.88L110.303,40.684L109.878,40.72L109.62,40.642L109.56,40.395L108.944,38.502L108.75,38.242L108.463,38.178L108.221,38.166L108.061,38.035L107.889,37.774L107.765,37.43L107.757,36.978L107.783,36.59L107.699,36.339L107.487,36.091L107.187,35.911L106.924,35.7L106.462,34.021L106.276,33.569L106.276,33.522L106.284,33.433L106.238,33.046L106.452,32.71L106.438,32.577L105.994,32.153L105.371,31.728L105.203,31.653L105.199,31.199L105.221,30.856L105.165,30.546L105.045,30.368L105.041,30.228L105.291,29.894L105.129,29.674L104.211,29.132L103.868,28.859L103.232,28.805L103.166,28.625L103.266,28.246L103.484,27.784L103.828,27.331L103.938,27.091L104.071,26.682L104.117,26.392L104.503,25.983L104.505,25.876L104.397,25.729L104.089,25.648L103.774,25.613L103.656,25.539L103.614,25.319L103.654,24.426L103.554,23.888L103.424,23.498L103.506,22.617L103.286,22.44L102.94,21.977L102.792,21.584L102.872,21.437L102.946,21.18L102.994,20.84L102.98,20.6L102.662,20.366L102.427,20.119L102.399,19.847L102.305,19.513L102.171,19.248L102.111,19.075L102.227,18.974L102.676,18.894L103.33,18.95L103.864,18.954L104.165,18.783L104.539,17.173L104.881,16.748L105.277,16.501L106.05,17.075L106.37,17.276L106.542,17.294ZM170.323,94.819L169.799,95.5L169.01,96.069L168.674,95.892L168.412,95.9L167.849,96.118L167.443,96.156L166.705,96.542L166.034,96.737L165.568,96.722L165.406,96.682L165.314,96.419L165.322,96.314L165.606,96.368L166.643,96.016L167.937,95.439L168.06,95.181L167.853,94.761L167.908,94.667L168.748,94.881L169.685,94.464L170.469,94.349L170.837,94.64L170.323,94.819Z" fill="#4B91EC" stroke="#DCDCDC" stroke-width="0.5" stroke-miterlimit="3.999327"/>
<path d="M74.727,64.489L73.896,65.188L73.7,65.265L72.619,65.553L70.408,66.145L68.927,66.541L67.033,67.046L65.46,67.467L63.903,67.881L62.46,68.266L63.283,69.075L64.54,70.312L65.38,71.134L66.369,72.191L67.252,73.133L68.19,74.13L67.532,74.468L66.449,75.023L66.339,75.125L66.245,75.228L65.797,76.218L65.446,76.997L65.324,77.093L63.813,77.38L62.284,77.667L61.32,77.85L61.031,78.05L60.403,79.017L59.754,80.012L58.67,80.826L57.467,81.726L57.169,81.784L56.3,81.646L54.813,81.41L53.376,81.181L52.392,81.027L51.199,80.836L51.373,80.076L51.325,79.664L51.609,78.309L51.775,77.668L51.857,77.194L52.269,76.234L52.219,75.92L52.304,74.811L52.262,74.596L52.45,73.99L52.802,73.11L53.146,72.349L53.27,72.008L53.622,71.285L53.939,70.397L53.771,69.911L53.722,69.816L53.849,69.257L53.846,69.253L54.001,68.338L54.085,67.845L54.275,67.189L54.611,66.634L54.455,65.325L54.473,64.616L54.683,63.81L54.567,62.864L54.665,61.514L54.687,61.388L54.809,61.225L54.903,61.14L55.594,60.858L55.89,60.822L56.494,60.949L56.839,61.232L57.417,62.033L58.316,62.265L58.678,62.492L59.17,62.915L59.771,63.07L61.674,63.333L63.191,62.443L64.474,61.69L65.931,60.833L66.923,60.248L68.614,59.252L69.729,58.622L71.194,57.788L72.641,56.966L73.043,58.308L73.434,59.616L73.84,60.967L74.236,62.276L73.808,62.402L74.144,63.402L74.697,63.249L75.299,63.131L75.553,63.774L74.727,64.489Z" fill="#F7B329" stroke="#DCDCDC" stroke-width="0.5" stroke-miterlimit="3.999327"/>
<path d="M124.274,77.165L124.246,77.381L124.426,78.026L124.827,78.728L125.157,79.297L125.199,79.563L124.897,79.525L124.667,79.418L124.226,79.306L123.372,80.059L122.857,80.469L122.843,80.609L123.53,80.767L124.036,80.764L124.388,80.653L124.685,80.829L124.881,81.294L124.959,81.671L125.427,83.013L125.815,83.465L126.298,84.264L126.478,84.678L126.582,85.025L126.878,85.537L125.903,85.549L124.673,85.567L123.676,85.578L122.551,85.591L122.055,85.045L121.889,84.445L121.709,83.83L121.216,82.951L119.565,82.739L118.687,82.624L117.242,82.457L116.159,82.332L117.071,81.385L117.494,80.874L118.26,79.769L118.653,78.979L119.033,78.102L119.361,77.419L119.429,77.294L119.619,77.062L120.039,76.824L120.644,76.601L121.673,76.503L122.397,76.497L122.561,76.508L123.016,76.619L124.274,77.165ZM125.939,79.258L125.617,79.389L125.401,79.333L125.193,79.019L124.851,78.238L125.037,77.946L125.031,77.821L125.069,77.726L125.175,77.666L125.285,77.298L125.433,77.185L125.673,77.434L126.348,78.333L126.344,78.699L126.304,78.846L125.939,79.258Z" fill="#A1A28A" stroke="#DCDCDC" stroke-width="0.5" stroke-miterlimit="3.999327"/>
<path d="M12.291,1.744L12.14,2.523L12.493,3.38L13.321,4.565L14.154,5.163L17.522,6.637L18.142,6.762L18.002,7.365L17.798,7.899L17.576,8.254L16.588,8.483L13.866,7.828L13.177,7.766L12.691,7.897L11.792,8.372L10.794,8.22L9.403,8.489L9.016,9.384L8.05,10.406L6.461,11.23L5.326,11.671L3.619,13.247L2.846,14.164L2.52,14.342L2.132,14.484L2.262,14.042L2.454,13.639L2.41,13.334L2.418,12.891L2.986,12.388L3.503,12.023L5.032,11.361L5.436,10.809L4.237,10.822L3.018,10.943L2.252,10.865L1.585,10.911L1.375,10.428L1.213,10.137L1.387,10.046L1.607,9.983L1.998,9.467L2.348,9.088L2.852,8.608L2.98,8.322L2.98,8.055L2.858,7.87L2.834,7.648L2.818,7.338L2.846,6.693L4.001,5.989L4.371,5.914L4.497,5.591L4.413,4.843L4.253,4.238L4.045,4.199L3.767,4.022L3.585,3.817L3.293,3.594L2.792,3.456L2.776,3.265L2.828,3.075L3.014,2.879L3.861,2.71L3.961,2.572L4.075,2.23L4.243,1.882L4.443,1.767L4.801,1.778L5.48,1.698L5.954,1.584L6.423,1.345L6.665,1.127L7.685,1.001L7.97,0.891L8.254,0.985L8.636,1.357L9.263,1.891L9.599,2.069L9.851,1.987L10.307,1.793L10.742,1.793L11.094,1.827L11.264,1.659L11.53,1.622L12.291,1.744ZM87.99,4.816L88.362,4.952L89.066,5.126L89.501,5.337L89.749,5.393L90.323,4.965L91.174,4.976L91.924,5.025L92.31,5.104L92.783,5.246L93.355,5.342L93.589,5.137L93.922,4.533L94.052,4.456L94.144,4.402L94.568,4.355L94.97,4.4L95.16,4.504L95.35,4.988L95.827,5.161L96.671,5.932L97.186,6.241L97.312,6.37L97.142,6.526L97.21,6.718L97.504,6.969L97.918,7.063L98.365,7.029L98.609,7.12L98.783,7.261L98.829,7.461L98.817,7.588L98.905,7.873L99.255,8.276L99.671,8.523L99.894,8.786L100.258,9.692L100.406,10.192L100.35,10.673L100.098,11.165L99.547,11.777L99.683,12.033L99.806,12.37L99.765,12.615L100.156,13.396L100.334,13.881L100.186,13.993L100.09,14.148L100.794,14.52L101.637,14.832L101.993,14.892L102.96,14.749L103.584,14.718L104.204,15.014L105.105,15.731L106.078,16.664L106.272,16.947L106.356,17.072L106.546,17.298L106.348,17.294L106.028,17.092L105.255,16.519L104.859,16.766L104.517,17.19L104.144,18.801L103.842,18.971L103.308,18.968L102.655,18.912L102.205,18.991L102.089,19.093L102.149,19.266L102.283,19.531L102.377,19.865L102.405,20.137L102.641,20.384L102.958,20.618L102.972,20.858L102.924,21.197L102.85,21.455L102.77,21.602L102.918,21.994L103.264,22.457L103.484,22.635L103.402,23.516L103.532,23.906L103.632,24.443L103.592,25.337L103.634,25.556L103.752,25.631L104.068,25.665L104.375,25.747L104.483,25.894L104.481,26.001L104.096,26.41L104.05,26.7L103.916,27.109L103.806,27.348L103.462,27.802L103.244,28.263L103.144,28.643L103.21,28.823L103.846,28.877L104.19,29.149L105.107,29.692L105.269,29.912L105.019,30.246L105.023,30.386L105.143,30.564L105.199,30.874L105.177,31.217L105.181,31.671L105.349,31.746L105.972,32.17L106.416,32.595L106.43,32.728L106.216,33.064L106.262,33.45L106.254,33.539L106.062,33.394L105.717,33.341L105.361,33.325L105.137,33.439L104.745,33.743L104.218,34.073L103.79,34.376L103.544,34.585L103.34,34.551L103.182,34.369L103.094,34.115L103.132,33.154L103.038,32.853L102.838,32.642L102.603,32.523L102.323,32.455L102.033,32.448L101.623,32.73L101.042,33.022L100.14,32.998L99.535,32.944L99.243,32.889L98.07,32.443L97.826,32.432L97.388,32.25L96.868,32.107L95.993,32.379L95.615,32.314L95.086,32.078L94.898,32.141L94.306,32.86L93.299,33.628L92.755,33.757L92.497,32.986L92.248,32.686L92.13,32.65L91.878,32.553L91.682,32.608L91.076,33.134L90.105,33.45L89.302,33.643L88.022,33.877L87.035,33.993L86.615,34.002L85.704,33.897L84.9,33.75L84.097,33.755L83.479,33.823L82.048,34.387L79.614,35.547L77.763,36.101L76.726,36.332L75.913,36.462L74.521,36.47L73.388,36.381L72.603,36.39L72.167,36.25L71.545,35.781L70.794,35.319L70.458,35.21L70.02,35.121L69.381,35.068L67.782,35.747L67.284,35.932L66.737,36.07L65.631,36.484L65.142,36.706L64.528,36.686L63.745,36.628L63.065,36.647L62.612,36.333L62.366,35.979L61.44,35.761L60.779,35.698L60.609,35.856L60.433,36.339L60.151,37.572L60.099,37.88L60.683,39.102L60.657,39.287L60.241,39.351L59.763,39.373L59.452,39.482L59.194,39.683L59.038,40.736L58.484,40.929L58.22,41.148L57.949,41.798L57.801,41.813L56.905,41.321L56.486,41.281L56.847,40.771L56.456,39.759L56.028,38.812L56.432,38.205L57.267,37.472L58.145,36.611L58.145,36.079L58.099,35.673L57.847,35.391L57.363,35.017L56.554,35.417L55.976,35.858L55.598,35.947L55.189,36.197L54.989,36.651L54.493,37.003L53.683,37.141L52.466,36.764L51.159,36.19L50.42,35.723L49.816,35.611L49.242,35.816L47.55,36.956L46.001,38.619L45.617,38.906L44.158,39.619L43.195,39.857L42.741,39.803L40.82,40.115L39.867,40.161L39.111,40.536L37.646,40.13L36.771,39.609L36.243,39.079L35.384,37.937L34.774,37.394L33.405,36.904L31.019,35.713L30.391,35.582L28.762,35.411L27.045,35.302L26.698,35.736L26.566,37.452L26.272,37.922L26.146,38.81L25.936,39.064L25.606,39.231L25.091,38.951L24.733,38.828L23.9,39.193L22.251,39.703L21.689,39.776L19.778,39.133L19.079,38.719L18.627,38.261L18.475,37.486L18.191,37.045L18.149,36.742L18.038,36.393L17.652,36.255L17.238,36.52L16.794,36.51L16.239,36.348L14.926,35.696L13.918,35.644L13.311,36.439L12.839,36.691L12.323,36.767L12.293,36.542L12.685,36.027L11.112,36.121L10.283,36.513L9.635,36.451L9.15,36.275L9.221,36.059L9.713,35.979L10.141,35.803L11.844,35.66L12.241,35.516L12.677,34.955L13.469,34.472L13.571,34.266L12.961,34.264L10.351,34.403L8.56,34.327L8.348,34.567L8.078,34.601L8.004,33.95L8.288,33.646L8.668,33.675L9.605,33.412L9.521,32.869L8.852,32.503L8.716,32.285L8.228,32.234L7.834,31.974L7.748,31.321L7.435,30.602L6.987,30.255L7.043,30.064L7.864,29.821L8.034,28.813L7.908,28.194L7.495,28.142L6.289,27.652L5.924,27.704L5.524,27.165L4.824,26.778L4.479,26.92L4.261,27.096L3.937,27.012L3.395,26.677L2.862,26.495L2.626,26.27L2.922,25.669L3.329,25.683L3.403,25.213L3.082,24.427L3.114,24.022L3.469,23.912L3.875,23.988L4.285,24.458L4.419,24.912L4.333,25.355L4.593,25.783L4.778,25.892L4.902,25.44L5.076,25.355L5.316,25.551L5.83,25.649L7.161,25.373L7.417,25.139L6.441,25.166L6.086,24.946L5.698,24.454L5.46,24.008L5.418,23.788L5.284,23.467L5.432,23.294L6.1,23.036L6.685,22.312L6.439,22.103L6.16,22.003L5.856,22.078L5.568,21.829L5.53,21.484L5.76,21.205L5.784,20.82L5.03,19.87L4.82,19.663L4.984,19.353L5.56,18.832L6.108,18.185L6.042,17.973L5.636,17.886L3.713,18.164L2.966,18.403L1.633,18.514L1.537,18.162L1.567,17.846L1.866,17.269L1.838,15.842L2.016,15.066L2.758,14.834L3.667,13.692L5.14,12.341L6.679,12.367L7.295,11.993L8.208,11.971L8.374,12.241L8.478,12.501L9.279,12.875L10.694,12.815L11.038,12.668L11.372,12.463L10.716,11.798L10.924,11.61L11.518,11.588L12.162,11.744L12.192,11.896L12.022,12.105L11.822,12.47L12.012,12.541L13.842,12.319L15.757,12.497L16.367,12.401L17.872,12.408L18.142,12.18L17.686,11.891L17.24,11.791L16.94,11.651L16.64,11.446L17.596,10.802L18.136,10.678L20.68,10.281L22.572,10.083L22.596,9.934L22.323,9.934L19.878,9.603L19.289,9.349L18.471,8.741L18.293,8.568L18.087,8.271L18.211,7.637L18.363,7.127L18.665,6.831L19.642,6.786L22.992,7.305L25.379,6.994L27.987,7.75L30.483,7.597L30.997,7.258L31.622,6.163L35.148,4.34L36.381,3.387L37.704,2.864L39.973,2.283L41.869,1.513L42.411,1.424L46.964,1.793L50.092,1.84L51.527,1.112L52.36,1.357L52.282,1.617L52.131,1.84L52.177,2.289L52.664,2.948L53.162,3.396L54.621,4.039L56.649,3.498L56.977,3.558L57.391,3.708L58.106,5.446L58.662,6.058L59.374,6.473L59.959,6.555L60.393,6.121L60.729,5.947L61.462,5.872L62.663,6.468L63.079,7.082L65.124,7.555L67.001,7.793L67.81,8.312L70.452,8.832L71.44,8.752L73.094,8.207L76.316,7.61L78.457,8.443L79.036,8.552L79.536,8.48L80.256,8.708L81.023,8.585L83.391,7.601L84.133,7.042L84.919,6.898L85.614,6.562L87.469,5.464L87.99,4.816ZM0.823,14.08L-0.466,14.286L-0.866,14.084L-0.462,13.683L0.29,13.434L0.533,13.405L0.863,13.804L0.823,14.08Z" fill="#A1A28A" stroke="#DCDCDC" stroke-width="0.5" stroke-miterlimit="3.999327"/>
</svg>
