<svg width="114" height="66" viewBox="0 0 114 66" fill="none" xmlns="http://www.w3.org/2000/svg" xmlns:xlink="http://www.w3.org/1999/xlink">
<path d="M45.4,53.28L45.121,52.821L44.837,52.419L44.629,52.203L44.717,52.104L44.943,51.989L45.105,51.853L45.087,51.374L44.967,50.822L44.857,50.555L44.847,50.136L44.769,49.482L44.879,48.266L45.33,46.733L45.58,45.969L45.458,45.55L45.552,44.569L45.356,44.084L45.051,43.449L44.613,42.064L44.065,41.581L43.39,41.049L43.102,40.648L42.908,40.205L42.506,39.763L42.045,39.359L41.493,38.344L41.207,37.884L41.119,37.763L40.49,37.109L40.16,36.519L39.992,36.033L39.896,35.584L39.452,34.693L39.051,34.023L38.669,33.543L38.493,33.204L38.045,32.777L37.408,32.436L36.994,32.378L36.462,32.405L36.584,32.144L37.741,31.434L38.043,31.55L38.649,31.577L39.882,31.554L40.49,31.085L40.865,31.216L41.171,31.005L41.681,30.74L41.755,30.797L41.819,30.838L42.606,30.956L43.2,31.21L43.596,31.601L44.005,31.842L44.425,31.937L44.659,32.133L44.705,32.427L45.101,32.572L45.842,32.568L46.156,32.763L46.044,33.157L46.12,33.286L46.384,33.151L46.584,33.267L46.687,33.558L46.807,33.696L47.185,33.24L47.585,33.286L48.55,33.474L49.066,34.417L49.388,34.754L49.669,34.892L50.025,34.745L50.341,34.571L50.521,34.653L50.913,35.275L51.003,36.089L51.001,36.416L50.863,36.967L50.665,37.552L50.509,37.933L50.575,38.238L50.715,38.494L50.943,38.578L51.69,39.094L51.97,39.453L52.376,39.718L52.683,39.733L52.843,39.88L52.899,40.061L52.857,40.519L52.686,40.947L52.707,41.223L52.979,41.55L53.009,41.928L53.027,42.171L53.171,42.358L53.857,42.774L54.742,43.175L54.968,43.52L55.106,43.955L55.062,44.687L55.004,45.323L56.163,46.176L56.031,46.336L55.851,46.51L54.744,46.639L54.518,46.71L54.037,46.069L53.783,45.987L53.547,46.223L53.267,46.354L52.933,46.288L52.574,46.091L52.392,45.951L52.246,45.934L52.022,46.074L51.724,46.014L51.528,45.856L51.246,46.401L51.075,46.515L50.967,46.499L50.945,45.573L50.863,45.433L50.639,45.41L50.099,45.631L49.586,45.916L49.412,46.169L49.43,46.624L49.504,47.167L49.853,47.99L49.662,48.347L49.526,48.917L48.976,49.438L48.352,49.742L48.3,50.362L47.955,50.785L47.363,51.208L46.967,51.719L47.067,52.065L47.091,52.396L47.023,52.619L47.009,52.792L46.853,52.868L45.95,52.931L45.694,53.039L45.4,53.28Z" fill="#F7B329" stroke="#DCDCDC" stroke-width="0.5" stroke-miterlimit="3.999327"/>
<path d="M45.4,53.28L45.992,54.026L46.741,54.424L48.476,54.843L48.632,54.793L48.648,54.714L48.528,54.606L48.51,54.468L48.594,54.297L48.834,54.288L49.226,54.44L49.973,54.219L51.073,53.623L52.084,53.504L53.003,53.856L53.475,54.266L53.779,54.656L53.683,55.137L53.625,55.437L53.383,56.673L53.215,57.135L52.945,57.65L50.089,58.266L50.273,57.97L50.207,57.452L50.087,57.06L50.353,56.708L49.711,56.579L49.43,56.773L49.21,57.111L49.404,57.89L49.092,58.32L48.972,58.56L48.958,59.128L48.772,59.371L48.736,59.64L49.192,59.571L48.986,60.059L48.13,60.996L47.831,61.555L47.905,63.761L47.523,65.076L47.493,65.462L46.586,65.475L46.314,65.444L45.454,65.248L44.489,64.9L43.923,64.221L43.562,63.736L42.742,63.956L42.588,63.897L42.362,63.663L41.747,63.505L40.985,63.502L39.276,62.614L39.089,62.465L37.745,62.614L35.735,63.053L34.202,63.596L32.617,64.56L31.975,65.29L31.23,65.677L30.171,65.964L28.278,65.856L26.305,65.49L24.189,65.096L23.043,65.314L21.496,65.15L19.162,64.68L17.423,64.537L15.708,64.814L15.421,64.602L15.359,64.359L15.425,64.015L15.666,63.738L16.082,63.527L16.3,63.313L16.324,63.097L15.858,62.748L14.903,62.267L14.509,61.966L14.413,61.891L14.387,61.621L14.189,61.408L13.818,61.252L13.532,60.971L13.328,60.562L13.372,60.177L13.662,59.816L14.033,59.658L14.485,59.707L14.673,59.604L14.597,59.351L14.155,59.026L13.346,58.632L12.522,58.847L11.681,59.671L11.077,59.803L10.706,59.25L10.046,58.917L9.097,58.814L8.513,58.602L8.295,58.28L7.88,58.033L6.964,57.77L6.952,57.519L7.1,57.46L7.426,57.436L7.862,57.383L7.932,57.24L7.936,57.109L7.592,56.944L7.246,56.831L7.064,56.719L6.948,56.594L6.924,56.463L7.026,56.374L7.166,56.368L7.304,56.29L7.382,55.987L7.57,55.737L7.704,55.649L7.696,55.464L7.556,55.292L7.366,55.143L7.086,55.052L6.215,54.791L5.775,54.428L5.505,54.413L5.079,54.212L4.62,53.896L4.22,53.445L3.79,53.153L3.678,53.033L3.668,52.921L3.748,52.794L3.744,52.656L3.632,52.214L3.708,51.746L3.688,51.305L3.682,51.107L3.599,51.045L3.524,51.112L3.419,51.196L3.315,51.212L2.997,50.891L2.595,50.236L2.323,50.016L1.794,49.714L1.346,49.46L1.026,48.912L0.692,48.487L0.912,48.309L2.185,48.059L2.779,48.304L3.045,48.215L3.303,48.017L3.447,47.857L3.473,47.688L3.6,47.478L4.03,47.378L5.169,47.507L5.627,47.211L5.797,47.051L5.901,46.695L6.021,46.408L6.429,46.256L6.423,45.994L6.361,45.711L6.596,45.074L6.74,44.813L6.972,44.718L7.25,44.517L7.734,44.099L7.622,43.736L7.718,43.465L8.221,42.808L8.605,42.173L8.599,41.853L8.655,41.575L8.995,41.27L9.351,40.873L9.82,39.627L9.99,39.419L10.298,39.181L10.528,38.945L10.552,38.124L10.768,37.886L11.181,37.619L11.593,37.191L11.927,36.683L12.185,36.445L12.526,36.381L12.896,36.181L13.31,36.107L13.712,36.205L13.965,36.154L14.351,35.907L15.333,34.97L15.471,34.783L15.674,34.655L16.47,34.333L16.672,34.01L16.945,33.72L17.299,33.741L18.454,34.46L19.69,34.415L19.916,34.442L19.989,34.457L20.141,34.515L21.784,34.871L22.038,34.831L22.108,34.803L22.77,35.096L23.355,35.058L23.911,34.854L24.488,34.785L25.02,34.907L25.424,35.319L26.473,36.194L26.785,36.521L27.265,36.472L27.796,36.309L28.334,35.726L29.987,35.061L31.248,34.896L32.479,34.629L33.904,34.44L34.316,33.896L34.544,33.523L34.706,32.834L35.473,32.634L36.203,32.492L36.462,32.405L36.994,32.378L37.408,32.436L38.045,32.777L38.493,33.204L38.669,33.543L39.051,34.023L39.452,34.693L39.896,35.584L39.992,36.033L40.16,36.519L40.49,37.109L41.119,37.763L41.207,37.884L41.493,38.344L42.045,39.359L42.506,39.764L42.908,40.205L43.102,40.648L43.39,41.049L44.065,41.581L44.613,42.064L45.051,43.449L45.356,44.084L45.552,44.569L45.458,45.55L45.58,45.969L45.33,46.733L44.879,48.266L44.769,49.482L44.847,50.136L44.857,50.555L44.967,50.822L45.087,51.374L45.105,51.853L44.943,51.989L44.717,52.104L44.629,52.204L44.837,52.42L45.121,52.821L45.4,53.28Z" fill="#F7B329" stroke="#DCDCDC" stroke-width="0.5" stroke-miterlimit="3.999327"/>
<path d="M101.504,41.221L101.301,41.305L99.34,41.189L97.739,41.347L96.598,42.521L95.918,42.518L94.961,42.823L94.311,43.202L93.542,44.023L92.946,43.654L92.217,43.665L91.505,43.888L90.65,44.437L90.174,44.533L89.223,44.377L88.113,44.691L85.719,46.483L84.914,47.788L84.62,48.042L84.216,48.36L83.784,48.52L83.557,48.505L84.698,47.579L85.047,47.233L85.108,46.977L85.113,46.561L84.768,46.045L83.834,47.322L83.305,47.507L82.631,47.89L82.597,48.741L82.675,49.373L82.951,50.167L83.603,51.461L84.934,53.304L85.571,53.979L86.039,54.248L86.602,54.286L87.686,53.718L88.147,53.629L89.155,53.845L89.515,53.467L90.038,53.257L90.71,53.229L91.477,53.4L92.309,53.687L91.967,54.335L91.611,54.851L91.485,55.421L91.287,56.054L90.37,56.338L89.389,56.303L88.353,56.486L87.98,56.241L87.732,56.016L87.272,55.791L86.666,55.668L86.123,55.818L85.479,56.681L84.34,57.269L83.964,57.941L82.843,57.79L81.884,57.908L80.499,58.52L79.443,59.827L78.28,60.642L77.359,60.9L76.493,60.82L75.934,60.577L74.782,59.72L74.85,59.413L75.01,59.259L75.228,58.816L75.688,57.189L75.626,56.659L75.368,55.826L74.455,55.176L73.721,55.299L73.303,55.127L71.798,54.019L70.979,53.941L70.074,54.164L69.74,54.003L69.494,53.616L71.289,52.245L73.052,51.111L73.825,50.994L74.868,50.464L75.984,49.669L75.826,49.043L75.586,48.578L75.052,48.705L74.664,48.859L73.731,48.362L73.389,47.995L71.928,48.376L71.115,48.32L69.32,48.671L68.495,48.329L66.846,47.371L66.226,47.178L65.699,47.22L65.411,46.904L65.762,46.746L66.172,46.728L66.598,46.612L66.718,46.445L66.692,46.129L65.834,45.889L65.037,45.82L64.531,45.537L64.146,45.212L65.049,45.206L65.958,45.453L67.379,45.544L68.671,45.798L68.992,45.482L69.742,44.934L69.884,44.76L68.629,45.136L67.355,44.896L66.892,44.562L66.498,44.07L66.332,43.509L66.44,42.986L66.302,42.04L65.882,41.196L65.735,40.733L65.291,40.317L65.727,41.258L65.888,41.882L66.15,42.456L66.088,43.974L65.926,44.506L65.403,44.64L64.715,44.56L64.016,44.395L64.19,43.562L63.816,43.85L63.29,44.662L62.826,44.782L61.797,44.693L59.886,45.228L59.755,45.811L59.467,46.597L59.189,47.055L59.103,47.331L58.289,48.513L58.186,48.625L56.649,50.257L56.453,50.379L55.457,50.758L54.868,51.091L54.416,51.239L53.653,51.074L53.335,51.309L53.185,51.599L53.183,52.2L53.571,52.63L53.889,54.059L53.771,54.662L53.469,54.271L52.995,53.859L52.076,53.507L51.066,53.629L49.965,54.224L49.218,54.446L48.826,54.293L48.586,54.302L48.502,54.473L48.52,54.613L48.64,54.722L48.624,54.8L48.468,54.849L46.733,54.429L45.984,54.032L45.394,53.286L45.688,53.044L45.944,52.937L46.847,52.875L47.003,52.799L47.019,52.627L47.087,52.401L47.063,52.073L46.963,51.724L47.359,51.214L47.949,50.793L48.294,50.37L48.346,49.749L48.968,49.446L49.517,48.925L49.653,48.356L49.847,47.999L49.495,47.176L49.422,46.633L49.405,46.178L49.577,45.925L50.091,45.64L50.631,45.419L50.855,45.441L50.937,45.581L50.956,46.506L51.064,46.525L51.236,46.41L51.518,45.866L51.712,46.023L52.012,46.083L52.236,45.942L52.381,45.958L52.561,46.098L52.921,46.296L53.257,46.361L53.535,46.23L53.773,45.994L54.026,46.074L54.508,46.717L54.732,46.646L55.841,46.517L56.019,46.343L56.151,46.185L54.992,45.332L55.05,44.695L55.094,43.963L54.956,43.527L54.73,43.182L53.844,42.781L53.159,42.365L53.015,42.176L52.997,41.933L52.967,41.555L52.695,41.23L52.673,40.955L52.845,40.524L52.887,40.067L52.829,39.885L52.669,39.736L52.361,39.722L51.956,39.457L51.678,39.099L50.93,38.583L50.703,38.5L50.563,38.244L50.495,37.939L50.653,37.559L50.851,36.973L50.988,36.423L50.99,36.094L50.901,35.281L50.511,34.658L50.329,34.577L50.015,34.751L49.657,34.898L49.376,34.76L49.054,34.422L48.538,33.48L47.573,33.291L47.173,33.246L46.795,33.7L46.677,33.562L46.571,33.271L46.372,33.157L46.108,33.291L46.032,33.162L46.146,32.768L45.832,32.574L45.09,32.578L44.695,32.432L44.649,32.136L44.415,31.942L43.995,31.848L43.585,31.606L43.19,31.216L42.596,30.962L41.807,30.844L41.743,30.802L41.669,30.746L41.159,31.011L40.853,31.221L40.478,31.091L39.87,31.559L38.635,31.583L38.029,31.554L37.729,31.437L36.57,32.149L36.448,32.411L36.188,32.498L35.459,32.639L34.691,32.839L34.529,33.527L34.302,33.899L33.89,34.444L32.465,34.633L31.234,34.898L29.973,35.063L28.32,35.728L27.782,36.312L27.25,36.476L26.769,36.525L26.457,36.198L25.408,35.323L25.004,34.909L24.472,34.787L23.895,34.856L23.339,35.059L22.755,35.098L22.094,34.803L22.024,34.833L21.77,34.872L20.127,34.517L19.975,34.457L19.903,34.442L19.678,34.415L18.44,34.459L17.287,33.74L16.933,33.718L16.66,34.008L16.458,34.331L15.662,34.653L15.458,34.782L15.342,34.682L15.289,34.404L15.348,34.157L15.23,33.925L14.929,33.66L14.855,33.549L14.475,33.569L14.371,33.594L14.333,33.589L13.806,33.364L13.458,32.821L12.916,32.532L12.502,32.434L12.314,32.2L12.193,31.89L12.065,31.655L12.051,31.632L11.963,31.276L11.837,31.24L11.815,31.23L11.281,31.292L11.343,30.041L12.197,29.139L12.406,28.683L12.726,27.694L12.966,27.229L13.254,26.844L13.484,26.472L13.566,26.152L13.798,26.116L14.477,26.405L15.087,26.554L15.255,26.412L15.325,26.227L15.296,26.083L14.809,25.657L14.503,25.384L14.483,25.217L14.593,24.842L14.653,24.42L14.583,23.963L14.249,22.948L14.187,22.516L14.505,21.989L15.54,20.733L15.886,20.259L16.358,19.687L17.639,18.315L18.446,17.514L18.994,17.069L19.796,16.298L20.147,15.896L21.61,15.635L21.792,15.259L22.06,14.849L22.268,14.673L22.296,13.981L22.024,13.133L21.806,12.834L21.644,12.628L21.75,12.438L21.912,12.383L22.112,12.356L22.36,12.151L22.304,11.928L21.686,11.383L21.418,10.964L21.001,9.882L20.153,8.756L19.885,8.391L19.847,8.046L19.971,7.701L19.853,7.26L19.554,6.697L19.602,6.635L19.572,5.94L19.786,5.789L20.123,5.688L20.599,5.722L21.007,5.829L21.494,6.147L21.646,6.096L22.48,5.497L23.339,4.593L23.585,4.068L23.799,3.829L24.546,3.702L25.198,3.649L25.612,3.658L26.629,3.569L27.23,3.469L27.752,3.309L28.877,3.249L30.632,3.357L31.785,3.364L32.569,3.449L34.486,3.93L35.199,4.017L35.531,4.273L36.168,4.368L37.328,4.624L38.333,4.762L39.013,4.706L39.392,4.778L40.112,5.913L40.26,6.045L40.548,6.073L41.135,5.975L41.971,6.013L42.466,6.251L42.394,6.924L42.524,7.022L42.756,6.984L43.022,6.605L43.246,6.211L43.412,6.087L44.265,6.354L44.655,6.31L45.014,6.011L45.234,5.96L45.84,6.172L46.585,6.321L47.189,6.33L47.565,6.492L47.839,7.195L48.076,7.34L48.306,7.383L48.654,6.755L48.97,6.512L49.408,6.332L49.689,6.254L49.889,6.031L50.157,5.815L50.389,5.797L50.577,5.88L50.793,6.18L51.108,6.862L51.492,7.547L51.76,7.796L52.451,7.585L52.919,7.371L53.777,7.331L54.914,7.18L55.783,6.984L56.327,7.019L56.657,7.236L57.158,7.656L57.294,8.259L57.946,8.674L58.479,8.751L58.661,8.318L58.973,8.017L58.855,7.601L58.803,7.071L58.569,6.579L58.413,6.049L58.699,5.29L59.011,4.626L59.167,4.264L59.661,3.596L60.166,3.119L60.924,2.351L61.477,2.097L61.977,2.213L62.255,2.318L62.972,1.862L64.249,1.839L65.313,1.897L65.421,1.911L65.944,2.147L66.494,2.347L66.874,2.36L67.325,2.314L67.857,2.048L68.227,1.79L68.677,0.479L68.836,0.29L69.084,0.187L69.49,0.176L70.262,0.421L71.165,0.641L71.689,0.61L73.084,-0.089L73.861,-0.198L74.784,-0.035L75.692,-0.026L76.375,-0.127L76.845,0.114L77.425,0.648L77.948,1.439L78.496,2.897L80.093,4.537L80.119,4.856L79.989,5.061L79.204,5.259L78.54,5.366L78.508,5.646L78.684,5.949L78.988,6.392L79.034,6.962L79.018,7.485L79.148,7.946L79.401,8.135L79.433,8.366L79.142,8.649L79.06,8.823L79.174,8.918L80.615,8.972L81.32,9.246L81.856,9.497L82.126,9.52L82.733,9.361L83.417,9.259L83.83,9.244L83.99,9.43L84.118,9.914L84.358,10.399L84.582,10.537L84.982,10.513L85.221,10.537L85.349,10.72L85.205,10.996L85.237,11.296L85.413,11.663L85.621,12.51L85.813,12.763L85.941,13.082L85.941,13.449L85.781,13.769L85.669,14.019L85.781,14.589L86.213,15.227L86.533,15.384L86.788,15.953L87.252,16.134L87.94,15.657L88.467,15.406L89.127,15.546L89.736,15.635L90.146,15.96L90.448,16.407L90.8,16.655L91.151,16.525L91.885,16.655L92.221,17.017L92.556,17.22L92.988,16.926L93.34,16.563L94.627,16.183L95.426,16.089L95.65,16.014L96.12,15.742L96.616,15.561L97.062,15.61L97.501,16.174L97.957,16.563L98.085,17.175L98.64,18.013L100.021,19.159L100.563,19.508L100.931,19.446L101.123,19.355L101.213,19.235L101.297,18.674L101.471,18.467L101.75,18.462L102.832,19.159L103.397,19.235L103.935,19.248L104.658,19.789L105.452,20.259L106.065,20.308L106.555,20.123L106.891,20.011L107.099,20.19L107.291,20.595L107.61,20.909L107.978,20.998L108.508,21.018L109.427,21.625L110.291,22.242L110.83,22.276L111.288,22.095L111.692,22.048L111.973,22.204L112.053,22.471L111.846,22.828L111.846,23.34L112.229,23.83L112.241,24.311L112.131,24.745L111.913,25.145L111.388,25.693L110.902,26.203L110.173,26.416L109.763,26.639L109.871,27.013L110.139,27.362L110.758,27.643L111.462,27.848L111.544,28.075L111.436,28.19L110.984,28.295L110.361,28.188L110.153,28.386L109.865,28.714L109.673,29.306L109.529,29.854L110.207,30.003L110.6,30.227L110.724,30.675L110.864,31.174L110.906,31.623L110.682,31.841L110.668,32.064L110.774,32.175L111.066,32.224L111.288,32.323L111.306,32.559L110.88,33.09L110.482,34.103L110.269,34.64L110.285,35.223L110.045,35.546L109.603,35.588L108.104,35.644L106.799,35.615L106.235,35.532L105.352,35.481L104.914,35.619L104.335,36.548L103.895,36.911L103.169,37.24L102.372,37.334L101.914,37.716L101.752,38.315L101.74,38.845L101.666,39.11L101.494,39.342L101.432,39.508L101.471,39.689L101.656,39.754L101.878,39.838L101.878,39.969L101.792,40.134L101.544,40.315L101.432,40.595L101.458,40.893L101.504,41.221ZM66.716,47.788L67.489,48.149L66.7,48.053L64.967,47.714L64.202,47.392L64.004,47.033L63.892,46.543L64.319,47.057L64.619,47.282L66.716,47.788Z" fill="#CCAA5A" stroke="#DCDCDC" stroke-width="0.5" stroke-miterlimit="3.999327"/>
</svg>
