<svg width="80" height="80" viewBox="0 0 80 80" fill="none" xmlns="http://www.w3.org/2000/svg" xmlns:xlink="http://www.w3.org/1999/xlink">
<path d="M72.5,1.875L7.5,1.875C6.025,1.86 4.605,2.43 3.55,3.462C2.496,4.493 1.893,5.9 1.875,7.375L1.875,72.637C1.896,74.11 2.5,75.514 3.554,76.543C4.609,77.571 6.027,78.14 7.5,78.125L72.5,78.125C73.975,78.137 75.394,77.564 76.448,76.532C77.502,75.5 78.105,74.093 78.125,72.619L78.125,7.356C78.099,5.886 77.493,4.485 76.44,3.459C75.386,2.432 73.971,1.863 72.5,1.875Z" fill="#0076B2"/>
<path d="M13.163,30.456L24.481,30.456L24.481,66.875L13.163,66.875L13.163,30.456ZM18.825,12.331C20.123,12.331 21.392,12.716 22.472,13.437C23.551,14.159 24.392,15.184 24.889,16.384C25.385,17.583 25.515,18.903 25.261,20.176C25.007,21.449 24.382,22.619 23.463,23.536C22.545,24.454 21.375,25.078 20.102,25.331C18.828,25.583 17.509,25.452 16.309,24.955C15.11,24.457 14.086,23.615 13.366,22.535C12.645,21.455 12.261,20.186 12.263,18.887C12.264,17.148 12.956,15.48 14.187,14.251C15.418,13.022 17.086,12.331 18.825,12.331ZM31.581,30.456L42.431,30.456L42.431,35.456L42.581,35.456C44.094,32.594 47.781,29.575 53.288,29.575C64.75,29.55 66.875,37.094 66.875,46.875L66.875,66.875L55.556,66.875L55.556,49.156C55.556,44.937 55.481,39.506 49.675,39.506C43.869,39.506 42.881,44.106 42.881,48.881L42.881,66.875L31.581,66.875L31.581,30.456Z" fill="#FFFFFF"/>
</svg>
