<svg width="454" height="454" viewBox="0 0 454 454" fill="none" xmlns="http://www.w3.org/2000/svg" xmlns:xlink="http://www.w3.org/1999/xlink">
<path d="M454,227C454,260.79 446.456,294.156 431.918,324.658C417.382,355.162 396.218,382.036 369.972,403.318C343.726,424.6 313.058,439.756 280.21,447.676C247.36,455.596 213.158,456.084 180.096,449.102C147.034,442.12 115.949,427.844 89.107,407.318C62.265,386.792 40.345,360.532 24.945,330.454C9.545,300.376 1.054,267.24 0.092,233.464C-0.87,199.687 5.721,166.121 19.383,135.216L98.062,169.999C89.577,189.192 85.484,210.038 86.082,231.014C86.679,251.992 91.952,272.57 101.516,291.248C111.08,309.928 124.694,326.236 141.363,338.984C158.033,351.732 177.338,360.596 197.871,364.934C218.404,369.27 239.644,368.966 260.046,364.048C280.446,359.128 299.49,349.718 315.79,336.5C332.09,323.282 345.234,306.594 354.262,287.65C363.29,268.706 367.976,247.986 367.976,227L454,227Z" fill="#1C75BC"/>
<path d="M454,227C454,178.807 438.662,131.865 410.208,92.969C381.752,54.074 341.656,25.244 295.726,10.653L269.68,92.641C298.206,101.702 323.106,119.607 340.778,143.762C358.45,167.918 367.976,197.07 367.976,227L454,227Z" fill="#1C75BC"/>
<path d="M314.12,17.384C284.7,5.156 253.034,-0.742 221.182,0.075C189.332,0.891 158.01,8.403 129.254,22.123C100.497,35.842 74.951,55.462 54.277,79.705C33.603,103.948 18.264,132.271 9.258,162.833L91.774,187.15C97.367,168.17 106.894,150.58 119.733,135.524C132.572,120.468 148.437,108.284 166.296,99.764C184.155,91.243 203.606,86.578 223.388,86.071C243.168,85.564 262.834,89.227 281.106,96.821L314.12,17.384Z" fill="#F47827"/>
</svg>
