<svg width="1192" height="780" viewBox="0 0 1192 780" fill="none" xmlns="http://www.w3.org/2000/svg" xmlns:xlink="http://www.w3.org/1999/xlink">
<path d="M595.876,779.996C924.97,779.996 1191.752,605.166 1191.752,389.502C1191.752,173.838 924.97,-0.992 595.876,-0.992C266.782,-0.992 0,173.838 0,389.502C0,605.166 266.782,779.996 595.876,779.996Z" fill="#F0F0F0"/>
<path d="M859.85,292.764L890.257,275.214L1014.78,347.087L1146.592,270.97L875.054,114.193L712.81,207.885L859.85,292.764Z" fill="#F47827" fill-opacity="0.1"/>
<path d="M901.94,436.159C959.379,436.159 1005.942,409.278 1005.942,376.119C1005.942,342.961 959.379,316.08 901.94,316.08C844.502,316.08 797.938,342.961 797.938,376.119C797.938,409.278 844.502,436.159 901.94,436.159Z" fill="#F47827" fill-opacity="0.1"/>
<path d="M405.772,661.663L491.674,612.085L607.06,678.689L626.282,667.605L654.492,683.883C657.556,685.513 660.962,686.397 664.434,686.461C667.904,686.527 671.34,685.771 674.464,684.257C679.756,681.185 679.458,676.043 673.816,672.773L645.606,656.495L741.768,600.975L769.978,617.277C773.028,618.887 776.412,619.757 779.86,619.817C783.308,619.879 786.72,619.127 789.824,617.627C795.142,614.555 794.818,609.439 789.2,606.167L760.99,589.865L789.824,573.215L674.364,506.609L741.02,468.115C746.686,464.843 746.686,459.551 741.02,456.281L396.26,257.165C393.084,255.553 389.574,254.713 386.012,254.713C382.452,254.713 378.94,255.553 375.764,257.165L40.393,450.714C34.726,453.984 34.726,459.301 40.393,462.547L385.276,661.663C388.452,663.275 391.962,664.115 395.524,664.115C399.086,664.115 402.596,663.275 405.772,661.663Z" fill="#F47827" fill-opacity="0.1"/>
<path d="M1110.443,241.238C1099.759,200.87 1108.371,157.607 1120.429,132.917C1132.487,108.227 1155.18,87.033 1175.151,89.155C1193.875,91.152 1197.145,114.394 1179.495,134.265C1161.845,154.137 1130.939,191.883 1123.6,216.848C1118.607,233.324 1116.11,244.034 1116.11,244.034L1110.443,241.238Z" fill="#1C75BC"/>
<g opacity="0.15">
<path d="M1110.443,241.238C1099.759,200.87 1108.371,157.607 1120.429,132.917C1132.487,108.227 1155.18,87.033 1175.151,89.155C1193.875,91.152 1197.145,114.394 1179.495,134.265C1161.845,154.137 1130.939,191.883 1123.6,216.848C1118.607,233.324 1116.11,244.034 1116.11,244.034L1110.443,241.238Z" fill="#000000"/>
</g>
<path d="M1111.717,231.976C1111.971,231.899 1112.192,231.739 1112.346,231.522C1112.5,231.305 1112.577,231.044 1112.565,230.778C1110.918,173.36 1145.244,118.663 1169.634,102.76C1169.899,102.582 1170.084,102.308 1170.149,101.995C1170.215,101.683 1170.155,101.357 1169.984,101.088C1169.898,100.954 1169.786,100.839 1169.655,100.748C1169.524,100.658 1169.376,100.595 1169.221,100.562C1169.065,100.53 1168.904,100.529 1168.748,100.559C1168.592,100.589 1168.443,100.65 1168.311,100.738C1143.471,116.94 1108.396,172.586 1110.169,230.853C1110.169,231.011 1110.201,231.168 1110.263,231.314C1110.325,231.46 1110.416,231.591 1110.53,231.701C1110.644,231.81 1110.78,231.896 1110.928,231.952C1111.076,232.008 1111.234,232.033 1111.392,232.026L1111.717,231.976Z" fill="#FFFFFF"/>
<path d="M1113.414,269.273C1113.938,259.636 1124.199,247.703 1139.277,231.327C1155.979,213.202 1179.57,201.369 1182.94,189.336C1186.984,175.007 1173.504,165.396 1153.757,172.51C1134.01,179.625 1104.577,215.424 1108.321,258.463L1113.414,269.273Z" fill="#1C75BC"/>
<path d="M1109.919,266.153C1110.138,266.083 1110.331,265.951 1110.478,265.774C1110.624,265.597 1110.716,265.382 1110.743,265.154C1116.934,214.252 1149.113,189.587 1165.265,183.67C1165.415,183.616 1165.552,183.533 1165.669,183.426C1165.786,183.319 1165.881,183.19 1165.948,183.046C1166.015,182.903 1166.053,182.747 1166.061,182.589C1166.068,182.43 1166.043,182.272 1165.989,182.122C1165.935,181.973 1165.852,181.836 1165.745,181.719C1165.638,181.602 1165.509,181.507 1165.365,181.44C1165.222,181.373 1165.066,181.334 1164.908,181.327C1164.749,181.32 1164.591,181.344 1164.442,181.399C1146.592,187.964 1114.687,212.904 1108.346,264.855C1108.311,265.176 1108.404,265.497 1108.605,265.75C1108.807,266.002 1109.099,266.165 1109.42,266.203C1109.588,266.223 1109.758,266.206 1109.919,266.153Z" fill="#FFFFFF"/>
</svg>
