<svg width="86" height="86" viewBox="0 0 86 86" fill="none" xmlns="http://www.w3.org/2000/svg" xmlns:xlink="http://www.w3.org/1999/xlink">
<path d="M43.001,2.874C30.281,2.874 19.969,13.185 19.969,25.906C19.978,29.811 20.98,33.65 21.914,35.356L43.001,83.126L63.154,37.062L63.144,37.062C65.037,33.648 66.031,29.809 66.033,25.906C66.033,13.185 55.721,2.874 43.001,2.874ZM43.001,14.389C44.513,14.389 46.011,14.687 47.408,15.266C48.805,15.845 50.075,16.693 51.144,17.763C52.213,18.832 53.062,20.101 53.64,21.499C54.219,22.896 54.517,24.393 54.517,25.906C54.517,28.96 53.304,31.889 51.144,34.049C48.984,36.208 46.055,37.422 43.001,37.422C39.947,37.422 37.018,36.208 34.858,34.049C32.698,31.889 31.485,28.96 31.485,25.906C31.485,22.852 32.698,19.922 34.858,17.763C37.018,15.603 39.947,14.39 43.001,14.39L43.001,14.389Z" fill="#F47827"/>
<rect  x="31.273" y="13.03" width="26.061" height="26.061" fill="#F47827"/>
</svg>
