<svg width="80" height="80" viewBox="0 0 80 80" fill="none" xmlns="http://www.w3.org/2000/svg" xmlns:xlink="http://www.w3.org/1999/xlink">
<path d="M39.671,2.221C28.069,2.221 18.664,11.626 18.664,23.228C18.672,26.79 19.587,30.291 20.438,31.847L39.671,75.417L58.052,33.403L58.043,33.403C59.769,30.289 60.676,26.788 60.678,23.228C60.678,11.626 51.273,2.221 39.671,2.221ZM39.671,12.724C41.05,12.724 42.416,12.996 43.691,13.524C44.965,14.052 46.123,14.825 47.098,15.801C48.074,16.776 48.847,17.934 49.375,19.208C49.903,20.483 50.174,21.848 50.174,23.228C50.174,26.014 49.068,28.685 47.098,30.655C45.128,32.625 42.457,33.731 39.671,33.731C36.885,33.731 34.214,32.625 32.244,30.655C30.274,28.685 29.168,26.014 29.168,23.228C29.168,20.442 30.274,17.771 32.244,15.801C34.214,13.831 36.885,12.724 39.671,12.724L39.671,12.724Z" fill="#F47827"/>
<rect  x="28.977" y="11.484" width="23.769" height="23.769" fill="#F47827"/>
</svg>
