<svg width="2" height="2" viewBox="0 0 2 2" fill="none" xmlns="http://www.w3.org/2000/svg" xmlns:xlink="http://www.w3.org/1999/xlink">
<path d="M0.978,1.196L0.604,1.216L0.752,1.025L0.784,0.699L0.98,0.301L1.286,0.034L1.585,0.105L1.473,0.98L0.978,1.196Z" fill="#4B91EC" stroke="#DCDCDC" stroke-width="0.5" stroke-miterlimit="3.999327"/>
</svg>
