<svg width="0" height="0" viewBox="0 0 0 0" fill="none" xmlns="http://www.w3.org/2000/svg" xmlns:xlink="http://www.w3.org/1999/xlink">
<path d="M-0.291,-0.575L-0.919,-0.575L-0.873,-0.692L-0.581,-0.822L-0.367,-0.811L-0.281,-0.764L-0.291,-0.575Z" fill="#A1A28A" stroke="#DCDCDC" stroke-width="0.5" stroke-miterlimit="3.999327"/>
</svg>
