<svg width="28" height="28" viewBox="0 0 28 28" fill="none" xmlns="http://www.w3.org/2000/svg" xmlns:xlink="http://www.w3.org/1999/xlink">
<path d="M-0.727,-0.362L-0.873,-0.326L-0.982,-0.362L-0.903,-0.43L-0.739,-0.44L-0.677,-0.422L-0.727,-0.362ZM10.156,19.356L10.074,19.434L9.532,19.387L9.285,19.289L9.309,19.215L9.736,19.285L10.156,19.356ZM22.898,20.228L23.601,20.489L24.536,20.367L24.387,20.445L24.037,20.518L23.805,20.582L23.649,20.582L23.463,20.556L22.863,20.375L22.528,20.135L22.61,20.055L22.898,20.228ZM25.564,20.687L25.772,20.798L26.185,20.79L26.567,21.072L26.421,21.054L26.213,20.934L26.023,20.883L25.768,20.898L25.648,20.852L25.564,20.687ZM14.669,26.892L14.557,27.045L14.419,27.034L14.541,26.92L14.625,26.76L14.759,26.306L15.037,26.144L15.229,25.956L15.183,26.152L14.883,26.357L14.669,26.892Z" fill="#A1A28A" stroke="#DCDCDC" stroke-width="0.5" stroke-miterlimit="3.999327"/>
</svg>
