<svg width="4" height="4" viewBox="0 0 4 4" fill="none" xmlns="http://www.w3.org/2000/svg" xmlns:xlink="http://www.w3.org/1999/xlink">
<path d="M2.529,2.44L1.822,2.592L1.026,2.54L0.719,2.251L0.659,2.13L0.925,2.015L0.909,1.643L1.04,1.055L1.21,0.813L1.604,0.597L1.766,0.123L2.106,-0.193L2.559,-0.232L3.011,0.352L3.319,0.968L3.255,1.587L2.943,1.812L2.839,2.17L2.529,2.44Z" fill="#A1A28A" stroke="#DCDCDC" stroke-width="0.5" stroke-miterlimit="3.999327"/>
</svg>
