<svg width="86" height="64" viewBox="0 0 86 64" fill="none" xmlns="http://www.w3.org/2000/svg" xmlns:xlink="http://www.w3.org/1999/xlink">
<path d="M63.455,-0.268L62.906,-0.148L62.644,-0.17L62.446,-0.587L62.518,-0.845L62.606,-0.927L63.541,-0.825L63.621,-0.636L63.607,-0.457L63.455,-0.268ZM66.353,-0.115L65.99,-0.075L65.93,-0.329L66.042,-0.464L66.198,-0.527L66.475,-0.449L66.621,-0.339L66.613,-0.244L66.353,-0.115ZM63.439,2.376L63.318,2.47L63.09,2.163L63.054,2.034L63.465,1.875L63.689,1.958L63.439,2.376ZM69.337,3.757L70.177,4.024L70.441,3.995L70.173,4.258L69.335,4.402L69.058,4.529L68.72,4.447L68.538,4.142L69.337,3.757ZM69.138,4.972L68.722,5.373L68.722,4.947L68.872,4.89L69.008,4.89L69.138,4.972ZM71.43,7.975L71.224,8.062L71.21,7.512L71.476,7.617L71.58,7.706L71.536,7.857L71.43,7.975ZM35.53,35.758L35.494,35.996L35.388,35.767L35.043,35.4L34.915,35.237L35.069,35.262L35.53,35.758ZM49.775,37.023L49.675,37.08L49.803,36.662L49.947,36.609L49.775,37.023ZM33.088,38.254L33.114,38.345L32.998,38.34L32.79,38.073L32.716,37.842L32.584,37.579L32.402,37.388L32.382,37.212L32.376,36.934L32.582,37.359L32.778,37.7L32.92,37.98L33.088,38.254ZM-0.456,39.986L-0.558,40.026L-0.665,39.93L-0.711,39.783L-0.673,39.545L-0.402,39.701L-0.294,39.807L-0.456,39.986ZM43.833,39.865L43.611,39.895L43.069,39.581L43.277,39.581L43.587,39.777L43.833,39.865ZM44.564,39.787L44.87,40.046L44.464,39.868L43.949,39.792L44.144,39.745L44.43,39.752L44.564,39.787ZM-0.136,41.15L-0.358,41.157L-0.56,41.076L-0.51,40.531L-0.456,40.418L-0.144,40.602L0.118,41.077L-0.136,41.15ZM8.818,44.689L8.642,44.826L8.408,44.728L8.305,44.596L8.267,44.454L8.32,44.285L8.844,44.309L8.992,44.383L8.818,44.689ZM11.576,45.458L12.384,45.705L12.534,46.106L12.362,46.373L11.954,46.308L11.752,46.161L11.468,45.682L10.679,45.791L10.133,45.696L9.831,45.072L9.819,44.788L9.951,44.616L10.531,44.427L11.255,44.565L11.53,44.919L11.576,45.458ZM59.324,46.344L59.352,46.446L59.148,46.433L59.088,46.399L59.092,46.21L59.24,45.981L59.356,45.789L59.592,45.609L60.014,45.429L60.218,45.353L60.284,45.395L60.206,45.422L59.508,45.8L59.29,46.065L59.194,46.25L59.212,46.308L59.324,46.344ZM59.208,48.116L59.248,48.263L59.038,48.165L58.841,47.895L58.487,47.559L58.403,47.421L58.675,47.552L58.853,47.748L59.208,48.116ZM80.85,48.931L80.852,49.031L80.312,48.521L80.524,48.561L80.85,48.931ZM60.02,49.133L60.096,49.327L59.96,49.236L59.526,49.048L59.478,48.89L60.02,49.133ZM84.651,50.012L84.537,50.128L84.527,50.015L84.369,49.961L84.152,49.846L83.856,49.716L83.696,49.694L83.616,49.618L83.728,49.578L83.91,49.638L84.165,49.757L84.461,49.877L84.651,50.012ZM72.246,62.455L72.082,62.557L72.142,62.419L72.016,62.118L71.892,62.074L72.016,61.989L72.192,62.216L72.246,62.455Z" fill="#F7B329" stroke="#DCDCDC" stroke-width="0.5" stroke-miterlimit="3.999327"/>
</svg>
