<svg width="40" height="36" viewBox="0 0 40 36" fill="none" xmlns="http://www.w3.org/2000/svg" xmlns:xlink="http://www.w3.org/1999/xlink">
<path d="M18.516,1.249C19.286,-0.084 21.21,-0.084 21.98,1.249L39.301,31.249C40.07,32.583 39.108,34.249 37.569,34.249L2.927,34.249C1.388,34.249 0.426,32.583 1.195,31.249L18.516,1.249Z" transform="rotate(1.197 20.248 22.249)" fill="#FFFFFF" stroke="#D9D9D9" stroke-width="0.8" stroke-miterlimit="3.999327"/>
</svg>
