<svg width="22" height="24" viewBox="0 0 22 24" fill="none" xmlns="http://www.w3.org/2000/svg" xmlns:xlink="http://www.w3.org/1999/xlink">
<path d="M20.123,0.983L19.783,1.092L19.624,0.702L19.678,0.248L19.901,-0.1L20.147,-0.211L20.195,-0.251L20.435,-0.703L20.481,-0.454L20.331,0.373L20.135,0.695L20.123,0.983ZM0.924,23.126L0.798,23.147L0.716,23.131L0.726,23.058L0.81,22.984L0.926,22.951L1.014,22.977L1.004,23.046L0.924,23.126Z" fill="#F7B329" stroke="#DCDCDC" stroke-width="0.5" stroke-miterlimit="3.999327"/>
</svg>
