<svg width="60" height="12" viewBox="0 0 60 12" fill="none" xmlns="http://www.w3.org/2000/svg" xmlns:xlink="http://www.w3.org/1999/xlink">
<path d="M0,6C0,2.686 2.686,0 6,0L54,0C57.314,0 60,2.686 60,6L60,6C60,9.314 57.314,12 54,12L6,12C2.686,12 0,9.314 0,6L0,6Z" fill="#EAE7E7"/>
</svg>
