<svg width="30" height="28" viewBox="0 0 30 28" fill="none" xmlns="http://www.w3.org/2000/svg" xmlns:xlink="http://www.w3.org/1999/xlink">
<path d="M23.87,13.415C23.87,18.708 19.579,22.999 14.286,22.999L14.286,25.999C21.236,25.999 26.87,20.365 26.87,13.415L23.87,13.415ZM14.286,22.999C8.994,22.999 4.703,18.708 4.703,13.415L1.703,13.415C1.703,20.365 7.337,25.999 14.286,25.999L14.286,22.999ZM4.703,13.415C4.703,8.123 8.994,3.832 14.286,3.832L14.286,0.832C7.337,0.832 1.703,6.466 1.703,13.415L4.703,13.415ZM14.286,3.832C19.579,3.832 23.87,8.123 23.87,13.415L26.87,13.415C26.87,6.466 21.236,0.832 14.286,0.832L14.286,3.832Z" fill="#292D32" fill-opacity="0.5"/>
<path d="M25.476,26.726C26.062,27.312 27.011,27.312 27.597,26.726C28.183,26.14 28.183,25.19 27.597,24.605L25.476,26.726ZM25.264,22.271C24.678,21.686 23.728,21.686 23.142,22.271C22.557,22.857 22.557,23.807 23.142,24.393L25.264,22.271ZM27.597,24.605L25.264,22.271L23.142,24.393L25.476,26.726L27.597,24.605Z" fill="#292D32" fill-opacity="0.5"/>
</svg>
