<svg width="2" height="2" viewBox="0 0 2 2" fill="none" xmlns="http://www.w3.org/2000/svg" xmlns:xlink="http://www.w3.org/1999/xlink">
<path d="M1.184,0.341L0.854,0.394L0.688,0.107L0.936,-0.229L1.288,-0.281L1.35,-0.022L1.184,0.341Z" fill="#CCAA5A" stroke="#DCDCDC" stroke-width="0.5" stroke-miterlimit="3.999327"/>
</svg>
