<svg width="6" height="10" viewBox="0 0 6 10" fill="none" xmlns="http://www.w3.org/2000/svg" xmlns:xlink="http://www.w3.org/1999/xlink">
<path d="M4.795,0.515L4.587,0.647L4.339,0.535L4.273,0.333L4.593,-0.055L4.745,-0.151L4.871,-0.07L4.947,0.037L4.957,0.194L4.795,0.515ZM0.51,7.839L-0.07,8.209L-0.278,8.113L-0.406,7.855L-0.567,7.298L-0.515,7.031L-0.254,6.726L0.316,6.423L0.658,6.401L1.01,6.8L1.012,7.216L0.51,7.839Z" fill="#CCAA5A" stroke="#DCDCDC" stroke-width="0.5" stroke-miterlimit="3.999327"/>
</svg>
