<svg width="108" height="26" viewBox="0 0 108 26" fill="none" xmlns="http://www.w3.org/2000/svg" xmlns:xlink="http://www.w3.org/1999/xlink">
<path d="M1.903,0.847L1.494,0.913L1.128,0.762L0.92,0.361L1.382,0.018L1.619,0.254L1.795,0.517L1.903,0.847ZM99.224,21.032L99.675,21.076L99.951,21.005L101.188,19.983L101.512,19.958L101.48,20.74L101.798,21.092L101.396,21.183L100.633,21.145L100.459,21.593L101.228,22.167L101.612,22.245L101.924,22.24L102.51,22.109L102.977,21.902L103.703,21.423L104.139,21.236L104.962,21.228L105.392,20.775L105.592,20.635L106.073,20.655L106.511,20.833L106.773,21.245L106.911,21.746L106.805,22.243L106.513,22.728L105.979,23.024L106.101,23.378L105.959,23.558L105.691,23.569L105.464,23.487L105.128,23.071L104.724,22.85L103.757,22.864L103.321,22.893L103.245,23.211L103.015,23.456L102.775,23.59L102.45,23.532L102.39,23.667L102.564,24.001L102.987,24.422L103.719,24.716L104.149,24.776L104.206,24.215L104.726,24.15L105.184,24.317L105.518,24.731L105.246,24.867L105.008,25.086L104.958,25.37L104.494,25.678L104.216,25.713L103.341,25.56L102.819,25.214L102.696,24.967L102.374,24.874L102.012,25.192L101.624,25.261L100.865,24.996L100.163,24.571L99.725,24.411L99.044,24.309L98.666,25.273L98.145,25.684L97.469,25.722L97.145,25.642L96.965,25.263L97.011,24.858L97.121,24.469L97.333,24.073L97.465,23.641L97.409,23.233L97.165,22.935L97.293,22.399L97.053,21.982L97.137,21.675L97.527,21.464L97.361,21.279L97.153,21.232L97.003,20.989L96.887,20.695L97.039,20.143L97.265,19.613L97.237,19.015L97.619,18.451L97.947,17.819L98.191,17.568L98.498,17.53L98.632,17.706L98.698,18.049L98.576,18.273L98.864,18.374L98.94,19.106L98.76,19.407L98.732,19.698L98.358,20.317L98.466,20.815L99.224,21.032ZM99.771,20.64L99.426,20.7L99.318,20.448L99.33,20.114L99.138,19.849L99.028,19.554L99.124,19.277L99.679,19.244L100.253,19.333L100.399,19.803L99.985,20.446L99.771,20.64Z" fill="#F7B329" stroke="#DCDCDC" stroke-width="0.5" stroke-miterlimit="3.999327"/>
</svg>
