<svg width="48" height="48" viewBox="0 0 48 48" fill="none" xmlns="http://www.w3.org/2000/svg" xmlns:xlink="http://www.w3.org/1999/xlink">
<path d="M23.001,1.5C18.763,1.503 14.613,2.703 11.027,4.962L34.941,4.962C31.365,2.709 27.227,1.51 23.001,1.5L23.001,1.5Z" fill="#B22234"/>
<path d="M11.026,4.961C9.482,5.939 8.062,7.101 6.799,8.422L39.227,8.422C37.945,7.097 36.505,5.935 34.94,4.961L11.026,4.961Z" fill="#FFFFFF"/>
<path d="M6.799,8.424C5.777,9.486 4.863,10.645 4.068,11.885L41.956,11.885C41.162,10.645 40.248,9.486 39.227,8.424L6.799,8.424Z" fill="#B22234"/>
<path d="M4.068,11.885C3.358,12.983 2.745,14.141 2.236,15.346L43.746,15.346C43.251,14.143 42.652,12.985 41.957,11.885L4.068,11.885Z" fill="#FFFFFF"/>
<path d="M2.237,15.346C1.776,16.468 1.407,17.626 1.133,18.807L44.866,18.807C44.587,17.625 44.213,16.467 43.747,15.346L2.237,15.346Z" fill="#B22234"/>
<path d="M1.132,18.809C0.86,19.947 0.678,21.104 0.586,22.27L45.426,22.27C45.329,21.103 45.142,19.946 44.865,18.809L1.132,18.809Z" fill="#FFFFFF"/>
<path d="M0.587,22.27C0.536,22.845 0.507,23.422 0.5,24C0.502,24.578 0.527,25.155 0.573,25.731L45.413,25.731C45.464,25.155 45.493,24.578 45.5,24C45.498,23.423 45.473,22.845 45.427,22.27L0.587,22.27Z" fill="#B22234"/>
<path d="M0.574,25.73C0.671,26.897 0.859,28.055 1.135,29.192L44.868,29.192C45.14,28.054 45.323,26.897 45.414,25.73L0.574,25.73Z" fill="#FFFFFF"/>
<path d="M1.135,29.191C1.414,30.374 1.788,31.531 2.254,32.653L43.764,32.653C44.224,31.531 44.593,30.373 44.868,29.191L1.135,29.191Z" fill="#B22234"/>
<path d="M2.254,32.654C2.749,33.858 3.348,35.016 4.044,36.116L41.932,36.116C42.642,35.017 43.255,33.859 43.764,32.654L2.254,32.654Z" fill="#FFFFFF"/>
<path d="M4.043,36.115C4.837,37.356 5.752,38.515 6.773,39.577L39.201,39.577C40.222,38.515 41.136,37.356 41.931,36.115L4.043,36.115Z" fill="#B22234"/>
<path d="M6.773,39.576C8.055,40.901 9.495,42.064 11.06,43.038L34.974,43.038C36.519,42.06 37.938,40.897 39.202,39.576L6.773,39.576Z" fill="#FFFFFF"/>
<path d="M11.059,43.039C14.635,45.291 18.773,46.491 22.999,46.501C27.237,46.497 31.387,45.297 34.972,43.039L11.059,43.039Z" fill="#B22234"/>
<path d="M23,1.5C17.033,1.5 11.31,3.871 7.09,8.09C2.871,12.31 0.5,18.033 0.5,24C0.503,24.595 0.529,25.189 0.579,25.781L24.781,25.781L24.781,1.589C24.189,1.536 23.595,1.506 23,1.5L23,1.5Z" fill="#3C3B6E"/>
<path d="M14.948,3.017C14.648,3.126 14.351,3.242 14.056,3.364L14.384,3.614L14.162,4.332L14.751,3.893L15.357,4.353L15.13,3.61L15.736,3.158L14.991,3.158L14.948,3.017ZM18.764,2.402L18.531,3.157L17.789,3.157L18.389,3.614L18.167,4.332L18.756,3.893L19.362,4.353L19.134,3.61L19.74,3.157L18.996,3.157L18.764,2.402L18.764,2.402ZM22.769,2.402L22.536,3.157L21.793,3.157L22.394,3.614L22.172,4.332L22.761,3.893L23.367,4.353L23.139,3.61L23.745,3.157L23.001,3.157L22.769,2.402ZM9.159,6.295C9.053,6.373 8.948,6.453 8.844,6.534L9.35,6.919L9.159,6.295ZM12.757,4.968L12.524,5.723L11.781,5.723L12.382,6.18L12.16,6.898L12.749,6.458L13.355,6.919L13.127,6.176L13.733,5.723L12.989,5.723L12.757,4.968ZM16.762,4.968L16.528,5.723L15.786,5.723L16.387,6.18L16.165,6.898L16.753,6.458L17.36,6.919L17.132,6.176L17.738,5.723L16.993,5.723L16.762,4.968L16.762,4.968ZM20.767,4.968L20.533,5.723L19.791,5.723L20.392,6.18L20.169,6.898L20.758,6.458L21.364,6.919L21.137,6.176L21.743,5.723L20.998,5.723L20.767,4.968L20.767,4.968ZM6.963,8.228C6.741,8.463 6.524,8.703 6.312,8.947L6.153,9.464L6.741,9.024L7.348,9.485L7.12,8.741L7.726,8.289L6.981,8.289L6.963,8.228ZM10.755,7.534L10.521,8.289L9.779,8.289L10.38,8.745L10.157,9.464L10.746,9.024L11.352,9.485L11.125,8.741L11.731,8.289L10.986,8.289L10.755,7.534L10.755,7.534ZM14.76,7.534L14.526,8.289L13.784,8.289L14.385,8.745L14.162,9.464L14.751,9.024L15.357,9.485L15.13,8.741L15.736,8.289L14.991,8.289L14.76,7.534L14.76,7.534ZM18.764,7.534L18.531,8.289L17.789,8.289L18.389,8.745L18.167,9.464L18.756,9.024L19.362,9.485L19.134,8.741L19.74,8.289L18.996,8.289L18.764,7.534L18.764,7.534ZM22.769,7.534L22.536,8.289L21.793,8.289L22.394,8.745L22.172,9.464L22.761,9.024L23.367,9.485L23.139,8.741L23.745,8.289L23.001,8.289L22.769,7.534L22.769,7.534ZM4.918,10.654C4.71,10.93 4.51,11.211 4.315,11.497L4.15,12.029L4.739,11.59L5.345,12.05L5.118,11.307L5.724,10.854L4.979,10.854L4.918,10.654ZM8.753,10.099L8.519,10.854L7.777,10.854L8.377,11.311L8.155,12.029L8.744,11.59L9.35,12.05L9.122,11.307L9.728,10.854L8.984,10.854L8.753,10.099L8.753,10.099ZM12.757,10.099L12.524,10.854L11.781,10.854L12.382,11.311L12.16,12.029L12.749,11.59L13.355,12.05L13.127,11.307L13.733,10.854L12.989,10.854L12.757,10.099L12.757,10.099ZM16.762,10.099L16.528,10.854L15.786,10.854L16.387,11.311L16.165,12.029L16.753,11.59L17.36,12.05L17.132,11.307L17.738,10.854L16.993,10.854L16.762,10.099L16.762,10.099ZM20.767,10.099L20.533,10.854L19.791,10.854L20.392,11.311L20.169,12.029L20.758,11.59L21.364,12.05L21.137,11.307L21.743,10.854L20.998,10.854L20.767,10.099L20.767,10.099ZM3.163,13.42C3.028,13.672 2.899,13.927 2.774,14.184L3.343,14.616L3.115,13.873L3.721,13.42L3.163,13.42ZM6.75,12.665L6.516,13.42L5.774,13.42L6.375,13.877L6.153,14.595L6.742,14.155L7.348,14.616L7.12,13.873L7.726,13.42L6.981,13.42L6.75,12.665ZM10.755,12.665L10.521,13.42L9.779,13.42L10.38,13.877L10.157,14.595L10.746,14.155L11.352,14.616L11.125,13.873L11.731,13.42L10.986,13.42L10.755,12.665L10.755,12.665ZM14.76,12.665L14.526,13.42L13.784,13.42L14.385,13.877L14.162,14.595L14.751,14.155L15.357,14.616L15.13,13.873L15.736,13.42L14.991,13.42L14.76,12.665ZM18.764,12.665L18.531,13.42L17.789,13.42L18.389,13.877L18.167,14.595L18.756,14.155L19.362,14.616L19.134,13.873L19.74,13.42L18.996,13.42L18.764,12.665L18.764,12.665ZM22.769,12.665L22.536,13.42L21.793,13.42L22.394,13.877L22.172,14.595L22.761,14.155L23.367,14.616L23.139,13.873L23.745,13.42L23.001,13.42L22.769,12.665ZM4.748,15.23L4.514,15.986L3.772,15.986L4.373,16.442L4.15,17.16L4.739,16.721L5.345,17.181L5.118,16.438L5.724,15.986L4.979,15.986L4.748,15.23L4.748,15.23ZM8.753,15.23L8.519,15.986L7.777,15.986L8.377,16.442L8.155,17.16L8.744,16.721L9.35,17.181L9.122,16.438L9.728,15.986L8.984,15.986L8.753,15.23ZM12.757,15.23L12.524,15.986L11.781,15.986L12.382,16.442L12.16,17.16L12.749,16.721L13.355,17.181L13.127,16.438L13.733,15.986L12.989,15.986L12.757,15.23ZM16.762,15.23L16.528,15.986L15.786,15.986L16.387,16.442L16.165,17.16L16.753,16.721L17.36,17.181L17.132,16.438L17.738,15.986L16.993,15.986L16.762,15.23L16.762,15.23ZM20.767,15.23L20.533,15.986L19.791,15.986L20.392,16.442L20.169,17.16L20.758,16.721L21.364,17.181L21.137,16.438L21.743,15.986L20.998,15.986L20.767,15.23L20.767,15.23ZM2.745,17.796L2.512,18.551L1.77,18.551L2.37,19.008L2.148,19.726L2.737,19.286L3.343,19.747L3.115,19.004L3.721,18.551L2.977,18.551L2.745,17.796ZM6.75,17.796L6.516,18.551L5.774,18.551L6.375,19.008L6.153,19.726L6.742,19.286L7.348,19.747L7.12,19.004L7.726,18.551L6.981,18.551L6.75,17.796ZM10.755,17.796L10.521,18.551L9.779,18.551L10.38,19.008L10.157,19.726L10.746,19.286L11.352,19.747L11.125,19.004L11.731,18.551L10.986,18.551L10.755,17.796L10.755,17.796ZM14.76,17.796L14.526,18.551L13.784,18.551L14.385,19.008L14.162,19.726L14.751,19.286L15.357,19.747L15.13,19.004L15.736,18.551L14.991,18.551L14.76,17.796ZM18.764,17.796L18.531,18.551L17.789,18.551L18.389,19.008L18.167,19.726L18.756,19.286L19.362,19.747L19.134,19.004L19.74,18.551L18.996,18.551L18.764,17.796L18.764,17.796ZM22.769,17.796L22.536,18.551L21.793,18.551L22.394,19.008L22.172,19.726L22.761,19.286L23.367,19.747L23.139,19.004L23.745,18.551L23.001,18.551L22.769,17.796ZM4.748,20.362L4.514,21.117L3.772,21.117L4.373,21.573L4.15,22.292L4.739,21.852L5.345,22.313L5.118,21.57L5.724,21.117L4.979,21.117L4.748,20.362L4.748,20.362ZM8.753,20.362L8.519,21.117L7.777,21.117L8.377,21.573L8.155,22.292L8.744,21.852L9.35,22.313L9.122,21.57L9.728,21.117L8.984,21.117L8.753,20.362ZM12.757,20.362L12.524,21.117L11.781,21.117L12.382,21.573L12.16,22.292L12.749,21.852L13.355,22.313L13.127,21.57L13.733,21.117L12.989,21.117L12.757,20.362ZM16.762,20.362L16.528,21.117L15.786,21.117L16.387,21.573L16.165,22.292L16.753,21.852L17.36,22.313L17.132,21.57L17.738,21.117L16.993,21.117L16.762,20.362L16.762,20.362ZM20.767,20.362L20.533,21.117L19.791,21.117L20.392,21.573L20.169,22.292L20.758,21.852L21.364,22.313L21.137,21.57L21.743,21.117L20.998,21.117L20.767,20.362L20.767,20.362ZM2.745,22.927L2.512,23.683L1.77,23.683L2.37,24.139L2.148,24.857L2.737,24.418L3.343,24.878L3.115,24.135L3.721,23.683L2.977,23.683L2.745,22.927L2.745,22.927ZM6.75,22.927L6.516,23.683L5.774,23.683L6.375,24.139L6.153,24.857L6.742,24.418L7.348,24.878L7.12,24.135L7.726,23.683L6.981,23.683L6.75,22.927L6.75,22.927ZM10.755,22.927L10.521,23.683L9.779,23.683L10.38,24.139L10.157,24.857L10.746,24.418L11.352,24.878L11.125,24.135L11.731,23.683L10.986,23.683L10.755,22.927L10.755,22.927ZM14.76,22.927L14.526,23.683L13.784,23.683L14.385,24.139L14.162,24.857L14.751,24.418L15.357,24.878L15.13,24.135L15.736,23.683L14.991,23.683L14.76,22.927L14.76,22.927ZM18.764,22.927L18.531,23.683L17.789,23.683L18.389,24.139L18.167,24.857L18.756,24.418L19.362,24.878L19.134,24.135L19.74,23.683L18.996,23.683L18.764,22.927L18.764,22.927ZM22.769,22.927L22.536,23.683L21.793,23.683L22.394,24.139L22.172,24.857L22.761,24.418L23.367,24.878L23.139,24.135L23.745,23.683L23.001,23.683L22.769,22.927L22.769,22.927Z" fill="#FFFFFF"/>
</svg>
