<svg width="48" height="48" viewBox="0 0 48 48" fill="none" xmlns="http://www.w3.org/2000/svg" xmlns:xlink="http://www.w3.org/1999/xlink">
<path d="M23.005,1.5C18.767,1.503 14.617,2.703 11.031,4.962L34.945,4.962C31.369,2.709 27.231,1.51 23.005,1.5L23.005,1.5Z" fill="#B22234"/>
<path d="M11.024,4.962C9.48,5.94 8.06,7.102 6.797,8.423L39.225,8.423C37.943,7.098 36.503,5.936 34.938,4.962L11.024,4.962Z" fill="#FFFFFF"/>
<path d="M6.801,8.423C5.779,9.485 4.865,10.644 4.07,11.884L41.958,11.884C41.164,10.644 40.25,9.485 39.229,8.423L6.801,8.423Z" fill="#B22234"/>
<path d="M4.067,11.885C3.356,12.983 2.743,14.141 2.234,15.346L43.744,15.346C43.249,14.143 42.65,12.985 41.955,11.885L4.067,11.885Z" fill="#FFFFFF"/>
<path d="M2.237,15.346C1.776,16.468 1.407,17.626 1.133,18.807L44.866,18.807C44.587,17.625 44.213,16.467 43.747,15.346L2.237,15.346Z" fill="#B22234"/>
<path d="M1.132,18.808C0.86,19.946 0.678,21.103 0.586,22.269L45.426,22.269C45.329,21.103 45.142,19.945 44.865,18.808L1.132,18.808Z" fill="#FFFFFF"/>
<path d="M0.587,22.27C0.536,22.845 0.507,23.422 0.5,24C0.502,24.578 0.527,25.155 0.573,25.731L45.413,25.731C45.464,25.155 45.493,24.578 45.5,24C45.498,23.423 45.473,22.845 45.427,22.27L0.587,22.27Z" fill="#B22234"/>
<path d="M0.578,25.73C0.675,26.897 0.862,28.055 1.139,29.192L44.872,29.192C45.144,28.054 45.327,26.897 45.418,25.73L0.578,25.73Z" fill="#FFFFFF"/>
<path d="M1.133,29.192C1.412,30.375 1.786,31.532 2.252,32.654L43.762,32.654C44.222,31.532 44.591,30.374 44.866,29.192L1.133,29.192Z" fill="#B22234"/>
<path d="M2.25,32.654C2.745,33.858 3.344,35.016 4.04,36.116L41.928,36.116C42.638,35.017 43.251,33.859 43.76,32.654L2.25,32.654Z" fill="#FFFFFF"/>
<path d="M4.047,36.115C4.841,37.356 5.755,38.515 6.776,39.577L39.205,39.577C40.226,38.515 41.14,37.356 41.935,36.115L4.047,36.115Z" fill="#B22234"/>
<path d="M6.773,39.577C8.055,40.902 9.495,42.065 11.06,43.039L34.974,43.039C36.519,42.061 37.938,40.898 39.202,39.577L6.773,39.577Z" fill="#FFFFFF"/>
<path d="M11.063,43.038C14.639,45.29 18.777,46.49 23.003,46.5C27.24,46.496 31.391,45.296 34.976,43.038L11.063,43.038Z" fill="#B22234"/>
<path d="M23,1.5C17.033,1.5 11.31,3.871 7.09,8.09C2.871,12.31 0.5,18.033 0.5,24C0.503,24.595 0.529,25.189 0.579,25.781L24.781,25.781L24.781,1.589C24.189,1.536 23.595,1.506 23,1.5L23,1.5Z" fill="#3C3B6E"/>
<path d="M14.944,3.017C14.644,3.126 14.347,3.242 14.052,3.364L14.381,3.614L14.158,4.332L14.747,3.893L15.353,4.353L15.126,3.61L15.732,3.158L14.987,3.158L14.944,3.017ZM18.761,2.402L18.527,3.157L17.785,3.157L18.385,3.614L18.163,4.332L18.752,3.893L19.358,4.353L19.13,3.61L19.736,3.157L18.992,3.157L18.761,2.402L18.761,2.402ZM22.765,2.402L22.532,3.157L21.789,3.157L22.39,3.614L22.168,4.332L22.757,3.893L23.363,4.353L23.135,3.61L23.741,3.157L22.997,3.157L22.765,2.402ZM9.155,6.295C9.049,6.373 8.944,6.453 8.84,6.534L9.346,6.919L9.155,6.295ZM12.753,4.968L12.52,5.723L11.778,5.723L12.378,6.18L12.156,6.898L12.745,6.458L13.351,6.919L13.123,6.176L13.729,5.723L12.985,5.723L12.753,4.968ZM16.758,4.968L16.524,5.723L15.782,5.723L16.383,6.18L16.161,6.898L16.75,6.458L17.356,6.919L17.128,6.176L17.734,5.723L16.989,5.723L16.758,4.968L16.758,4.968ZM20.763,4.968L20.529,5.723L19.787,5.723L20.388,6.18L20.165,6.898L20.754,6.458L21.36,6.919L21.133,6.176L21.739,5.723L20.994,5.723L20.763,4.968L20.763,4.968ZM6.959,8.228C6.737,8.463 6.52,8.703 6.309,8.947L6.149,9.464L6.738,9.024L7.344,9.485L7.116,8.741L7.722,8.289L6.977,8.289L6.959,8.228ZM10.751,7.534L10.517,8.289L9.775,8.289L10.376,8.745L10.154,9.464L10.742,9.024L11.349,9.485L11.121,8.741L11.727,8.289L10.982,8.289L10.751,7.534L10.751,7.534ZM14.756,7.534L14.522,8.289L13.78,8.289L14.381,8.745L14.158,9.464L14.747,9.024L15.353,9.485L15.126,8.741L15.732,8.289L14.987,8.289L14.756,7.534L14.756,7.534ZM18.761,7.534L18.527,8.289L17.785,8.289L18.385,8.745L18.163,9.464L18.752,9.024L19.358,9.485L19.13,8.741L19.736,8.289L18.992,8.289L18.761,7.534L18.761,7.534ZM22.765,7.534L22.532,8.289L21.789,8.289L22.39,8.745L22.168,9.464L22.757,9.024L23.363,9.485L23.135,8.741L23.741,8.289L22.997,8.289L22.765,7.534L22.765,7.534ZM4.914,10.654C4.707,10.93 4.506,11.211 4.311,11.497L4.146,12.029L4.735,11.59L5.341,12.05L5.114,11.307L5.72,10.854L4.975,10.854L4.914,10.654ZM8.749,10.099L8.515,10.854L7.773,10.854L8.373,11.311L8.151,12.029L8.74,11.59L9.346,12.05L9.118,11.307L9.725,10.854L8.98,10.854L8.749,10.099L8.749,10.099ZM12.753,10.099L12.52,10.854L11.778,10.854L12.378,11.311L12.156,12.029L12.745,11.59L13.351,12.05L13.123,11.307L13.729,10.854L12.985,10.854L12.753,10.099L12.753,10.099ZM16.758,10.099L16.524,10.854L15.782,10.854L16.383,11.311L16.161,12.029L16.75,11.59L17.356,12.05L17.128,11.307L17.734,10.854L16.989,10.854L16.758,10.099L16.758,10.099ZM20.763,10.099L20.529,10.854L19.787,10.854L20.388,11.311L20.165,12.029L20.754,11.59L21.36,12.05L21.133,11.307L21.739,10.854L20.994,10.854L20.763,10.099L20.763,10.099ZM3.159,13.42C3.024,13.672 2.895,13.927 2.77,14.184L3.339,14.616L3.111,13.873L3.717,13.42L3.159,13.42ZM6.746,12.665L6.513,13.42L5.77,13.42L6.371,13.877L6.149,14.595L6.738,14.155L7.344,14.616L7.116,13.873L7.722,13.42L6.978,13.42L6.746,12.665ZM10.751,12.665L10.517,13.42L9.775,13.42L10.376,13.877L10.154,14.595L10.742,14.155L11.349,14.616L11.121,13.873L11.727,13.42L10.982,13.42L10.751,12.665L10.751,12.665ZM14.756,12.665L14.522,13.42L13.78,13.42L14.381,13.877L14.158,14.595L14.747,14.155L15.353,14.616L15.126,13.873L15.732,13.42L14.987,13.42L14.756,12.665ZM18.761,12.665L18.527,13.42L17.785,13.42L18.385,13.877L18.163,14.595L18.752,14.155L19.358,14.616L19.13,13.873L19.736,13.42L18.992,13.42L18.761,12.665L18.761,12.665ZM22.765,12.665L22.532,13.42L21.789,13.42L22.39,13.877L22.168,14.595L22.757,14.155L23.363,14.616L23.135,13.873L23.741,13.42L22.997,13.42L22.765,12.665ZM4.744,15.23L4.51,15.986L3.768,15.986L4.369,16.442L4.146,17.16L4.735,16.721L5.341,17.181L5.114,16.438L5.72,15.986L4.975,15.986L4.744,15.23L4.744,15.23ZM8.749,15.23L8.515,15.986L7.773,15.986L8.373,16.442L8.151,17.16L8.74,16.721L9.346,17.181L9.118,16.438L9.725,15.986L8.98,15.986L8.749,15.23ZM12.753,15.23L12.52,15.986L11.778,15.986L12.378,16.442L12.156,17.16L12.745,16.721L13.351,17.181L13.123,16.438L13.729,15.986L12.985,15.986L12.753,15.23ZM16.758,15.23L16.524,15.986L15.782,15.986L16.383,16.442L16.161,17.16L16.75,16.721L17.356,17.181L17.128,16.438L17.734,15.986L16.989,15.986L16.758,15.23L16.758,15.23ZM20.763,15.23L20.529,15.986L19.787,15.986L20.388,16.442L20.165,17.16L20.754,16.721L21.36,17.181L21.133,16.438L21.739,15.986L20.994,15.986L20.763,15.23L20.763,15.23ZM2.742,17.796L2.508,18.551L1.766,18.551L2.366,19.008L2.144,19.726L2.733,19.286L3.339,19.747L3.111,19.004L3.717,18.551L2.973,18.551L2.742,17.796ZM6.746,17.796L6.513,18.551L5.77,18.551L6.371,19.008L6.149,19.726L6.738,19.286L7.344,19.747L7.116,19.004L7.722,18.551L6.978,18.551L6.746,17.796ZM10.751,17.796L10.517,18.551L9.775,18.551L10.376,19.008L10.154,19.726L10.742,19.286L11.349,19.747L11.121,19.004L11.727,18.551L10.982,18.551L10.751,17.796L10.751,17.796ZM14.756,17.796L14.522,18.551L13.78,18.551L14.381,19.008L14.158,19.726L14.747,19.286L15.353,19.747L15.126,19.004L15.732,18.551L14.987,18.551L14.756,17.796ZM18.761,17.796L18.527,18.551L17.785,18.551L18.385,19.008L18.163,19.726L18.752,19.286L19.358,19.747L19.13,19.004L19.736,18.551L18.992,18.551L18.761,17.796L18.761,17.796ZM22.765,17.796L22.532,18.551L21.789,18.551L22.39,19.008L22.168,19.726L22.757,19.286L23.363,19.747L23.135,19.004L23.741,18.551L22.997,18.551L22.765,17.796ZM4.744,20.362L4.51,21.117L3.768,21.117L4.369,21.573L4.146,22.292L4.735,21.852L5.341,22.313L5.114,21.57L5.72,21.117L4.975,21.117L4.744,20.362L4.744,20.362ZM8.749,20.362L8.515,21.117L7.773,21.117L8.373,21.573L8.151,22.292L8.74,21.852L9.346,22.313L9.118,21.57L9.725,21.117L8.98,21.117L8.749,20.362ZM12.753,20.362L12.52,21.117L11.778,21.117L12.378,21.573L12.156,22.292L12.745,21.852L13.351,22.313L13.123,21.57L13.729,21.117L12.985,21.117L12.753,20.362ZM16.758,20.362L16.524,21.117L15.782,21.117L16.383,21.573L16.161,22.292L16.75,21.852L17.356,22.313L17.128,21.57L17.734,21.117L16.989,21.117L16.758,20.362L16.758,20.362ZM20.763,20.362L20.529,21.117L19.787,21.117L20.388,21.573L20.165,22.292L20.754,21.852L21.36,22.313L21.133,21.57L21.739,21.117L20.994,21.117L20.763,20.362L20.763,20.362ZM2.742,22.927L2.508,23.683L1.766,23.683L2.366,24.139L2.144,24.857L2.733,24.418L3.339,24.878L3.111,24.135L3.717,23.683L2.973,23.683L2.742,22.927L2.742,22.927ZM6.746,22.927L6.513,23.683L5.77,23.683L6.371,24.139L6.149,24.857L6.738,24.418L7.344,24.878L7.116,24.135L7.722,23.683L6.978,23.683L6.746,22.927L6.746,22.927ZM10.751,22.927L10.517,23.683L9.775,23.683L10.376,24.139L10.154,24.857L10.742,24.418L11.349,24.878L11.121,24.135L11.727,23.683L10.982,23.683L10.751,22.927L10.751,22.927ZM14.756,22.927L14.522,23.683L13.78,23.683L14.381,24.139L14.158,24.857L14.747,24.418L15.353,24.878L15.126,24.135L15.732,23.683L14.987,23.683L14.756,22.927L14.756,22.927ZM18.761,22.927L18.527,23.683L17.785,23.683L18.385,24.139L18.163,24.857L18.752,24.418L19.358,24.878L19.13,24.135L19.736,23.683L18.992,23.683L18.761,22.927L18.761,22.927ZM22.765,22.927L22.532,23.683L21.789,23.683L22.39,24.139L22.168,24.857L22.757,24.418L23.363,24.878L23.135,24.135L23.741,23.683L22.997,23.683L22.765,22.927L22.765,22.927Z" fill="#FFFFFF"/>
</svg>
