<svg width="48" height="48" viewBox="0 0 48 48" fill="none" xmlns="http://www.w3.org/2000/svg" xmlns:xlink="http://www.w3.org/1999/xlink">
<path d="M24.005,1.5C19.767,1.503 15.617,2.703 12.031,4.962L35.945,4.962C32.369,2.709 28.231,1.51 24.005,1.5L24.005,1.5Z" fill="#B22234"/>
<path d="M12.024,4.961C10.48,5.939 9.06,7.101 7.797,8.422L40.225,8.422C38.943,7.097 37.503,5.935 35.938,4.961L12.024,4.961Z" fill="#FFFFFF"/>
<path d="M7.801,8.422C6.779,9.484 5.865,10.643 5.07,11.883L42.958,11.883C42.164,10.643 41.25,9.484 40.229,8.422L7.801,8.422Z" fill="#B22234"/>
<path d="M5.067,11.885C4.356,12.983 3.743,14.141 3.234,15.346L44.744,15.346C44.249,14.143 43.65,12.985 42.955,11.885L5.067,11.885Z" fill="#FFFFFF"/>
<path d="M3.237,15.346C2.776,16.468 2.407,17.626 2.133,18.807L45.866,18.807C45.587,17.625 45.213,16.467 44.747,15.346L3.237,15.346Z" fill="#B22234"/>
<path d="M2.132,18.809C1.86,19.947 1.678,21.104 1.586,22.27L46.426,22.27C46.329,21.103 46.142,19.946 45.865,18.809L2.132,18.809Z" fill="#FFFFFF"/>
<path d="M1.587,22.27C1.536,22.845 1.507,23.422 1.5,24C1.502,24.578 1.527,25.155 1.573,25.731L46.413,25.731C46.464,25.155 46.493,24.578 46.5,24C46.498,23.423 46.473,22.845 46.427,22.27L1.587,22.27Z" fill="#B22234"/>
<path d="M1.578,25.73C1.675,26.897 1.862,28.055 2.139,29.192L45.872,29.192C46.144,28.054 46.327,26.897 46.418,25.73L1.578,25.73Z" fill="#FFFFFF"/>
<path d="M2.133,29.191C2.412,30.374 2.786,31.531 3.252,32.653L44.762,32.653C45.222,31.531 45.591,30.373 45.866,29.191L2.133,29.191Z" fill="#B22234"/>
<path d="M3.25,32.654C3.745,33.858 4.344,35.016 5.04,36.116L42.928,36.116C43.638,35.017 44.251,33.859 44.76,32.654L3.25,32.654Z" fill="#FFFFFF"/>
<path d="M5.047,36.115C5.841,37.356 6.755,38.515 7.776,39.577L40.205,39.577C41.226,38.515 42.14,37.356 42.935,36.115L5.047,36.115Z" fill="#B22234"/>
<path d="M7.773,39.578C9.055,40.903 10.495,42.066 12.06,43.04L35.974,43.04C37.519,42.062 38.938,40.899 40.202,39.578L7.773,39.578Z" fill="#FFFFFF"/>
<path d="M12.063,43.039C15.639,45.291 19.777,46.491 24.003,46.501C28.24,46.497 32.391,45.297 35.976,43.039L12.063,43.039Z" fill="#B22234"/>
<path d="M24,1.5C18.033,1.5 12.31,3.871 8.09,8.09C3.871,12.31 1.5,18.033 1.5,24C1.503,24.595 1.529,25.189 1.579,25.781L25.781,25.781L25.781,1.589C25.189,1.536 24.595,1.506 24,1.5L24,1.5Z" fill="#3C3B6E"/>
<path d="M15.944,3.017C15.644,3.126 15.347,3.242 15.052,3.364L15.381,3.614L15.158,4.332L15.747,3.893L16.353,4.353L16.126,3.61L16.732,3.158L15.987,3.158L15.944,3.017ZM19.761,2.402L19.527,3.157L18.785,3.157L19.385,3.614L19.163,4.332L19.752,3.893L20.358,4.353L20.13,3.61L20.736,3.157L19.992,3.157L19.761,2.402L19.761,2.402ZM23.765,2.402L23.532,3.157L22.789,3.157L23.39,3.614L23.168,4.332L23.757,3.893L24.363,4.353L24.135,3.61L24.741,3.157L23.997,3.157L23.765,2.402ZM10.155,6.295C10.049,6.373 9.944,6.453 9.84,6.534L10.346,6.919L10.155,6.295ZM13.753,4.968L13.52,5.723L12.778,5.723L13.378,6.18L13.156,6.898L13.745,6.458L14.351,6.919L14.123,6.176L14.729,5.723L13.985,5.723L13.753,4.968ZM17.758,4.968L17.524,5.723L16.782,5.723L17.383,6.18L17.161,6.898L17.75,6.458L18.356,6.919L18.128,6.176L18.734,5.723L17.989,5.723L17.758,4.968L17.758,4.968ZM21.763,4.968L21.529,5.723L20.787,5.723L21.388,6.18L21.165,6.898L21.754,6.458L22.36,6.919L22.133,6.176L22.739,5.723L21.994,5.723L21.763,4.968L21.763,4.968ZM7.959,8.228C7.737,8.463 7.52,8.703 7.309,8.947L7.149,9.464L7.738,9.024L8.344,9.485L8.116,8.741L8.722,8.289L7.977,8.289L7.959,8.228ZM11.751,7.534L11.517,8.289L10.775,8.289L11.376,8.745L11.154,9.464L11.742,9.024L12.349,9.485L12.121,8.741L12.727,8.289L11.982,8.289L11.751,7.534L11.751,7.534ZM15.756,7.534L15.522,8.289L14.78,8.289L15.381,8.745L15.158,9.464L15.747,9.024L16.353,9.485L16.126,8.741L16.732,8.289L15.987,8.289L15.756,7.534L15.756,7.534ZM19.761,7.534L19.527,8.289L18.785,8.289L19.385,8.745L19.163,9.464L19.752,9.024L20.358,9.485L20.13,8.741L20.736,8.289L19.992,8.289L19.761,7.534L19.761,7.534ZM23.765,7.534L23.532,8.289L22.789,8.289L23.39,8.745L23.168,9.464L23.757,9.024L24.363,9.485L24.135,8.741L24.741,8.289L23.997,8.289L23.765,7.534L23.765,7.534ZM5.914,10.654C5.707,10.93 5.506,11.211 5.311,11.497L5.146,12.029L5.735,11.59L6.341,12.05L6.114,11.307L6.72,10.854L5.975,10.854L5.914,10.654ZM9.749,10.099L9.515,10.854L8.773,10.854L9.373,11.311L9.151,12.029L9.74,11.59L10.346,12.05L10.118,11.307L10.725,10.854L9.98,10.854L9.749,10.099L9.749,10.099ZM13.753,10.099L13.52,10.854L12.778,10.854L13.378,11.311L13.156,12.029L13.745,11.59L14.351,12.05L14.123,11.307L14.729,10.854L13.985,10.854L13.753,10.099L13.753,10.099ZM17.758,10.099L17.524,10.854L16.782,10.854L17.383,11.311L17.161,12.029L17.75,11.59L18.356,12.05L18.128,11.307L18.734,10.854L17.989,10.854L17.758,10.099L17.758,10.099ZM21.763,10.099L21.529,10.854L20.787,10.854L21.388,11.311L21.165,12.029L21.754,11.59L22.36,12.05L22.133,11.307L22.739,10.854L21.994,10.854L21.763,10.099L21.763,10.099ZM4.159,13.42C4.024,13.672 3.895,13.927 3.77,14.184L4.339,14.616L4.111,13.873L4.717,13.42L4.159,13.42ZM7.746,12.665L7.513,13.42L6.77,13.42L7.371,13.877L7.149,14.595L7.738,14.155L8.344,14.616L8.116,13.873L8.722,13.42L7.978,13.42L7.746,12.665ZM11.751,12.665L11.517,13.42L10.775,13.42L11.376,13.877L11.154,14.595L11.742,14.155L12.349,14.616L12.121,13.873L12.727,13.42L11.982,13.42L11.751,12.665L11.751,12.665ZM15.756,12.665L15.522,13.42L14.78,13.42L15.381,13.877L15.158,14.595L15.747,14.155L16.353,14.616L16.126,13.873L16.732,13.42L15.987,13.42L15.756,12.665ZM19.761,12.665L19.527,13.42L18.785,13.42L19.385,13.877L19.163,14.595L19.752,14.155L20.358,14.616L20.13,13.873L20.736,13.42L19.992,13.42L19.761,12.665L19.761,12.665ZM23.765,12.665L23.532,13.42L22.789,13.42L23.39,13.877L23.168,14.595L23.757,14.155L24.363,14.616L24.135,13.873L24.741,13.42L23.997,13.42L23.765,12.665ZM5.744,15.23L5.51,15.986L4.768,15.986L5.369,16.442L5.146,17.16L5.735,16.721L6.341,17.181L6.114,16.438L6.72,15.986L5.975,15.986L5.744,15.23L5.744,15.23ZM9.749,15.23L9.515,15.986L8.773,15.986L9.373,16.442L9.151,17.16L9.74,16.721L10.346,17.181L10.118,16.438L10.725,15.986L9.98,15.986L9.749,15.23ZM13.753,15.23L13.52,15.986L12.778,15.986L13.378,16.442L13.156,17.16L13.745,16.721L14.351,17.181L14.123,16.438L14.729,15.986L13.985,15.986L13.753,15.23ZM17.758,15.23L17.524,15.986L16.782,15.986L17.383,16.442L17.161,17.16L17.75,16.721L18.356,17.181L18.128,16.438L18.734,15.986L17.989,15.986L17.758,15.23L17.758,15.23ZM21.763,15.23L21.529,15.986L20.787,15.986L21.388,16.442L21.165,17.16L21.754,16.721L22.36,17.181L22.133,16.438L22.739,15.986L21.994,15.986L21.763,15.23L21.763,15.23ZM3.742,17.796L3.508,18.551L2.766,18.551L3.366,19.008L3.144,19.726L3.733,19.286L4.339,19.747L4.111,19.004L4.717,18.551L3.973,18.551L3.742,17.796ZM7.746,17.796L7.513,18.551L6.77,18.551L7.371,19.008L7.149,19.726L7.738,19.286L8.344,19.747L8.116,19.004L8.722,18.551L7.978,18.551L7.746,17.796ZM11.751,17.796L11.517,18.551L10.775,18.551L11.376,19.008L11.154,19.726L11.742,19.286L12.349,19.747L12.121,19.004L12.727,18.551L11.982,18.551L11.751,17.796L11.751,17.796ZM15.756,17.796L15.522,18.551L14.78,18.551L15.381,19.008L15.158,19.726L15.747,19.286L16.353,19.747L16.126,19.004L16.732,18.551L15.987,18.551L15.756,17.796ZM19.761,17.796L19.527,18.551L18.785,18.551L19.385,19.008L19.163,19.726L19.752,19.286L20.358,19.747L20.13,19.004L20.736,18.551L19.992,18.551L19.761,17.796L19.761,17.796ZM23.765,17.796L23.532,18.551L22.789,18.551L23.39,19.008L23.168,19.726L23.757,19.286L24.363,19.747L24.135,19.004L24.741,18.551L23.997,18.551L23.765,17.796ZM5.744,20.362L5.51,21.117L4.768,21.117L5.369,21.573L5.146,22.292L5.735,21.852L6.341,22.313L6.114,21.57L6.72,21.117L5.975,21.117L5.744,20.362L5.744,20.362ZM9.749,20.362L9.515,21.117L8.773,21.117L9.373,21.573L9.151,22.292L9.74,21.852L10.346,22.313L10.118,21.57L10.725,21.117L9.98,21.117L9.749,20.362ZM13.753,20.362L13.52,21.117L12.778,21.117L13.378,21.573L13.156,22.292L13.745,21.852L14.351,22.313L14.123,21.57L14.729,21.117L13.985,21.117L13.753,20.362ZM17.758,20.362L17.524,21.117L16.782,21.117L17.383,21.573L17.161,22.292L17.75,21.852L18.356,22.313L18.128,21.57L18.734,21.117L17.989,21.117L17.758,20.362L17.758,20.362ZM21.763,20.362L21.529,21.117L20.787,21.117L21.388,21.573L21.165,22.292L21.754,21.852L22.36,22.313L22.133,21.57L22.739,21.117L21.994,21.117L21.763,20.362L21.763,20.362ZM3.742,22.927L3.508,23.683L2.766,23.683L3.366,24.139L3.144,24.857L3.733,24.418L4.339,24.878L4.111,24.135L4.717,23.683L3.973,23.683L3.742,22.927L3.742,22.927ZM7.746,22.927L7.513,23.683L6.77,23.683L7.371,24.139L7.149,24.857L7.738,24.418L8.344,24.878L8.116,24.135L8.722,23.683L7.978,23.683L7.746,22.927L7.746,22.927ZM11.751,22.927L11.517,23.683L10.775,23.683L11.376,24.139L11.154,24.857L11.742,24.418L12.349,24.878L12.121,24.135L12.727,23.683L11.982,23.683L11.751,22.927L11.751,22.927ZM15.756,22.927L15.522,23.683L14.78,23.683L15.381,24.139L15.158,24.857L15.747,24.418L16.353,24.878L16.126,24.135L16.732,23.683L15.987,23.683L15.756,22.927L15.756,22.927ZM19.761,22.927L19.527,23.683L18.785,23.683L19.385,24.139L19.163,24.857L19.752,24.418L20.358,24.878L20.13,24.135L20.736,23.683L19.992,23.683L19.761,22.927L19.761,22.927ZM23.765,22.927L23.532,23.683L22.789,23.683L23.39,24.139L23.168,24.857L23.757,24.418L24.363,24.878L24.135,24.135L24.741,23.683L23.997,23.683L23.765,22.927L23.765,22.927Z" fill="#FFFFFF"/>
</svg>
