<svg width="2" height="4" viewBox="0 0 2 4" fill="none" xmlns="http://www.w3.org/2000/svg" xmlns:xlink="http://www.w3.org/1999/xlink">
<path d="M0.012,1.252L-0.154,1.334L-0.566,0.985L-0.516,0.579L-0.266,0.355L-0.03,0.225L0.212,0.21L0.296,0.546L0.238,1.02L0.012,1.252ZM-0.278,2.102L-0.368,2.158L-0.326,2.158L-0.368,2.196L-0.396,2.158L-0.44,2.134L-0.496,2.124L-0.562,2.125L-0.562,2.087L-0.478,2.111L-0.352,2.087L-0.352,2.045L-0.39,2.007L-0.406,1.98L-0.36,1.94L-0.204,1.849L-0.138,1.802L-0.13,1.822L-0.128,1.84L-0.12,1.859L-0.096,1.877L-0.176,1.947L-0.278,2.102ZM-0.885,3.658L-0.941,3.66L-0.991,3.641L-0.977,3.625L-0.913,3.612L-0.883,3.578L-0.893,3.532L-0.891,3.482L-0.841,3.451L-0.801,3.449L-0.783,3.469L-0.773,3.516L-0.803,3.552L-0.837,3.581L-0.853,3.627L-0.885,3.658Z" fill="#7699BB" stroke="#DCDCDC" stroke-width="0.5" stroke-miterlimit="3.999327"/>
</svg>
