<svg width="40" height="34" viewBox="0 0 40 34" fill="none" xmlns="http://www.w3.org/2000/svg" xmlns:xlink="http://www.w3.org/1999/xlink">
<path d="M19.691,10.737L25.455,16.392L25.455,16.105C25.455,14.681 24.88,13.316 23.857,12.309C22.834,11.302 21.447,10.737 20,10.737L19.691,10.737ZM11.873,12.168L14.691,14.942C14.6,15.318 14.545,15.694 14.545,16.105C14.545,17.529 15.12,18.895 16.143,19.901C17.166,20.908 18.553,21.474 20,21.474C20.4,21.474 20.8,21.42 21.182,21.331L24,24.104C22.782,24.695 21.436,25.053 20,25.053C17.589,25.053 15.277,24.11 13.572,22.432C11.867,20.754 10.909,18.478 10.909,16.105C10.909,14.692 11.273,13.367 11.873,12.168M1.818,2.273L5.964,6.353L6.782,7.158C3.782,9.484 1.418,12.526 0,16.105C3.145,23.961 10.909,29.526 20,29.526C22.818,29.526 25.509,28.989 27.964,28.023L28.745,28.775L34.055,34L36.364,31.727L4.127,0M20,7.158C22.411,7.158 24.723,8.101 26.428,9.779C28.133,11.456 29.091,13.732 29.091,16.105C29.091,17.251 28.855,18.36 28.436,19.362L33.764,24.605C36.491,22.368 38.673,19.434 40,16.105C36.855,8.249 29.091,2.684 20,2.684C17.455,2.684 15.018,3.132 12.727,3.937L16.673,7.784C17.709,7.391 18.818,7.158 20,7.158Z" fill="#A9B3D3"/>
</svg>
