<svg width="48" height="50" viewBox="0 0 48 50" fill="none" xmlns="http://www.w3.org/2000/svg" xmlns:xlink="http://www.w3.org/1999/xlink">
<path d="M5.078,-0.106C4.073,-0.563 2.887,-0.119 2.43,0.887C1.972,1.892 2.417,3.078 3.422,3.535L5.078,-0.106ZM43.679,19.646L44.384,21.518C45.414,21.13 45.937,19.983 45.554,18.952L43.679,19.646ZM35.602,20.552C34.569,20.941 34.047,22.095 34.436,23.128C34.825,24.162 35.979,24.684 37.013,24.295L35.602,20.552ZM42.812,11.546C42.428,10.51 41.277,9.981 40.241,10.365C39.206,10.749 38.677,11.899 39.061,12.935L42.812,11.546ZM11.142,46.286L11.142,48.286C12.246,48.286 13.142,47.391 13.142,46.286L11.142,46.286ZM2.57,46.286L0.57,46.286C0.57,47.391 1.466,48.286 2.57,48.286L2.57,46.286ZM28.285,46.286L28.285,48.286C29.389,48.286 30.285,47.391 30.285,46.286L28.285,46.286ZM19.713,46.286L17.713,46.286C17.713,47.391 18.609,48.286 19.713,48.286L19.713,46.286ZM45.428,46.286L45.428,48.286C46.532,48.286 47.428,47.391 47.428,46.286L45.428,46.286ZM36.856,46.286L34.856,46.286C34.856,47.391 35.752,48.286 36.856,48.286L36.856,46.286ZM3.422,3.535L42.851,21.467L44.507,17.826L5.078,-0.106L3.422,3.535ZM37.013,24.295L44.384,21.518L42.974,17.775L35.602,20.552L37.013,24.295ZM45.554,18.952L42.812,11.546L39.061,12.935L41.803,20.341L45.554,18.952ZM4.285,22.572L9.427,22.572L9.427,18.572L4.285,18.572L4.285,22.572ZM9.427,22.572C9.352,22.572 9.279,22.542 9.225,22.488L12.054,19.66C11.357,18.963 10.413,18.572 9.427,18.572L9.427,22.572ZM9.225,22.488C9.172,22.435 9.142,22.362 9.142,22.286L13.142,22.286C13.142,21.301 12.75,20.356 12.054,19.66L9.225,22.488ZM9.142,22.286L9.142,46.286L13.142,46.286L13.142,22.286L9.142,22.286ZM11.142,44.286L2.57,44.286L2.57,48.286L11.142,48.286L11.142,44.286ZM4.57,46.286L4.57,22.286L0.57,22.286L0.57,46.286L4.57,46.286ZM4.57,22.286C4.57,22.362 4.54,22.435 4.487,22.488L1.658,19.66C0.962,20.356 0.57,21.301 0.57,22.286L4.57,22.286ZM4.487,22.488C4.433,22.542 4.36,22.572 4.285,22.572L4.285,18.572C3.3,18.572 2.355,18.963 1.658,19.66L4.487,22.488ZM21.427,27.715L26.57,27.715L26.57,23.715L21.427,23.715L21.427,27.715ZM26.57,27.715C26.495,27.715 26.422,27.685 26.368,27.631L29.197,24.803C28.5,24.106 27.555,23.715 26.57,23.715L26.57,27.715ZM26.368,27.631C26.315,27.578 26.285,27.505 26.285,27.429L30.285,27.429C30.285,26.444 29.893,25.499 29.197,24.803L26.368,27.631ZM26.285,27.429L26.285,46.286L30.285,46.286L30.285,27.429L26.285,27.429ZM28.285,44.286L19.713,44.286L19.713,48.286L28.285,48.286L28.285,44.286ZM21.713,46.286L21.713,27.429L17.713,27.429L17.713,46.286L21.713,46.286ZM21.713,27.429C21.713,27.505 21.683,27.578 21.629,27.631L18.801,24.803C18.104,25.499 17.713,26.444 17.713,27.429L21.713,27.429ZM21.629,27.631C21.576,27.685 21.503,27.715 21.427,27.715L21.427,23.715C20.442,23.715 19.498,24.106 18.801,24.803L21.629,27.631ZM38.57,32.858L43.713,32.858L43.713,28.858L38.57,28.858L38.57,32.858ZM43.713,32.858C43.637,32.858 43.565,32.828 43.511,32.774L46.34,29.946C45.643,29.249 44.698,28.858 43.713,28.858L43.713,32.858ZM43.511,32.774C43.458,32.72 43.428,32.648 43.428,32.572L47.428,32.572C47.428,31.587 47.036,30.642 46.34,29.946L43.511,32.774ZM43.428,32.572L43.428,46.286L47.428,46.286L47.428,32.572L43.428,32.572ZM45.428,44.286L36.856,44.286L36.856,48.286L45.428,48.286L45.428,44.286ZM38.856,46.286L38.856,32.572L34.856,32.572L34.856,46.286L38.856,46.286ZM38.856,32.572C38.856,32.648 38.826,32.72 38.772,32.774L35.944,29.946C35.247,30.642 34.856,31.587 34.856,32.572L38.856,32.572ZM38.772,32.774C38.719,32.828 38.646,32.858 38.57,32.858L38.57,28.858C37.585,28.858 36.641,29.249 35.944,29.946L38.772,32.774Z" fill="#B22234"/>
</svg>
