<svg width="42" height="38" viewBox="0 0 42 38" fill="none" xmlns="http://www.w3.org/2000/svg" xmlns:xlink="http://www.w3.org/1999/xlink">
<path d="M13.57,0L13.566,1L13.57,1L13.57,0ZM11,2.56L12,2.56L12,2.56L11,2.56ZM2,10.22L2,9.22C1.643,9.22 1.314,9.41 1.135,9.719C0.956,10.027 0.955,10.408 1.132,10.717L2,10.22ZM6.27,17.67L7.27,17.67C7.27,17.496 7.224,17.324 7.138,17.173L6.27,17.67ZM6.27,32.77L7.27,32.778L7.27,32.77L6.27,32.77ZM8.83,35.35L8.83,34.35L8.83,34.35L8.83,35.35ZM28.92,35.35L28.92,36.35L28.928,36.35L28.92,35.35ZM31.47,32.78L30.47,32.78L30.47,32.78L31.47,32.78ZM31.47,25.12L31.47,24.12C30.918,24.12 30.47,24.568 30.47,25.12L31.47,25.12ZM34.07,25.12L34.078,24.12L34.07,24.12L34.07,25.12ZM36.64,22.56L35.64,22.56L35.64,22.564L36.64,22.56ZM36.64,7.44L35.774,6.94C35.686,7.092 35.64,7.264 35.64,7.44L36.64,7.44ZM40.94,0L41.806,0.5C41.985,0.191 41.985,-0.19 41.806,-0.5C41.628,-0.809 41.297,-1 40.94,-1L40.94,0ZM30.47,22.18C30.47,22.732 30.918,23.18 31.47,23.18C32.022,23.18 32.47,22.732 32.47,22.18L30.47,22.18ZM31.47,12.79L30.47,12.79L30.47,12.79L31.47,12.79ZM28.91,10.22L28.914,9.22L28.91,9.22L28.91,10.22ZM13.91,9.22C13.358,9.22 12.91,9.668 12.91,10.22C12.91,10.772 13.358,11.22 13.91,11.22L13.91,9.22ZM14.47,17.87L14.47,16.87L14.47,16.87L14.47,17.87ZM14.47,21.61L14.47,22.61L14.47,22.61L14.47,21.61ZM23.22,17.87L22.869,16.934C22.405,17.108 22.138,17.595 22.242,18.08C22.346,18.564 22.789,18.899 23.284,18.868L23.22,17.87ZM21.47,19.67L22.469,19.705L22.47,19.691L21.47,19.67ZM23.3,17.84L23.651,18.776C24.108,18.605 24.374,18.13 24.282,17.651C24.19,17.173 23.766,16.83 23.279,16.84L23.3,17.84ZM25.31,25.03L26.269,25.314C26.358,25.011 26.3,24.684 26.111,24.432C25.922,24.179 25.625,24.03 25.31,24.03L25.31,25.03ZM12.46,25.03L12.46,24.03C12.145,24.03 11.848,24.179 11.659,24.432C11.47,24.684 11.412,25.011 11.501,25.314L12.46,25.03ZM13.93,11.22C14.482,11.22 14.93,10.772 14.93,10.22C14.93,9.668 14.482,9.22 13.93,9.22L13.93,11.22ZM32.5,22.18C32.5,21.628 32.052,21.18 31.5,21.18C30.948,21.18 30.5,21.628 30.5,22.18L32.5,22.18ZM30.5,25.12C30.5,25.672 30.948,26.12 31.5,26.12C32.052,26.12 32.5,25.672 32.5,25.12L30.5,25.12ZM16.36,5.58C15.808,5.58 15.36,6.028 15.36,6.58C15.36,7.132 15.808,7.58 16.36,7.58L16.36,5.58ZM31.69,7.58C32.242,7.58 32.69,7.132 32.69,6.58C32.69,6.028 32.242,5.58 31.69,5.58L31.69,7.58ZM13.574,-1C13.105,-1.002 12.641,-0.911 12.207,-0.733L12.967,1.117C13.157,1.039 13.361,0.999 13.566,1L13.574,-1ZM12.207,-0.733C11.774,-0.555 11.38,-0.293 11.048,0.038L12.459,1.455C12.605,1.31 12.777,1.195 12.967,1.117L12.207,-0.733ZM11.048,0.038C10.716,0.369 10.452,0.762 10.272,1.194L12.119,1.962C12.198,1.772 12.314,1.6 12.459,1.455L11.048,0.038ZM10.272,1.194C10.093,1.627 10,2.091 10,2.56L12,2.56C12,2.355 12.041,2.151 12.119,1.962L10.272,1.194ZM10,2.56L10,10.22L12,10.22L12,2.56L10,2.56ZM11,9.22L2,9.22L2,11.22L11,11.22L11,9.22ZM1.132,10.717L5.402,18.167L7.138,17.173L2.868,9.723L1.132,10.717ZM5.27,17.67L5.27,32.77L7.27,32.77L7.27,17.67L5.27,17.67ZM5.27,32.762C5.266,33.232 5.356,33.698 5.533,34.133L7.385,33.379C7.308,33.188 7.268,32.984 7.27,32.778L5.27,32.762ZM5.533,34.133C5.71,34.568 5.972,34.964 6.303,35.298L7.723,33.889C7.578,33.743 7.463,33.569 7.385,33.379L5.533,34.133ZM6.303,35.298C6.634,35.631 7.027,35.896 7.461,36.076L8.23,34.23C8.04,34.151 7.868,34.035 7.723,33.889L6.303,35.298ZM7.461,36.076C7.895,36.257 8.36,36.35 8.83,36.35L8.83,34.35C8.624,34.35 8.42,34.309 8.23,34.23L7.461,36.076ZM8.83,36.35L28.92,36.35L28.92,34.35L8.83,34.35L8.83,36.35ZM28.928,36.35C29.87,36.343 30.771,35.963 31.434,35.295L30.014,33.886C29.723,34.18 29.326,34.347 28.912,34.35L28.928,36.35ZM31.434,35.295C32.098,34.626 32.47,33.722 32.47,32.78L30.47,32.78C30.47,33.194 30.306,33.592 30.014,33.886L31.434,35.295ZM32.47,32.78L32.47,25.12L30.47,25.12L30.47,32.78L32.47,32.78ZM31.47,26.12L34.07,26.12L34.07,24.12L31.47,24.12L31.47,26.12ZM34.062,26.12C34.532,26.124 34.998,26.034 35.432,25.856L34.676,24.005C34.486,24.083 34.283,24.122 34.078,24.12L34.062,26.12ZM35.432,25.856C35.867,25.679 36.263,25.417 36.595,25.085L35.184,23.668C35.039,23.813 34.866,23.927 34.676,24.005L35.432,25.856ZM36.595,25.085C36.928,24.754 37.192,24.359 37.371,23.925L35.523,23.162C35.444,23.351 35.329,23.524 35.184,23.668L36.595,25.085ZM37.371,23.925C37.55,23.491 37.642,23.026 37.64,22.556L35.64,22.564C35.641,22.769 35.601,22.972 35.523,23.162L37.371,23.925ZM37.64,22.56L37.64,7.44L35.64,7.44L35.64,22.56L37.64,22.56ZM37.506,7.94L41.806,0.5L40.074,-0.5L35.774,6.94L37.506,7.94ZM40.94,-1L13.57,-1L13.57,1L40.94,1L40.94,-1ZM32.47,22.18L32.47,12.79L30.47,12.79L30.47,22.18L32.47,22.18ZM32.47,12.79C32.47,11.846 32.096,10.94 31.429,10.271L30.012,11.682C30.305,11.976 30.47,12.375 30.47,12.79L32.47,12.79ZM31.429,10.271C30.763,9.601 29.858,9.224 28.914,9.22L28.906,11.22C29.321,11.222 29.719,11.388 30.012,11.682L31.429,10.271ZM28.91,9.22L13.91,9.22L13.91,11.22L28.91,11.22L28.91,9.22ZM14.47,18.87C14.701,18.87 14.922,18.962 15.085,19.125L16.499,17.711C15.961,17.172 15.231,16.87 14.47,16.87L14.47,18.87ZM15.085,19.125C15.248,19.288 15.34,19.509 15.34,19.74L17.34,19.74C17.34,18.979 17.038,18.249 16.499,17.711L15.085,19.125ZM15.34,19.74C15.34,19.971 15.248,20.192 15.085,20.355L16.499,21.769C17.038,21.231 17.34,20.501 17.34,19.74L15.34,19.74ZM15.085,20.355C14.922,20.518 14.701,20.61 14.47,20.61L14.47,22.61C15.231,22.61 15.961,22.308 16.499,21.769L15.085,20.355ZM14.47,20.61C14.239,20.61 14.018,20.518 13.855,20.355L12.441,21.769C12.979,22.308 13.709,22.61 14.47,22.61L14.47,20.61ZM13.855,20.355C13.692,20.192 13.6,19.971 13.6,19.74L11.6,19.74C11.6,20.501 11.902,21.231 12.441,21.769L13.855,20.355ZM13.6,19.74C13.6,19.509 13.692,19.288 13.855,19.125L12.441,17.711C11.902,18.249 11.6,18.979 11.6,19.74L13.6,19.74ZM13.855,19.125C14.018,18.962 14.239,18.87 14.47,18.87L14.47,16.87C13.709,16.87 12.979,17.172 12.441,17.711L13.855,19.125ZM23.284,18.868C23.459,18.857 23.634,18.899 23.785,18.989L24.809,17.271C24.311,16.974 23.735,16.835 23.156,16.872L23.284,18.868ZM23.785,18.989C23.935,19.079 24.056,19.213 24.129,19.372L25.946,18.536C25.703,18.009 25.307,17.568 24.809,17.271L23.785,18.989ZM24.129,19.372C24.203,19.532 24.226,19.71 24.196,19.883L26.168,20.221C26.266,19.65 26.188,19.062 25.946,18.536L24.129,19.372ZM24.196,19.883C24.167,20.057 24.085,20.217 23.963,20.343L25.397,21.737C25.801,21.321 26.069,20.793 26.168,20.221L24.196,19.883ZM23.963,20.343C23.84,20.469 23.682,20.555 23.51,20.589L23.904,22.55C24.472,22.436 24.992,22.153 25.397,21.737L23.963,20.343ZM23.51,20.589C23.338,20.624 23.159,20.605 22.997,20.536L22.212,22.376C22.746,22.603 23.335,22.664 23.904,22.55L23.51,20.589ZM22.997,20.536C22.836,20.467 22.699,20.351 22.605,20.203L20.916,21.275C21.227,21.765 21.679,22.148 22.212,22.376L22.997,20.536ZM22.605,20.203C22.51,20.054 22.463,19.881 22.469,19.705L20.471,19.635C20.45,20.214 20.606,20.786 20.916,21.275L22.605,20.203ZM22.47,19.691C22.475,19.467 22.566,19.253 22.724,19.094L21.31,17.68C20.787,18.204 20.486,18.909 20.47,19.649L22.47,19.691ZM22.724,19.094C22.883,18.936 23.097,18.845 23.321,18.84L23.279,16.84C22.539,16.856 21.834,17.157 21.31,17.68L22.724,19.094ZM22.949,16.904L22.869,16.934L23.571,18.806L23.651,18.776L22.949,16.904ZM12.47,26.03L25.31,26.03L25.31,24.03L12.47,24.03L12.47,26.03ZM24.351,24.746C24.002,25.926 23.282,26.961 22.297,27.697L23.494,29.299C24.824,28.305 25.798,26.907 26.269,25.314L24.351,24.746ZM22.297,27.697C21.311,28.433 20.115,28.83 18.885,28.83L18.885,30.83C20.546,30.83 22.163,30.293 23.494,29.299L22.297,27.697ZM18.885,28.83C17.655,28.83 16.459,28.433 15.473,27.697L14.276,29.299C15.607,30.293 17.224,30.83 18.885,30.83L18.885,28.83ZM15.473,27.697C14.488,26.961 13.768,25.926 13.419,24.746L11.501,25.314C11.972,26.907 12.946,28.305 14.276,29.299L15.473,27.697ZM12.46,26.03L12.47,26.03L12.47,24.03L12.46,24.03L12.46,26.03ZM11,11.22L13.93,11.22L13.93,9.22L11,9.22L11,11.22ZM30.5,22.18L30.5,25.12L32.5,25.12L32.5,22.18L30.5,22.18ZM16.36,7.58L31.69,7.58L31.69,5.58L16.36,5.58L16.36,7.58Z" fill="#7D8198"/>
</svg>
