<svg width="40" height="36" viewBox="0 0 40 36" fill="none" xmlns="http://www.w3.org/2000/svg" xmlns:xlink="http://www.w3.org/1999/xlink">
<path d="M34,6L28,6L28,4C28,2.939 27.579,1.922 26.828,1.172C26.078,0.421 25.061,0 24,0L16,0C14.939,0 13.922,0.421 13.172,1.172C12.421,1.922 12,2.939 12,4L12,6L6,6C4.409,6 2.883,6.632 1.757,7.757C0.632,8.883 0,10.409 0,12L0,30C0,31.591 0.632,33.117 1.757,34.243C2.883,35.368 4.409,36 6,36L34,36C35.591,36 37.117,35.368 38.243,34.243C39.368,33.117 40,31.591 40,30L40,12C40,10.409 39.368,8.883 38.243,7.757C37.117,6.632 35.591,6 34,6ZM16,4L24,4L24,6L16,6L16,4ZM36,30C36,30.53 35.789,31.039 35.414,31.414C35.039,31.789 34.53,32 34,32L6,32C5.47,32 4.961,31.789 4.586,31.414C4.211,31.039 4,30.53 4,30L4,18.78L13.36,22C13.572,22.029 13.788,22.029 14,22L26,22C26.217,21.996 26.432,21.962 26.64,21.9L36,18.78L36,30ZM36,14.56L25.68,18L14.32,18L4,14.56L4,12C4,11.47 4.211,10.961 4.586,10.586C4.961,10.211 5.47,10 6,10L34,10C34.53,10 35.039,10.211 35.414,10.586C35.789,10.961 36,11.47 36,12L36,14.56Z" fill="#7D8198"/>
</svg>
