<svg width="32" height="34" viewBox="0 0 32 34" fill="none" xmlns="http://www.w3.org/2000/svg" xmlns:xlink="http://www.w3.org/1999/xlink">
<path d="M7.938,18.485L7.938,8.267L10.9,8.267L10.9,18.485L9.419,16.976L7.938,18.485ZM15.905,22.575L15.905,0.934L18.868,0.934L18.868,19.614L15.905,22.575ZM-0.1,26.502L-0.1,15.601L2.861,15.601L2.861,23.541L-0.1,26.502ZM-0.313,33.674L9.397,23.964L15.905,29.556L28.288,17.174L24.086,17.174L24.086,15.34L31.419,15.34L31.419,22.674L29.586,22.674L29.586,18.472L15.949,32.108L9.441,26.516L2.284,33.674L-0.313,33.674Z" fill="#1C75BC"/>
</svg>
