<svg width="42" height="42" viewBox="0 0 42 42" fill="none" xmlns="http://www.w3.org/2000/svg" xmlns:xlink="http://www.w3.org/1999/xlink">
<path d="M39.419,13.419C41.919,10.919 40.779,7.999 39.419,6.579L33.419,0.579C30.899,-1.921 27.999,-0.781 26.579,0.579L23.179,3.999L17.999,3.999C14.199,3.999 11.999,5.999 10.879,8.299L1.999,17.179L1.999,25.179L0.579,26.579C-1.921,29.099 -0.781,31.999 0.579,33.419L6.579,39.419C7.659,40.499 8.819,40.899 9.919,40.899C11.339,40.899 12.639,40.199 13.419,39.419L18.819,33.999L25.999,33.999C29.399,33.999 31.119,31.879 31.739,29.799C33.999,29.199 35.239,27.479 35.739,25.799C38.839,24.999 39.999,22.059 39.999,19.999L39.999,13.999L38.819,13.999L39.419,13.419ZM35.999,19.999C35.999,20.899 35.619,21.999 33.999,21.999L31.999,21.999L31.999,23.999C31.999,24.899 31.619,25.999 29.999,25.999L27.999,25.999L27.999,27.999C27.999,28.899 27.619,29.999 25.999,29.999L17.179,29.999L10.619,36.559C9.999,37.139 9.639,36.799 9.419,36.579L3.439,30.619C2.859,29.999 3.199,29.639 3.419,29.419L5.999,26.819L5.999,18.819L9.999,14.819L9.999,17.999C9.999,20.419 11.599,23.999 15.999,23.999C20.399,23.999 21.999,20.419 21.999,17.999L35.999,17.999L35.999,19.999ZM36.579,10.579L33.179,13.999L17.999,13.999L17.999,17.999C17.999,18.899 17.619,19.999 15.999,19.999C14.379,19.999 13.999,18.899 13.999,17.999L13.999,11.999C13.999,11.079 14.339,7.999 17.999,7.999L24.819,7.999L29.379,3.439C29.999,2.859 30.359,3.199 30.579,3.419L36.559,9.379C37.139,9.999 36.799,10.359 36.579,10.579Z" fill="#7D8198"/>
</svg>
