<svg width="22" height="22" viewBox="0 0 22 22" fill="none" xmlns="http://www.w3.org/2000/svg" xmlns:xlink="http://www.w3.org/1999/xlink">
<path d="M15.209,22L6.791,22L6.791,10.889L0,10.889L11,0L22,10.889L15.209,10.889L15.209,22Z" transform="rotate(-180 11 11)" fill="#FF570C"/>
</svg>
