<svg width="28" height="28" viewBox="0 0 28 28" fill="none" xmlns="http://www.w3.org/2000/svg" xmlns:xlink="http://www.w3.org/1999/xlink">
<path d="M3.627,27.333C2.812,27.333 2.114,27.043 1.534,26.463C0.954,25.882 0.664,25.185 0.664,24.37L0.664,3.629C0.664,2.814 0.954,2.116 1.534,1.536C2.114,0.956 2.812,0.666 3.627,0.666L24.368,0.666C25.183,0.666 25.88,0.956 26.461,1.536C27.041,2.116 27.331,2.814 27.331,3.629L27.331,24.37C27.331,25.185 27.041,25.882 26.461,26.463C25.88,27.043 25.183,27.333 24.368,27.333L3.627,27.333ZM11.923,19.592C12.121,19.592 12.306,19.561 12.479,19.5C12.652,19.438 12.812,19.333 12.96,19.185L21.368,10.777C21.639,10.506 21.775,10.172 21.775,9.777C21.775,9.382 21.627,9.036 21.331,8.74C21.059,8.468 20.713,8.333 20.294,8.333C19.874,8.333 19.528,8.468 19.257,8.74L11.923,16.073L8.701,12.851C8.43,12.58 8.096,12.444 7.701,12.444C7.306,12.444 6.96,12.592 6.664,12.888C6.392,13.16 6.257,13.506 6.257,13.925C6.257,14.345 6.392,14.691 6.664,14.962L10.886,19.185C11.034,19.333 11.195,19.438 11.368,19.5C11.541,19.561 11.726,19.592 11.923,19.592L11.923,19.592Z" fill="#FFFFFF"/>
</svg>
