<svg width="24" height="16" viewBox="0 0 24 16" fill="none" xmlns="http://www.w3.org/2000/svg" xmlns:xlink="http://www.w3.org/1999/xlink">
<path d="M0,12.5L12,0.5L24,12.5L21,15.5L12,6.5L3,15.5L0,12.5Z" clip-rule="evenodd" fill-rule="evenodd" fill="#000000"/>
</svg>
