<svg width="36" height="36" viewBox="0 0 36 36" fill="none" xmlns="http://www.w3.org/2000/svg" xmlns:xlink="http://www.w3.org/1999/xlink">
<path d="M9,19.146L9,8L12.232,8L12.232,19.146L10.616,17.5L9,19.146ZM17.692,23.608L17.692,0L20.924,0L20.924,20.378L17.692,23.608ZM0.232,27.892L0.232,16L3.462,16L3.462,24.662L0.232,27.892ZM0,35.716L10.592,25.124L17.692,31.224L31.2,17.716L26.616,17.716L26.616,15.716L34.616,15.716L34.616,23.716L32.616,23.716L32.616,19.132L17.74,34.008L10.64,27.908L2.832,35.716L0,35.716Z" fill="#FFFFFF"/>
</svg>
