<svg width="24" height="14" viewBox="0 0 24 14" fill="none" xmlns="http://www.w3.org/2000/svg" xmlns:xlink="http://www.w3.org/1999/xlink">
<path d="M4.238,0.579L11.997,8.339L19.758,0.579C20.538,-0.201 21.798,-0.201 22.577,0.579C23.357,1.359 23.357,2.619 22.577,3.399L13.398,12.579C12.617,13.359 11.357,13.359 10.577,12.579L1.398,3.399C0.617,2.619 0.617,1.359 1.398,0.579C2.178,-0.181 3.458,-0.201 4.238,0.579L4.238,0.579Z" fill="#A3AED0"/>
</svg>
