<svg width="28" height="28" viewBox="0 0 28 28" fill="none" xmlns="http://www.w3.org/2000/svg" xmlns:xlink="http://www.w3.org/1999/xlink">
<path d="M0,14C0,6.272 6.272,0 14,0L28,0L28,28L14,28C6.272,28 0,21.728 0,14Z" fill="#F24E1E"/>
</svg>
