<svg width="54" height="54" viewBox="0 0 54 54" fill="none" xmlns="http://www.w3.org/2000/svg" xmlns:xlink="http://www.w3.org/1999/xlink">
<path d="M25.995,-0.667C40.723,-0.667 52.662,11.272 52.662,26C52.662,40.728 40.723,52.666 25.995,52.666C11.267,52.666 -0.672,40.728 -0.672,26C-0.672,11.272 11.267,-0.667 25.995,-0.667ZM25.995,4.666C20.337,4.666 14.911,6.914 10.91,10.915C6.909,14.916 4.661,20.342 4.661,26C4.661,31.658 6.909,37.084 10.91,41.085C14.911,45.085 20.337,47.333 25.995,47.333C31.653,47.333 37.079,45.085 41.08,41.085C45.081,37.084 47.328,31.658 47.328,26C47.328,20.342 45.081,14.916 41.08,10.915C37.079,6.914 31.653,4.666 25.995,4.666ZM25.995,10C26.648,10 27.278,10.24 27.767,10.674C28.255,11.108 28.566,11.706 28.643,12.354L28.662,12.666L28.662,24.896L35.88,32.114C36.358,32.594 36.636,33.238 36.657,33.915C36.677,34.593 36.44,35.252 35.992,35.76C35.543,36.269 34.919,36.587 34.244,36.651C33.57,36.716 32.896,36.521 32.36,36.106L32.11,35.885L24.11,27.885C23.695,27.47 23.429,26.93 23.352,26.349L23.328,26L23.328,12.666C23.328,11.959 23.609,11.281 24.109,10.781C24.609,10.281 25.288,10 25.995,10Z" fill="#1C75BC"/>
</svg>
