<svg width="40" height="40" viewBox="0 0 40 40" fill="none" xmlns="http://www.w3.org/2000/svg" xmlns:xlink="http://www.w3.org/1999/xlink">
<path d="M33.333,0C35.101,0 36.797,0.702 38.047,1.953C39.298,3.203 40,4.899 40,6.667L40,33.333C40,35.101 39.298,36.797 38.047,38.047C36.797,39.298 35.101,40 33.333,40L6.667,40C4.899,40 3.203,39.298 1.953,38.047C0.702,36.797 0,35.101 0,33.333L0,6.667C0,4.899 0.702,3.203 1.953,1.953C3.203,0.702 4.899,0 6.667,0L33.333,0ZM11.111,15.556C10.522,15.556 9.957,15.79 9.54,16.206C9.123,16.623 8.889,17.188 8.889,17.778L8.889,28.889C8.889,29.478 9.123,30.043 9.54,30.46C9.957,30.877 10.522,31.111 11.111,31.111C11.7,31.111 12.266,30.877 12.682,30.46C13.099,30.043 13.333,29.478 13.333,28.889L13.333,17.778C13.333,17.188 13.099,16.623 12.682,16.206C12.266,15.79 11.7,15.556 11.111,15.556ZM17.778,13.333C17.188,13.333 16.623,13.567 16.206,13.984C15.79,14.401 15.556,14.966 15.556,15.556L15.556,28.889C15.556,29.478 15.79,30.043 16.206,30.46C16.623,30.877 17.188,31.111 17.778,31.111C18.367,31.111 18.932,30.877 19.349,30.46C19.766,30.043 20,29.478 20,28.889L20,20.756C20.678,19.991 21.822,19.093 23.096,18.549C23.836,18.233 24.949,18.104 25.722,18.349C25.979,18.414 26.207,18.561 26.373,18.767C26.489,18.922 26.667,19.269 26.667,20L26.667,28.889C26.667,29.478 26.901,30.043 27.318,30.46C27.734,30.877 28.3,31.111 28.889,31.111C29.478,31.111 30.043,30.877 30.46,30.46C30.877,30.043 31.111,29.478 31.111,28.889L31.111,20C31.111,18.511 30.733,17.187 29.947,16.124C29.223,15.161 28.21,14.455 27.056,14.109C25.051,13.48 22.831,13.829 21.349,14.464C20.874,14.668 20.412,14.899 19.964,15.158C19.871,14.646 19.601,14.183 19.202,13.849C18.802,13.516 18.298,13.333 17.778,13.333ZM11.111,8.889C10.522,8.889 9.957,9.123 9.54,9.54C9.123,9.957 8.889,10.522 8.889,11.111C8.889,11.7 9.123,12.266 9.54,12.682C9.957,13.099 10.522,13.333 11.111,13.333C11.7,13.333 12.266,13.099 12.682,12.682C13.099,12.266 13.333,11.7 13.333,11.111C13.333,10.522 13.099,9.957 12.682,9.54C12.266,9.123 11.7,8.889 11.111,8.889Z" clip-rule="evenodd" fill-rule="evenodd" fill="#FFFFFF"/>
</svg>
