<svg width="40" height="40" viewBox="0 0 40 40" fill="none" xmlns="http://www.w3.org/2000/svg" xmlns:xlink="http://www.w3.org/1999/xlink">
<path d="M39.606,16.25C39.861,17.588 40,18.988 40,20.449C40,31.875 32.196,40 20.409,40C17.729,40.001 15.075,39.484 12.598,38.479C10.122,37.474 7.871,36.001 5.976,34.144C4.081,32.287 2.577,30.081 1.552,27.655C0.527,25.228 -0.001,22.627 0,20C-0.001,17.373 0.527,14.772 1.552,12.345C2.577,9.919 4.081,7.713 5.976,5.856C7.871,3.999 10.122,2.526 12.598,1.521C15.075,0.516 17.729,-0.001 20.409,0C25.92,0 30.525,1.987 34.058,5.213L28.305,10.851L28.305,10.837C26.163,8.838 23.445,7.812 20.409,7.812C13.675,7.812 8.202,13.387 8.202,19.988C8.202,26.587 13.675,32.176 20.409,32.176C26.519,32.176 30.678,28.751 31.533,24.049L20.409,24.049L20.409,16.25L39.606,16.25Z" fill="#FFFFFF"/>
</svg>
