<svg width="20" height="12" viewBox="0 0 20 12" fill="none" xmlns="http://www.w3.org/2000/svg" xmlns:xlink="http://www.w3.org/1999/xlink">
<path d="M10.008,12C9.745,12.002 9.484,11.951 9.24,11.852C8.997,11.752 8.775,11.606 8.588,11.42L0.588,3.42C0.212,3.044 0,2.533 0,2C0,1.468 0.212,0.957 0.588,0.58C0.965,0.204 1.476,-0.008 2.008,-0.008C2.541,-0.008 3.052,0.204 3.428,0.58L10.008,7.18L16.588,0.6C16.971,0.273 17.463,0.102 17.966,0.121C18.47,0.14 18.947,0.349 19.303,0.705C19.659,1.061 19.868,1.539 19.888,2.042C19.907,2.546 19.736,3.038 19.408,3.42L11.408,11.42C11.036,11.79 10.533,11.998 10.008,12Z" fill="#737791"/>
</svg>
