<svg width="36" height="8" viewBox="0 0 36 8" fill="none" xmlns="http://www.w3.org/2000/svg" xmlns:xlink="http://www.w3.org/1999/xlink">
<path d="M4,0C1.8,0 0,1.8 0,4C0,6.2 1.8,8 4,8C6.2,8 8,6.2 8,4C8,1.8 6.2,0 4,0ZM32,0C29.8,0 28,1.8 28,4C28,6.2 29.8,8 32,8C34.2,8 36,6.2 36,4C36,1.8 34.2,0 32,0ZM18,0C15.8,0 14,1.8 14,4C14,6.2 15.8,8 18,8C20.2,8 22,6.2 22,4C22,1.8 20.2,0 18,0Z" transform="rotate(-180 18 4)" fill="#BFBFBF"/>
</svg>
