<svg width="48" height="48" viewBox="0 0 48 48" fill="none" xmlns="http://www.w3.org/2000/svg" xmlns:xlink="http://www.w3.org/1999/xlink">
<path d="M23.88,38.4C24.72,38.4 25.43,38.11 26.011,37.529C26.592,36.948 26.882,36.238 26.88,35.4C26.88,34.56 26.59,33.85 26.011,33.269C25.432,32.688 24.722,32.398 23.88,32.4C23.04,32.4 22.33,32.69 21.751,33.271C21.172,33.852 20.882,34.562 20.88,35.4C20.88,36.24 21.17,36.95 21.751,37.531C22.332,38.112 23.042,38.402 23.88,38.4ZM21.72,29.16L26.16,29.16C26.16,27.84 26.31,26.8 26.611,26.04C26.912,25.28 27.762,24.24 29.16,22.92C30.2,21.88 31.02,20.89 31.62,19.949C32.22,19.008 32.52,17.878 32.52,16.56C32.52,14.32 31.7,12.6 30.06,11.4C28.42,10.2 26.48,9.6 24.24,9.6C21.96,9.6 20.11,10.2 18.691,11.4C17.272,12.6 16.282,14.04 15.72,15.72L19.68,17.28C19.88,16.56 20.33,15.78 21.031,14.94C21.732,14.1 22.802,13.68 24.24,13.68C25.52,13.68 26.48,14.03 27.12,14.731C27.76,15.432 28.08,16.202 28.08,17.04C28.08,17.84 27.84,18.59 27.36,19.291C26.88,19.992 26.28,20.642 25.56,21.24C23.8,22.8 22.72,23.98 22.32,24.78C21.92,25.58 21.72,27.04 21.72,29.16ZM24,48C20.68,48 17.56,47.37 14.64,46.109C11.72,44.848 9.18,43.138 7.02,40.98C4.86,38.82 3.15,36.28 1.891,33.36C0.632,30.44 0.002,27.32 0,24C0,20.68 0.63,17.56 1.891,14.64C3.152,11.72 4.862,9.18 7.02,7.02C9.18,4.86 11.72,3.15 14.64,1.891C17.56,0.632 20.68,0.002 24,0C27.32,0 30.44,0.63 33.36,1.891C36.28,3.152 38.82,4.862 40.98,7.02C43.14,9.18 44.85,11.72 46.111,14.64C47.372,17.56 48.002,20.68 48,24C48,27.32 47.37,30.44 46.109,33.36C44.848,36.28 43.138,38.82 40.98,40.98C38.82,43.14 36.28,44.85 33.36,46.111C30.44,47.372 27.32,48.002 24,48Z" fill="#7D8198"/>
</svg>
