<svg width="36" height="36" viewBox="0 0 36 36" fill="none" xmlns="http://www.w3.org/2000/svg" xmlns:xlink="http://www.w3.org/1999/xlink">
<path d="M9.383,18.529L9.383,7.383L12.615,7.383L12.615,18.529L10.999,16.883L9.383,18.529ZM18.075,22.991L18.075,-0.617L21.307,-0.617L21.307,19.761L18.075,22.991ZM0.615,27.275L0.615,15.383L3.845,15.383L3.845,24.045L0.615,27.275ZM0.383,35.099L10.975,24.507L18.075,30.607L31.583,17.099L26.999,17.099L26.999,15.099L34.999,15.099L34.999,23.099L32.999,23.099L32.999,18.515L18.123,33.391L11.023,27.291L3.215,35.099L0.383,35.099Z" fill="#7D8198"/>
</svg>
