<svg width="36" height="36" viewBox="0 0 36 36" fill="none" xmlns="http://www.w3.org/2000/svg" xmlns:xlink="http://www.w3.org/1999/xlink">
<path d="M25,22L23.42,22L22.86,21.46C24.11,20.008 25.023,18.297 25.535,16.451C26.047,14.605 26.144,12.668 25.82,10.78C24.88,5.22 20.24,0.78 14.64,0.1C6.18,-0.94 -0.92,6.18 0.1,14.64C0.78,20.24 5.22,24.88 10.78,25.82C12.668,26.144 14.605,26.047 16.451,25.535C18.298,25.023 20.008,24.11 21.46,22.86L22,23.42L22,25L30.52,33.5C31.34,34.32 32.66,34.32 33.48,33.5L33.5,33.48C34.32,32.66 34.32,31.34 33.5,30.52L25,22ZM13,22C8.02,22 4,17.98 4,13C4,8.02 8.02,4 13,4C17.98,4 22,8.02 22,13C22,17.98 17.98,22 13,22ZM13,8C12.44,8 12,8.44 12,9L12,12L9,12C8.44,12 8,12.44 8,13C8,13.56 8.44,14 9,14L12,14L12,17C12,17.56 12.44,18 13,18C13.56,18 14,17.56 14,17L14,14L17,14C17.56,14 18,13.56 18,13C18,12.44 17.56,12 17,12L14,12L14,9C14,8.44 13.56,8 13,8Z" fill="#F47827"/>
</svg>
