<svg width="220" height="220" viewBox="0 0 220 220" fill="none" xmlns="http://www.w3.org/2000/svg" xmlns:xlink="http://www.w3.org/1999/xlink">
<circle cx="110" cy="110" r="110" fill="url(#pf_0_686_913)"/>
<circle cx="109" cy="109" r="95" fill="#434343"/>
<path d="M107.748,58.234L151.496,134.008L64,134.008L107.748,58.234Z" transform="rotate(-60 107.748 108.75)" fill="#D9D9D9"/>
<defs>
<radialGradient id="pf_0_686_913" cx="0" cy="0" r="1" gradientUnits="userSpaceOnUse" gradientTransform="matrix(-2 80.5 -80.5 -2 55 55)">
<stop stop-color="#434343"/>
<stop offset="1" stop-color="#434343" stop-opacity="0"/>
</radialGradient>
</defs>
</svg>
