<svg width="8" height="4" viewBox="0 0 8 4" fill="none" xmlns="http://www.w3.org/2000/svg" xmlns:xlink="http://www.w3.org/1999/xlink">
<path d="M1.811,-0.755L2.438,-0.263L2.69,0.389L2.418,1.012L1.825,0.859L0.961,0.992L0.674,0.946L-0.016,0.182L-0.496,-0.161L-0.688,-0.484L-0.078,-0.448L0.814,-0.662L1.811,-0.755ZM6.746,2.273L5.207,2.277L4.445,2.041L4.175,2.039L3.524,1.545L3.424,1.286L3.766,1.115L4.475,1.026L5.902,1.402L6.118,1.736L6.446,1.772L6.702,1.918L6.768,2.152L6.746,2.273Z" fill="#F7B329" stroke="#DCDCDC" stroke-width="0.5" stroke-miterlimit="3.999327"/>
</svg>
