<svg width="38" height="38" viewBox="0 0 38 38" fill="none" xmlns="http://www.w3.org/2000/svg" xmlns:xlink="http://www.w3.org/1999/xlink">
<path d="M36.834,31.416L28.902,23.483C30.541,21.013 31.5,18.055 31.5,14.875C31.5,6.259 24.491,-0.75 15.875,-0.75C7.259,-0.75 0.25,6.259 0.25,14.875C0.25,23.491 7.259,30.5 15.875,30.5C19.055,30.5 22.013,29.541 24.483,27.902L32.416,35.834C33.634,37.055 35.616,37.055 36.834,35.834C38.055,34.614 38.055,32.636 36.834,31.416L36.834,31.416ZM4.938,14.875C4.938,8.844 9.844,3.938 15.875,3.938C21.906,3.938 26.812,8.844 26.812,14.875C26.812,20.906 21.906,25.812 15.875,25.812C9.844,25.812 4.938,20.906 4.938,14.875L4.938,14.875Z" fill="#737791"/>
</svg>
